<?xml version="1.0" encoding="utf-8"?>
<!-- Generator: Adobe Illustrator 18.0.0, SVG Export Plug-In . SVG Version: 6.00 Build 0)  -->
<!DOCTYPE svg PUBLIC "-//W3C//DTD SVG 1.1//EN" "http://www.w3.org/Graphics/SVG/1.1/DTD/svg11.dtd">
<svg version="1.1" id="Layer_1" xmlns="http://www.w3.org/2000/svg" xmlns:xlink="http://www.w3.org/1999/xlink" x="0px" y="0px"
	 viewBox="0 0 32 32" enable-background="new 0 0 32 32" xml:space="preserve">
<g>
	<path fill="#93CDD3" d="M16.031,15.711c4.332,0,7.856-3.524,7.856-7.855C23.887,3.524,20.363,0,16.031,0S8.175,3.524,8.175,7.856
		C8.175,12.187,11.699,15.711,16.031,15.711z M16.031,1c3.781,0,6.856,3.076,6.856,6.856s-3.076,6.855-6.856,6.855
		c-3.78,0-6.856-3.075-6.856-6.855S12.251,1,16.031,1z"/>
	<path fill="#93CDD3" d="M20.431,31H1.111c1.541-6.932,7.708-11.9,14.89-11.9c2.083,0,4.089,0.407,5.963,1.21
		c0.251,0.107,0.548-0.009,0.656-0.263c0.109-0.254-0.009-0.548-0.263-0.657c-1.999-0.855-4.138-1.29-6.357-1.29
		c-7.867,0-14.593,5.598-15.993,13.312c-0.026,0.146,0.013,0.296,0.108,0.409C0.211,31.935,0.352,32,0.5,32h19.931
		c0.276,0,0.5-0.224,0.5-0.5S20.708,31,20.431,31z"/>
	<path fill="#93CDD3" d="M31.5,25.938h-4.562v-4.562c0-0.276-0.224-0.5-0.5-0.5s-0.5,0.224-0.5,0.5v4.562h-4.562
		c-0.276,0-0.5,0.224-0.5,0.5s0.224,0.5,0.5,0.5h4.562V31.5c0,0.276,0.224,0.5,0.5,0.5s0.5-0.224,0.5-0.5v-4.562H31.5
		c0.276,0,0.5-0.224,0.5-0.5S31.776,25.938,31.5,25.938z"/>
</g>
</svg>
