<?xml version="1.0" encoding="utf-8"?>
<!-- Generator: Adobe Illustrator 18.0.0, SVG Export Plug-In . SVG Version: 6.00 Build 0)  -->
<!DOCTYPE svg PUBLIC "-//W3C//DTD SVG 1.1//EN" "http://www.w3.org/Graphics/SVG/1.1/DTD/svg11.dtd">
<svg version="1.1" id="Layer_1" xmlns="http://www.w3.org/2000/svg" xmlns:xlink="http://www.w3.org/1999/xlink" x="0px" y="0px"
	 viewBox="0 0 43 43" enable-background="new 0 0 43 43" xml:space="preserve">
<g>
	<path fill="#93CDD3" d="M13.078,25.868c-0.264,0-0.484-0.206-0.499-0.473c-0.219-4.069,0.902-7.467,3.243-9.824
		c3.241-3.256,8.377-4.132,14.467-2.467c5.118,1.403,9.328,0.774,11.856-1.768c0.195-0.196,0.511-0.195,0.707-0.002
		c0.196,0.195,0.197,0.512,0.002,0.707c-2.793,2.809-7.35,3.526-12.829,2.027c-5.728-1.567-10.518-0.782-13.491,2.205
		c-2.14,2.153-3.161,5.288-2.957,9.066c0.015,0.276-0.197,0.512-0.473,0.526C13.096,25.868,13.087,25.868,13.078,25.868z"/>
	<path fill="#93CDD3" d="M0.5,32.183c-0.127,0-0.255-0.049-0.353-0.146c-0.196-0.195-0.197-0.512-0.002-0.707
		c2.793-2.809,7.35-3.526,12.829-2.027c5.728,1.567,10.519,0.782,13.491-2.205c0.007-0.008,0.015-0.015,0.022-0.021
		c2.124-2.149,3.138-5.276,2.934-9.045c-0.015-0.276,0.197-0.512,0.473-0.526c0.267-0.044,0.511,0.195,0.526,0.472
		c0.22,4.07-0.902,7.468-3.243,9.824c-0.007,0.008-0.016,0.015-0.023,0.022c-3.238,3.235-8.366,4.104-14.444,2.444
		c-5.115-1.402-9.327-0.774-11.856,1.768C0.757,32.134,0.628,32.183,0.5,32.183z"/>
	<path fill="#93CDD3" d="M11.261,43c-0.128,0-0.256-0.049-0.354-0.146c-0.195-0.195-0.195-0.512,0-0.707
		c1.84-1.841,2.897-4.584,2.976-7.724c0.007-0.275,0.213-0.483,0.513-0.487c0.276,0.007,0.494,0.236,0.487,0.513
		c-0.086,3.397-1.247,6.382-3.269,8.405C11.517,42.951,11.389,43,11.261,43z"/>
	<path fill="#93CDD3" d="M28.998,9.063c-0.004,0-0.008,0-0.013,0c-0.276-0.007-0.494-0.236-0.487-0.513
		c0.086-3.396,1.247-6.381,3.27-8.404c0.195-0.195,0.512-0.195,0.707,0s0.195,0.512,0,0.707c-1.84,1.841-2.897,4.584-2.977,7.723
		C29.491,8.848,29.268,9.063,28.998,9.063z"/>
	<path fill="#93CDD3" d="M24.029,24.065c-0.128,0-0.257-0.049-0.354-0.147l-4.512-4.539c-0.195-0.196-0.194-0.513,0.002-0.707
		s0.512-0.195,0.707,0.002l4.512,4.539c0.195,0.196,0.194,0.513-0.002,0.707C24.284,24.017,24.156,24.065,24.029,24.065z"/>
	<path fill="#93CDD3" d="M9.729,36.736c-0.127,0-0.254-0.048-0.352-0.145l-2.8-2.776c-0.196-0.194-0.197-0.512-0.003-0.707
		c0.195-0.196,0.511-0.197,0.707-0.004l2.8,2.776c0.196,0.195,0.197,0.512,0.003,0.707C9.987,36.687,9.858,36.736,9.729,36.736z"/>
	<path fill="#93CDD3" d="M35.947,9.84c-0.127,0-0.254-0.048-0.352-0.145l-2.801-2.776c-0.196-0.194-0.197-0.512-0.003-0.707
		c0.194-0.196,0.511-0.198,0.707-0.004l2.801,2.776c0.196,0.194,0.197,0.512,0.003,0.707C36.204,9.79,36.076,9.84,35.947,9.84z"/>
</g>
</svg>
