<?xml version="1.0" encoding="utf-8"?>
<!-- Generator: Adobe Illustrator 18.0.0, SVG Export Plug-In . SVG Version: 6.00 Build 0)  -->
<!DOCTYPE svg PUBLIC "-//W3C//DTD SVG 1.1//EN" "http://www.w3.org/Graphics/SVG/1.1/DTD/svg11.dtd">
<svg version="1.1" id="Layer_1" xmlns="http://www.w3.org/2000/svg" xmlns:xlink="http://www.w3.org/1999/xlink" x="0px" y="0px"
	 viewBox="0 0 36 36" enable-background="new 0 0 36 36" xml:space="preserve">
<g>
	<path fill="#F1D273" d="M35.628,12.327l-2.955-2.955c-0.159-0.159-0.404-0.192-0.599-0.079c-0.596,0.344-1.276,0.525-1.968,0.525
		c-1.049,0-2.034-0.408-2.775-1.149c-1.254-1.254-1.511-3.205-0.624-4.743c0.112-0.195,0.08-0.44-0.079-0.599l-2.955-2.955
		C23.433,0.132,23.113,0,22.774,0c-0.339,0-0.659,0.132-0.899,0.372L0.372,21.875C0.132,22.115,0,22.434,0,22.774
		c0,0.34,0.132,0.659,0.372,0.899l2.955,2.955c0.159,0.159,0.404,0.191,0.599,0.079c0.596-0.344,1.276-0.525,1.968-0.525
		c1.049,0,2.034,0.408,2.775,1.149c1.254,1.254,1.511,3.205,0.624,4.743c-0.112,0.195-0.08,0.44,0.079,0.599l2.955,2.955
		c0.24,0.24,0.559,0.372,0.899,0.372c0.339,0,0.659-0.132,0.899-0.372l21.503-21.503c0.24-0.24,0.372-0.559,0.372-0.899
		C36,12.887,35.868,12.567,35.628,12.327z M34.925,13.423L13.423,34.925c-0.105,0.105-0.288,0.105-0.394,0l-2.697-2.696
		c0.89-1.867,0.519-4.12-0.961-5.6c-0.929-0.929-2.164-1.44-3.478-1.44c-0.736,0-1.463,0.165-2.123,0.479l-2.697-2.696
		c-0.108-0.108-0.108-0.285,0-0.394L22.577,1.075c0.106-0.105,0.289-0.105,0.394,0l2.696,2.696c-0.89,1.867-0.518,4.12,0.962,5.6
		c0.929,0.929,2.164,1.44,3.478,1.44c0.736,0,1.462-0.165,2.122-0.479l2.697,2.697C35.034,13.138,35.034,13.314,34.925,13.423z"/>
	<path fill="#F1D273" d="M18.698,9.06c0.097,0.097,0.224,0.145,0.351,0.145c0.127,0,0.254-0.048,0.351-0.145
		c0.194-0.194,0.194-0.508,0-0.702L18.714,7.67c-0.194-0.194-0.508-0.194-0.702,0c-0.194,0.194-0.194,0.508,0,0.702L18.698,9.06z"/>
	<path fill="#F1D273" d="M21.69,10.647c-0.194-0.194-0.508-0.194-0.702,0c-0.194,0.194-0.194,0.508,0,0.702l0.687,0.687
		c0.097,0.097,0.224,0.145,0.351,0.145c0.127,0,0.254-0.048,0.351-0.145c0.194-0.194,0.194-0.508,0-0.702L21.69,10.647z"/>
	<path fill="#F1D273" d="M24.666,13.623c-0.194-0.194-0.508-0.194-0.702,0c-0.194,0.194-0.194,0.508,0,0.702l0.687,0.687
		c0.097,0.097,0.224,0.145,0.351,0.145c0.127,0,0.254-0.048,0.351-0.145c0.194-0.194,0.194-0.508,0-0.702L24.666,13.623z"/>
	<path fill="#F1D273" d="M27.643,16.6c-0.194-0.194-0.508-0.194-0.702,0c-0.194,0.194-0.194,0.508,0,0.702l0.687,0.687
		c0.097,0.097,0.224,0.145,0.351,0.145c0.127,0,0.254-0.048,0.351-0.145c0.194-0.194,0.194-0.508,0-0.702L27.643,16.6z"/>
	<path fill="#F1D273" d="M20.727,20.787l-2.174-1.538l0.034-2.663c0.002-0.189-0.103-0.363-0.271-0.449
		c-0.168-0.086-0.371-0.069-0.522,0.044l-2.134,1.593l-2.522-0.855c-0.179-0.061-0.377-0.015-0.511,0.119
		c-0.134,0.134-0.18,0.332-0.119,0.511l0.855,2.522l-1.593,2.134c-0.113,0.152-0.13,0.354-0.045,0.522
		c0.086,0.169,0.26,0.269,0.449,0.271l2.663-0.034l1.538,2.175c0.094,0.133,0.246,0.21,0.405,0.21c0.026,0,0.052-0.002,0.078-0.006
		c0.187-0.03,0.34-0.163,0.397-0.343l0.79-2.543l2.543-0.791c0.18-0.056,0.313-0.21,0.343-0.396
		C20.961,21.083,20.882,20.896,20.727,20.787z M17.501,21.586c-0.156,0.048-0.278,0.171-0.327,0.327l-0.569,1.832l-1.108-1.566
		c-0.093-0.132-0.244-0.21-0.405-0.21c-0.002,0-0.004,0-0.006,0l-1.918,0.024l1.147-1.537c0.098-0.131,0.125-0.302,0.072-0.457
		l-0.616-1.817l1.817,0.616c0.155,0.053,0.326,0.026,0.457-0.072l1.537-1.147l-0.024,1.918c-0.002,0.163,0.076,0.317,0.21,0.412
		l1.566,1.108L17.501,21.586z"/>
</g>
</svg>
