<?xml version="1.0" encoding="utf-8"?>
<!-- Generator: Adobe Illustrator 18.0.0, SVG Export Plug-In . SVG Version: 6.00 Build 0)  -->
<!DOCTYPE svg PUBLIC "-//W3C//DTD SVG 1.1//EN" "http://www.w3.org/Graphics/SVG/1.1/DTD/svg11.dtd">
<svg version="1.1" id="Layer_1" xmlns="http://www.w3.org/2000/svg" xmlns:xlink="http://www.w3.org/1999/xlink" x="0px" y="0px"
	 viewBox="0 0 21 21" enable-background="new 0 0 21 21" xml:space="preserve">
<g>
	<path fill="#FFFFFF" d="M5.608,15.393l5.678-1.049l9.363-9.362c0.467-0.469,0.467-1.229-0.001-1.697l-2.932-2.932
		C17.489,0.125,17.188,0,16.867,0c-0.001,0-0.001,0-0.001,0c-0.32,0-0.623,0.126-0.849,0.353L6.655,9.714L5.608,15.393z
		 M16.726,1.058c0.1-0.101,0.178-0.105,0.283,0.001l2.933,2.933c0.078,0.078,0.078,0.206,0,0.284l-1.828,1.828l-3.216-3.217
		L16.726,1.058z M7.583,10.201l6.607-6.607l3.216,3.217L10.8,13.417l-3.945,0.729L7.583,10.201z"/>
	<path fill="#FFFFFF" d="M20.5,10.142c-0.276,0-0.5,0.224-0.5,0.5v6.781C20,18.844,18.844,20,17.423,20H3.577
		C2.156,20,1,18.844,1,17.423V3.577C1,2.156,2.156,1,3.577,1h6.78c0.276,0,0.5-0.224,0.5-0.5S10.634,0,10.357,0h-6.78
		C1.604,0,0,1.605,0,3.577v13.847C0,19.396,1.604,21,3.577,21h13.846C19.396,21,21,19.396,21,17.423v-6.781
		C21,10.366,20.776,10.142,20.5,10.142z"/>
</g>
</svg>
