<?xml version="1.0" encoding="utf-8"?>
<!-- Generator: Adobe Illustrator 18.0.0, SVG Export Plug-In . SVG Version: 6.00 Build 0)  -->
<!DOCTYPE svg PUBLIC "-//W3C//DTD SVG 1.1//EN" "http://www.w3.org/Graphics/SVG/1.1/DTD/svg11.dtd">
<svg version="1.1" id="Layer_1" xmlns="http://www.w3.org/2000/svg" xmlns:xlink="http://www.w3.org/1999/xlink" x="0px" y="0px"
	 viewBox="0 0 21 21" enable-background="new 0 0 21 21" xml:space="preserve">
<g>
	<path fill="#EBC17E" d="M10.5,0C4.71,0,0,4.71,0,10.5S4.71,21,10.5,21S21,16.29,21,10.5S16.29,0,10.5,0z M10.5,20
		C5.262,20,1,15.738,1,10.5S5.262,1,10.5,1S20,5.262,20,10.5S15.738,20,10.5,20z"/>
	<path fill="#EBC17E" d="M13.333,6.479h-3.189c-1.642,0-2.978,1.336-2.978,2.978v2.086c0,1.642,1.336,2.978,2.978,2.978h3.189
		c0.276,0,0.5-0.224,0.5-0.5s-0.224-0.5-0.5-0.5h-3.189c-1.09,0-1.978-0.887-1.978-1.978V9.457c0-1.091,0.887-1.978,1.978-1.978
		h3.189c0.276,0,0.5-0.224,0.5-0.5S13.61,6.479,13.333,6.479z"/>
	<path fill="#EBC17E" d="M13.333,9.994h-3.056c-0.276,0-0.5,0.224-0.5,0.5s0.224,0.5,0.5,0.5h3.056c0.276,0,0.5-0.224,0.5-0.5
		S13.61,9.994,13.333,9.994z"/>
</g>
</svg>
