<?xml version="1.0" encoding="utf-8"?>
<!-- Generator: Adobe Illustrator 18.0.0, SVG Export Plug-In . SVG Version: 6.00 Build 0)  -->
<!DOCTYPE svg PUBLIC "-//W3C//DTD SVG 1.1//EN" "http://www.w3.org/Graphics/SVG/1.1/DTD/svg11.dtd">
<svg version="1.1" id="Layer_1" xmlns="http://www.w3.org/2000/svg" xmlns:xlink="http://www.w3.org/1999/xlink" x="0px" y="0px"
	 viewBox="0 0 20 20" enable-background="new 0 0 20 20" xml:space="preserve">
<g>
	<path fill="#93CDD3" d="M10.019,10.016c2.762,0,5.009-2.247,5.009-5.008S12.781,0,10.019,0S5.01,2.246,5.01,5.008
		S7.257,10.016,10.019,10.016z M10.019,1c2.21,0,4.009,1.798,4.009,4.008c0,2.21-1.798,4.008-4.009,4.008S6.01,7.218,6.01,5.008
		C6.01,2.798,7.809,1,10.019,1z"/>
	<path fill="#93CDD3" d="M12.716,19H1.119c1.01-4.036,4.653-6.906,8.882-6.906c1.251,0,2.455,0.244,3.579,0.726
		c0.254,0.109,0.548-0.009,0.657-0.262c0.109-0.254-0.009-0.548-0.262-0.657c-1.249-0.535-2.585-0.807-3.973-0.807
		c-4.916,0-9.118,3.498-9.993,8.317c-0.026,0.146,0.013,0.296,0.108,0.41C0.211,19.934,0.352,20,0.5,20h12.216
		c0.276,0,0.5-0.224,0.5-0.5S12.992,19,12.716,19z"/>
	<path fill="#93CDD3" d="M19.5,15.897h-2.603v-2.603c0-0.276-0.224-0.5-0.5-0.5s-0.5,0.224-0.5,0.5v2.603h-2.603
		c-0.276,0-0.5,0.224-0.5,0.5s0.224,0.5,0.5,0.5h2.603V19.5c0,0.276,0.224,0.5,0.5,0.5s0.5-0.224,0.5-0.5v-2.603H19.5
		c0.276,0,0.5-0.224,0.5-0.5S19.776,15.897,19.5,15.897z"/>
</g>
</svg>
