<?xml version="1.0" encoding="utf-8"?>
<!-- Generator: Adobe Illustrator 18.0.0, SVG Export Plug-In . SVG Version: 6.00 Build 0)  -->
<!DOCTYPE svg PUBLIC "-//W3C//DTD SVG 1.1//EN" "http://www.w3.org/Graphics/SVG/1.1/DTD/svg11.dtd">
<svg version="1.1" id="Layer_1" xmlns="http://www.w3.org/2000/svg" xmlns:xlink="http://www.w3.org/1999/xlink" x="0px" y="0px"
	 viewBox="0 0 28 28" enable-background="new 0 0 28 28" xml:space="preserve">
<g>
	<path fill="#93CDD3" d="M20.143,27H9.817c-0.276,0-0.5,0.224-0.5,0.5s0.224,0.5,0.5,0.5h10.325c0.276,0,0.5-0.224,0.5-0.5
		S20.419,27,20.143,27z"/>
	<path fill="#93CDD3" d="M15.631,20.955c5.777,0,10.477-4.7,10.477-10.478c0-5.113-3.686-9.377-8.538-10.289
		c-0.022-0.003-0.042-0.01-0.064-0.01C16.896,0.067,16.272,0,15.631,0C9.854,0,5.153,4.701,5.153,10.477
		C5.153,16.254,9.854,20.955,15.631,20.955z M25.108,10.477c0,5.226-4.251,9.478-9.477,9.478c-5.226,0-9.478-4.252-9.478-9.478
		c0-1.326,0.276-2.588,0.77-3.735c0.3,0.786,0.771,1.254,1.18,1.52c0.771,0.501,1.657,0.544,2.154,0.368
		c0.72-0.252,1.235-0.281,1.577-0.088c0.44,0.248,0.746,0.912,1.022,2.22c0.291,1.381,1.021,1.932,1.554,2.333
		c0.617,0.465,0.957,0.721,0.549,2.242c-0.225,0.842,0.011,1.294,0.249,1.525c0.199,0.194,0.465,0.295,0.761,0.295
		c0.136,0,0.278-0.021,0.423-0.064c0.653-0.193,1.421-0.874,1.667-1.958c0.048-0.211,0.09-0.425,0.132-0.638
		c0.191-0.962,0.371-1.87,1.055-2.404c0.803-0.627,1.183-1.696,0.946-2.66c-0.218-0.888-0.897-1.499-1.863-1.678
		c-0.453-0.083-0.651-0.257-0.925-0.498C16.96,6.866,16.407,6.38,14.839,6.38c-0.654,0-1.253-0.506-1.485-0.982
		c-0.099-0.203-0.121-0.387-0.058-0.468c0.069-0.087,0.145-0.102,0.558-0.032c0.399,0.065,1.002,0.168,1.46-0.331
		c0.348-0.38,0.404-0.845,0.454-1.256c0.084-0.702,0.184-1.428,1.793-2.112C21.865,2.094,25.108,5.913,25.108,10.477z M15.631,1
		c0.09,0,0.177,0.011,0.267,0.013c-0.942,0.759-1.05,1.58-1.122,2.178c-0.042,0.355-0.073,0.563-0.198,0.699
		c-0.077,0.085-0.2,0.081-0.557,0.021c-0.42-0.071-1.054-0.178-1.51,0.401c-0.312,0.397-0.333,0.952-0.056,1.521
		c0.374,0.769,1.312,1.546,2.384,1.546c1.191,0,1.522,0.291,1.905,0.628c0.318,0.279,0.68,0.597,1.404,0.73
		c0.57,0.104,0.952,0.436,1.073,0.932c0.142,0.579-0.101,1.251-0.591,1.635c-0.977,0.763-1.202,1.898-1.42,2.997
		c-0.041,0.204-0.081,0.409-0.127,0.611c-0.155,0.686-0.614,1.113-0.976,1.221c-0.127,0.037-0.194,0.019-0.203,0.012
		c-0.021-0.021-0.081-0.176,0.02-0.551c0.541-2.017-0.037-2.64-0.913-3.3c-0.496-0.373-0.964-0.727-1.177-1.74
		c-0.254-1.199-0.612-2.379-1.51-2.885c-0.614-0.348-1.376-0.343-2.398,0.016C9.749,7.749,9.181,7.768,8.648,7.422
		C8.07,7.047,7.723,6.347,7.641,5.401C9.325,2.76,12.273,1,15.631,1z"/>
	<path fill="#93CDD3" d="M25.347,19.483l-0.942-0.941c-0.195-0.195-0.512-0.195-0.707,0s-0.195,0.512,0,0.707l0.571,0.571
		c-2.361,2.187-5.404,3.397-8.639,3.397c-7.023,0-12.738-5.715-12.738-12.738c0-3.235,1.21-6.277,3.395-8.638l0.572,0.573
		C6.957,2.51,7.085,2.559,7.213,2.559S7.469,2.51,7.567,2.413c0.195-0.194,0.195-0.512,0-0.707L6.625,0.762
		c0,0-0.001-0.001-0.001-0.001l0,0c-0.195-0.195-0.512-0.195-0.707,0c-2.596,2.596-4.025,6.047-4.025,9.717
		c0,7.187,5.55,13.093,12.588,13.68v1.414c0,0.276,0.224,0.5,0.5,0.5s0.5-0.224,0.5-0.5v-1.363c0.05,0.001,0.099,0.008,0.15,0.008
		c3.67,0,7.121-1.43,9.716-4.025c0.049-0.049,0.086-0.105,0.11-0.166C25.53,19.844,25.493,19.63,25.347,19.483z"/>
</g>
</svg>
