<?xml version="1.0" encoding="utf-8"?>
<!-- Generator: Adobe Illustrator 18.0.0, SVG Export Plug-In . SVG Version: 6.00 Build 0)  -->
<!DOCTYPE svg PUBLIC "-//W3C//DTD SVG 1.1//EN" "http://www.w3.org/Graphics/SVG/1.1/DTD/svg11.dtd">
<svg version="1.1" id="Layer_1" xmlns="http://www.w3.org/2000/svg" xmlns:xlink="http://www.w3.org/1999/xlink" x="0px" y="0px"
	 viewBox="0 0 28 28" enable-background="new 0 0 28 28" xml:space="preserve">
<g>
	<path fill="#40E6C7" d="M23.516,14c2.619-2.776,3.582-5.313,2.609-7c-0.979-1.694-3.657-2.125-7.367-1.231
		C17.667,2.106,15.95,0,14,0c-1.95,0-3.666,2.106-4.758,5.769C5.528,4.881,2.85,5.312,1.875,7c-0.973,1.686-0.01,4.222,2.609,7
		c-2.622,2.773-3.586,5.31-2.609,7c0.646,1.12,2.038,1.693,3.985,1.693c0.99,0,2.131-0.157,3.383-0.457
		C10.335,25.896,12.051,28,14,28c1.95,0,3.665-2.104,4.756-5.763c1.254,0.302,2.396,0.461,3.387,0.461
		c1.943-0.001,3.334-0.575,3.982-1.698C27.101,19.309,26.138,16.771,23.516,14z M25.259,7.5c0.713,1.235-0.231,3.43-2.443,5.786
		c-0.946-0.916-2.028-1.813-3.242-2.666c-0.001-0.001-0.002-0.002-0.003-0.003c-0.02-0.02-0.041-0.037-0.064-0.054
		c-0.836-0.586-1.703-1.137-2.571-1.635c-0.557-0.324-1.142-0.631-1.747-0.933c1.147-0.482,2.273-0.871,3.358-1.154
		C21.933,5.942,24.506,6.194,25.259,7.5z M14,1c1.429,0,2.858,1.918,3.79,5.019c-1.229,0.35-2.499,0.82-3.79,1.405
		c-1.322-0.601-2.593-1.07-3.79-1.407C11.143,2.917,12.571,1,14,1z M2.741,20.5c-0.717-1.241,0.231-3.439,2.452-5.797
		c0.947,0.909,1.985,1.778,3.117,2.581c0.133,1.401,0.365,2.73,0.676,3.981C5.834,22.011,3.456,21.738,2.741,20.5z M8.282,10.936
		C8.188,11.942,8.141,12.974,8.141,14c0,0.648,0.026,1.297,0.064,1.944c-0.964-0.729-1.879-1.489-2.685-2.296
		C3.056,11.154,1.992,8.799,2.741,7.5c0.714-1.235,3.091-1.511,6.246-0.765C8.659,8.055,8.411,9.454,8.282,10.936z M17.936,21.511
		C17.011,24.896,15.503,27,14,27c-1.429,0-2.857-1.918-3.79-5.016c1.267-0.357,2.607-0.854,4-1.499
		c0.982-0.455,1.874-0.917,2.722-1.411c0.546-0.313,1.095-0.659,1.651-1.025C18.432,19.258,18.23,20.43,17.936,21.511z
		 M18.87,16.654c-0.838,0.585-1.636,1.094-2.438,1.553c-0.824,0.479-1.689,0.928-2.642,1.369c-1.339,0.62-2.622,1.097-3.835,1.441
		c-0.314-1.266-0.552-2.613-0.677-4.052C9.187,15.988,9.141,14.99,9.141,14c0-0.996,0.046-1.996,0.137-2.983
		C9.402,9.595,9.64,8.25,9.955,6.984c1.207,0.341,2.492,0.819,3.835,1.441c0.953,0.441,1.818,0.889,2.645,1.37
		c0.823,0.472,1.641,0.99,2.433,1.542c0.02,0.02,0.042,0.038,0.065,0.054c1.195,0.837,2.257,1.713,3.182,2.608
		c-0.951,0.917-2.014,1.792-3.181,2.601C18.912,16.616,18.89,16.634,18.87,16.654z M25.259,20.5
		c-0.717,1.244-3.095,1.52-6.247,0.767c0.308-1.239,0.538-2.56,0.673-3.975c1.142-0.805,2.189-1.671,3.131-2.579
		C25.03,17.067,25.974,19.261,25.259,20.5z"/>
	<path fill="#40E6C7" d="M14,11.838c-1.191,0-2.161,0.97-2.161,2.161s0.969,2.16,2.161,2.16s2.161-0.969,2.161-2.16
		S15.191,11.838,14,11.838z M14,15.159c-0.64,0-1.161-0.521-1.161-1.16c0-0.641,0.521-1.161,1.161-1.161s1.161,0.521,1.161,1.161
		C15.161,14.639,14.64,15.159,14,15.159z"/>
</g>
</svg>
