<?xml version="1.0" encoding="utf-8"?>
<!-- Generator: Adobe Illustrator 18.0.0, SVG Export Plug-In . SVG Version: 6.00 Build 0)  -->
<!DOCTYPE svg PUBLIC "-//W3C//DTD SVG 1.1//EN" "http://www.w3.org/Graphics/SVG/1.1/DTD/svg11.dtd">
<svg version="1.1" id="Layer_1" xmlns="http://www.w3.org/2000/svg" xmlns:xlink="http://www.w3.org/1999/xlink" x="0px" y="0px"
	 viewBox="0 0 20 24" enable-background="new 0 0 20 24" xml:space="preserve">
<g>
	<path fill="#3E8592" d="M15.5,8.625h-0.25V5.25C15.25,2.355,12.895,0,10,0S4.75,2.355,4.75,5.25v3.375H4.5
		c-2.481,0-4.5,2.019-4.5,4.5V19.5C0,21.981,2.019,24,4.5,24h11c2.481,0,4.5-2.019,4.5-4.5v-6.375
		C20,10.644,17.981,8.625,15.5,8.625z M5.75,5.25C5.75,2.906,7.657,1,10,1s4.25,1.906,4.25,4.25v3.375h-8.5V5.25z M19,19.5
		c0,1.93-1.57,3.5-3.5,3.5h-11C2.57,23,1,21.43,1,19.5v-6.375c0-1.93,1.57-3.5,3.5-3.5h0.75h9.5h0.75c1.93,0,3.5,1.57,3.5,3.5V19.5z
		"/>
	<path fill="#3E8592" d="M10,12.99c-1.267,0-2.297,1.03-2.297,2.297v2.051c0,1.267,1.031,2.297,2.297,2.297s2.297-1.03,2.297-2.297
		v-2.051C12.297,14.021,11.267,12.99,10,12.99z M11.297,17.338c0,0.715-0.582,1.297-1.297,1.297s-1.297-0.582-1.297-1.297v-2.051
		c0-0.715,0.582-1.297,1.297-1.297s1.297,0.582,1.297,1.297V17.338z"/>
</g>
</svg>
