<?xml version="1.0" encoding="utf-8"?>
<!-- Generator: Adobe Illustrator 18.0.0, SVG Export Plug-In . SVG Version: 6.00 Build 0)  -->
<!DOCTYPE svg PUBLIC "-//W3C//DTD SVG 1.1//EN" "http://www.w3.org/Graphics/SVG/1.1/DTD/svg11.dtd">
<svg version="1.1" id="Layer_1" xmlns="http://www.w3.org/2000/svg" xmlns:xlink="http://www.w3.org/1999/xlink" x="0px" y="0px"
	 viewBox="0 0 32 32" enable-background="new 0 0 32 32" xml:space="preserve">
<g>
	<path fill="#93CDD3" d="M8.574,32c-0.063,0-0.127-0.012-0.188-0.037c-0.188-0.076-0.312-0.26-0.312-0.463v-5.912
		C3.085,23.141,0,18.609,0,13.695C0,6.144,7.178,0,16,0s16,6.144,16,13.695c0,7.544-7.178,13.682-16,13.682
		c-0.869,0-1.723-0.058-2.542-0.171l-4.526,4.643C8.836,31.947,8.706,32,8.574,32z M16,1C7.729,1,1,6.695,1,13.695
		c0,4.616,2.983,8.879,7.786,11.125c0.176,0.082,0.288,0.259,0.288,0.453v4.997l3.846-3.944c0.113-0.116,0.274-0.173,0.434-0.146
		c0.847,0.13,1.738,0.196,2.646,0.196c8.271,0,15-5.688,15-12.682C31,6.695,24.271,1,16,1z"/>
	<g>
		<circle fill="#93CDD3" cx="9.117" cy="13.588" r="1.734"/>
		<circle fill="#93CDD3" cx="16" cy="13.588" r="1.734"/>
		<circle fill="#93CDD3" cx="22.883" cy="13.588" r="1.734"/>
	</g>
</g>
</svg>
