<?xml version="1.0" encoding="utf-8"?>
<!-- Generator: Adobe Illustrator 18.0.0, SVG Export Plug-In . SVG Version: 6.00 Build 0)  -->
<!DOCTYPE svg PUBLIC "-//W3C//DTD SVG 1.1//EN" "http://www.w3.org/Graphics/SVG/1.1/DTD/svg11.dtd">
<svg version="1.1" id="Layer_1" xmlns="http://www.w3.org/2000/svg" xmlns:xlink="http://www.w3.org/1999/xlink" x="0px" y="0px"
	 viewBox="0 0 24 24" enable-background="new 0 0 24 24" xml:space="preserve">
<g>
	<linearGradient id="SVGID_1_" gradientUnits="userSpaceOnUse" x1="0.2646" y1="21.0425" x2="19.6396" y2="-3.9575">
		<stop  offset="0" style="stop-color:#2083C8"/>
		<stop  offset="1" style="stop-color:#3DD48D"/>
	</linearGradient>
	<path fill="url(#SVGID_1_)" d="M12,11.9c3.3,0,6-2.7,6-6c0-3.3-2.7-6-6-6s-6,2.7-6,6C6,9.2,8.7,11.9,12,11.9z M12,1
		c2.8,0,5,2.2,5,5s-2.2,5-5,5S7,8.8,7,6S9.3,1,12,1z"/>
	<linearGradient id="SVGID_2_" gradientUnits="userSpaceOnUse" x1="8.2532" y1="27.2337" x2="27.6282" y2="2.2337">
		<stop  offset="0" style="stop-color:#2083C8"/>
		<stop  offset="1" style="stop-color:#3DD48D"/>
	</linearGradient>
	<path fill="url(#SVGID_2_)" d="M12,13.4c-5.9,0-11,4.2-12,10c0,0.2,0,0.3,0.1,0.4C0.2,23.9,0.4,24,0.5,24h23c0.1,0,0.3-0.1,0.4-0.2
		c0.1-0.1,0.1-0.3,0.1-0.4C22.9,17.6,17.9,13.4,12,13.4z M1.1,23c1.2-5,5.7-8.6,10.9-8.6S21.7,18,22.9,23H1.1z"/>
</g>
</svg>
