<?xml version="1.0" encoding="utf-8"?>
<!-- Generator: Adobe Illustrator 18.0.0, SVG Export Plug-In . SVG Version: 6.00 Build 0)  -->
<!DOCTYPE svg PUBLIC "-//W3C//DTD SVG 1.1//EN" "http://www.w3.org/Graphics/SVG/1.1/DTD/svg11.dtd">
<svg version="1.1" id="Layer_1" xmlns="http://www.w3.org/2000/svg" xmlns:xlink="http://www.w3.org/1999/xlink" x="0px" y="0px"
	 viewBox="0 0 42 42" enable-background="new 0 0 42 42" xml:space="preserve">
<g>
	<linearGradient id="SVGID_1_" gradientUnits="userSpaceOnUse" x1="21.4871" y1="41.9298" x2="42.6537" y2="6.5965">
		<stop  offset="0" style="stop-color:#F46276"/>
		<stop  offset="1" style="stop-color:#FFBA00"/>
	</linearGradient>
	<path fill="url(#SVGID_1_)" d="M41.74,12.529l-0.993-0.545c-0.393-0.215-0.714-0.537-0.928-0.931l-0.543-0.996
		c-0.088-0.161-0.256-0.261-0.439-0.261s-0.351,0.1-0.439,0.261l-0.543,0.996c-0.215,0.394-0.536,0.716-0.929,0.931l-0.993,0.545
		c-0.16,0.088-0.26,0.256-0.26,0.438s0.099,0.351,0.26,0.438l0.993,0.545c0.393,0.215,0.714,0.537,0.928,0.931l0.543,0.996
		c0.088,0.161,0.256,0.261,0.439,0.261s0.351-0.1,0.439-0.261l0.543-0.996c0.215-0.394,0.536-0.716,0.929-0.931l0.993-0.545
		c0.16-0.088,0.26-0.256,0.26-0.438S41.901,12.617,41.74,12.529z M40.267,13.074c-0.561,0.307-1.019,0.767-1.326,1.329l-0.104,0.191
		l-0.104-0.191c-0.307-0.562-0.765-1.022-1.326-1.329l-0.194-0.106l0.193-0.106c0.561-0.307,1.019-0.767,1.326-1.329l0.104-0.191
		l0.104,0.191c0.307,0.562,0.765,1.022,1.326,1.329l0.194,0.106L40.267,13.074z"/>
	<linearGradient id="SVGID_2_" gradientUnits="userSpaceOnUse" x1="25.5511" y1="44.3644" x2="46.7178" y2="9.0311">
		<stop  offset="0" style="stop-color:#F46276"/>
		<stop  offset="1" style="stop-color:#FFBA00"/>
	</linearGradient>
	<path fill="url(#SVGID_2_)" d="M40.314,22.768c-0.697-0.383-1.268-0.954-1.649-1.654c-0.088-0.161-0.256-0.261-0.439-0.261
		s-0.351,0.1-0.439,0.261c-0.381,0.699-0.952,1.271-1.649,1.654c-0.16,0.088-0.26,0.256-0.26,0.438s0.099,0.351,0.26,0.438
		c0.698,0.383,1.268,0.954,1.649,1.654c0.088,0.161,0.256,0.261,0.439,0.261s0.351-0.1,0.439-0.261
		c0.381-0.699,0.952-1.271,1.649-1.654c0.16-0.088,0.26-0.256,0.26-0.438S40.474,22.856,40.314,22.768z M38.226,24.145
		c-0.271-0.352-0.585-0.668-0.937-0.939c0.352-0.271,0.666-0.587,0.937-0.939c0.271,0.352,0.585,0.668,0.937,0.939
		C38.812,23.477,38.497,23.793,38.226,24.145z"/>
	<linearGradient id="SVGID_3_" gradientUnits="userSpaceOnUse" x1="-4.0165" y1="26.6517" x2="17.1501" y2="-8.6816">
		<stop  offset="0" style="stop-color:#F46276"/>
		<stop  offset="1" style="stop-color:#FFBA00"/>
	</linearGradient>
	<path fill="url(#SVGID_3_)" d="M5.926,14.346c-1.013-0.555-1.841-1.386-2.394-2.401c-0.088-0.161-0.256-0.261-0.439-0.261
		s-0.351,0.1-0.439,0.261C2.1,12.96,1.272,13.791,0.26,14.346C0.099,14.434,0,14.602,0,14.784s0.099,0.351,0.26,0.438
		c1.013,0.555,1.84,1.386,2.394,2.401c0.088,0.161,0.256,0.261,0.439,0.261s0.351-0.1,0.439-0.261
		c0.554-1.015,1.382-1.846,2.394-2.401c0.16-0.088,0.26-0.256,0.26-0.438S6.086,14.434,5.926,14.346z M3.093,16.441
		C2.638,15.8,2.08,15.24,1.439,14.784c0.64-0.456,1.198-1.015,1.653-1.657c0.455,0.642,1.013,1.201,1.653,1.657
		C4.106,15.24,3.548,15.8,3.093,16.441z"/>
	<linearGradient id="SVGID_4_" gradientUnits="userSpaceOnUse" x1="10.1802" y1="35.1564" x2="31.3469" y2="-0.1769">
		<stop  offset="0" style="stop-color:#F46276"/>
		<stop  offset="1" style="stop-color:#FFBA00"/>
	</linearGradient>
	<path fill="url(#SVGID_4_)" d="M34.413,15.576c-0.079-1.242-0.439-2.405-1.011-3.43l4.917-8.539
		c0.138-0.239,0.055-0.545-0.184-0.683c-0.239-0.138-0.545-0.055-0.683,0.184l-4.663,8.098c-0.964-1.276-2.292-2.257-3.823-2.788
		l4.415-7.669c0.138-0.239,0.055-0.545-0.184-0.683c-0.239-0.138-0.545-0.055-0.683,0.184L27.97,8.144
		c-0.531-0.11-1.079-0.17-1.641-0.17h-0.211c-0.39-1.694-1.894-2.923-3.671-2.923h-3.171c-1.777,0-3.281,1.229-3.671,2.923h-0.211
		c-0.561,0-1.11,0.059-1.641,0.17L9.209,0.251C9.071,0.011,8.766-0.071,8.526,0.067C8.287,0.204,8.205,0.51,8.342,0.75l4.415,7.669
		c-1.531,0.531-2.859,1.512-3.823,2.788L4.271,3.109C4.133,2.869,3.828,2.787,3.588,2.925C3.349,3.063,3.267,3.368,3.405,3.608
		l4.917,8.539c-0.572,1.025-0.932,2.188-1.011,3.43L6.174,33.359c-0.145,2.268,0.63,4.428,2.183,6.084
		C9.904,41.092,11.999,42,14.257,42h13.209c2.258,0,4.353-0.908,5.9-2.557c1.553-1.655,2.328-3.816,2.183-6.084L34.413,15.576z
		 M19.276,6.051h3.171c1.225,0,2.275,0.796,2.636,1.923H16.64C17.002,6.847,18.051,6.051,19.276,6.051z M32.637,38.759
		C31.281,40.204,29.445,41,27.466,41H14.257c-1.979,0-3.815-0.796-5.171-2.241c-1.362-1.452-2.042-3.347-1.915-5.336L8.309,15.64
		c0.239-3.738,3.351-6.666,7.085-6.666h10.301c0.001,0,0.003,0,0.004,0c0.002,0,0.005,0,0.007,0h0.624
		c3.734,0,6.846,2.928,7.085,6.666l1.137,17.783C34.679,35.412,33.999,37.307,32.637,38.759z"/>
	<linearGradient id="SVGID_5_" gradientUnits="userSpaceOnUse" x1="13.9192" y1="37.3962" x2="35.0858" y2="2.0629">
		<stop  offset="0" style="stop-color:#F46276"/>
		<stop  offset="1" style="stop-color:#FFBA00"/>
	</linearGradient>
	<path fill="url(#SVGID_5_)" d="M24.488,13.537h-7.252c-2.914,0-5.342,2.284-5.529,5.203l-0.754,13.91
		c-0.015,0.276,0.196,0.511,0.472,0.526c0.279,0.016,0.511-0.196,0.526-0.472l0.754-13.905c0.153-2.39,2.143-4.262,4.53-4.262h7.252
		c2.388,0,4.378,1.872,4.53,4.258l0.754,13.91c0.014,0.266,0.235,0.473,0.499,0.473c0.009,0,0.018,0,0.028-0.001
		c0.276-0.015,0.487-0.251,0.472-0.526l-0.754-13.914C29.83,15.821,27.401,13.537,24.488,13.537z"/>
	<linearGradient id="SVGID_6_" gradientUnits="userSpaceOnUse" x1="15.2731" y1="38.2073" x2="36.4398" y2="2.874">
		<stop  offset="0" style="stop-color:#F46276"/>
		<stop  offset="1" style="stop-color:#FFBA00"/>
	</linearGradient>
	<path fill="url(#SVGID_6_)" d="M25.401,27.733h-9.078c-0.276,0-0.5,0.224-0.5,0.5s0.224,0.5,0.5,0.5h4.039v3.034
		c-0.506,0.168-0.887,0.586-0.969,1.116l-0.264,1.695c-0.06,0.387,0.054,0.783,0.314,1.087c0.283,0.331,0.704,0.521,1.156,0.521
		h0.529c0.451,0,0.872-0.19,1.156-0.521c0.26-0.304,0.374-0.7,0.314-1.087l-0.264-1.695c-0.083-0.53-0.464-0.947-0.97-1.116v-3.034
		h4.039c0.276,0,0.5-0.224,0.5-0.5S25.677,27.733,25.401,27.733z M21.522,35.014c-0.093,0.109-0.237,0.171-0.396,0.171h-0.529
		c-0.158,0-0.303-0.062-0.396-0.171c-0.05-0.058-0.105-0.155-0.086-0.282l0.264-1.695c0.031-0.201,0.238-0.352,0.481-0.352
		c0.243,0,0.45,0.151,0.482,0.352l0.264,1.695C21.627,34.859,21.572,34.956,21.522,35.014z"/>
	<linearGradient id="SVGID_7_" gradientUnits="userSpaceOnUse" x1="11.9249" y1="36.2016" x2="33.0916" y2="0.8682">
		<stop  offset="0" style="stop-color:#F46276"/>
		<stop  offset="1" style="stop-color:#FFBA00"/>
	</linearGradient>
	<path fill="url(#SVGID_7_)" d="M24.539,20.24c-0.108-0.331-0.389-0.568-0.733-0.619l-1.471-0.214l-0.658-1.337
		c-0.154-0.313-0.467-0.508-0.815-0.508s-0.661,0.195-0.815,0.508l-0.658,1.337l-1.471,0.214c-0.344,0.05-0.625,0.287-0.733,0.619
		c-0.108,0.332-0.02,0.689,0.229,0.933l1.065,1.041l-0.251,1.47c-0.045,0.265,0.027,0.535,0.2,0.739
		c0.269,0.319,0.747,0.415,1.119,0.219l1.315-0.693l1.315,0.693c0.131,0.069,0.278,0.106,0.424,0.106
		c0.268,0,0.521-0.119,0.696-0.325c0.172-0.204,0.245-0.474,0.2-0.739l-0.251-1.47l1.065-1.041
		C24.559,20.929,24.647,20.572,24.539,20.24z M22.358,21.682c-0.117,0.115-0.171,0.28-0.143,0.442l0.265,1.548l-1.385-0.73
		c-0.146-0.077-0.32-0.077-0.466,0l-1.385,0.73l0.265-1.548c0.028-0.162-0.026-0.327-0.143-0.442l-1.123-1.098l1.551-0.226
		c0.163-0.024,0.304-0.126,0.376-0.274l0.692-1.406l0.692,1.406c0.073,0.148,0.214,0.25,0.377,0.274l1.551,0.226L22.358,21.682z"/>
	<linearGradient id="SVGID_8_" gradientUnits="userSpaceOnUse" x1="-0.5654" y1="28.7192" x2="20.6013" y2="-6.6142">
		<stop  offset="0" style="stop-color:#F46276"/>
		<stop  offset="1" style="stop-color:#FFBA00"/>
	</linearGradient>
	<path fill="url(#SVGID_8_)" d="M13.016,2.954l0.274,0.188c0.525,0.361,0.964,0.848,1.27,1.408l0.118,0.217
		c0.088,0.161,0.256,0.26,0.439,0.26h0c0.183,0,0.351-0.1,0.439-0.261l0.118-0.217c0.305-0.56,0.744-1.047,1.269-1.408l0.274-0.188
		c0.143-0.098,0.225-0.264,0.216-0.437c-0.009-0.173-0.107-0.33-0.259-0.413c-0.684-0.375-1.244-0.937-1.618-1.623
		C15.467,0.32,15.299,0.22,15.116,0.22s-0.351,0.1-0.439,0.261c-0.374,0.687-0.934,1.248-1.618,1.623
		c-0.152,0.083-0.25,0.24-0.259,0.413S12.873,2.856,13.016,2.954z M15.116,1.633c0.27,0.35,0.583,0.662,0.934,0.93
		c-0.354,0.288-0.669,0.625-0.934,0.997c-0.265-0.372-0.58-0.709-0.934-0.997C14.532,2.295,14.846,1.982,15.116,1.633z"/>
</g>
</svg>
