<?xml version="1.0" encoding="utf-8"?>
<!-- Generator: Adobe Illustrator 18.0.0, SVG Export Plug-In . SVG Version: 6.00 Build 0)  -->
<!DOCTYPE svg PUBLIC "-//W3C//DTD SVG 1.1//EN" "http://www.w3.org/Graphics/SVG/1.1/DTD/svg11.dtd">
<svg version="1.1" id="Layer_1" xmlns="http://www.w3.org/2000/svg" xmlns:xlink="http://www.w3.org/1999/xlink" x="0px" y="0px"
	 viewBox="0 0 24 24" enable-background="new 0 0 24 24" xml:space="preserve">
<g>
	<path fill="#B3B3B3" d="M23.5,23h-2.93c-0.176-5.048-2.944-7.965-4.459-9.552l-0.276-0.292c-0.61-0.648-0.61-1.664,0-2.312
		l0.276-0.291C17.626,8.965,20.394,6.049,20.57,1h2.93C23.776,1,24,0.776,24,0.5S23.776,0,23.5,0h-23C0.224,0,0,0.224,0,0.5
		S0.224,1,0.5,1h3.179c0.176,5.049,2.944,7.965,4.459,9.553l0.276,0.291c0.609,0.648,0.609,1.665,0,2.313l-0.276,0.291
		C6.623,15.035,3.855,17.952,3.679,23H0.5C0.224,23,0,23.224,0,23.5S0.224,24,0.5,24h23c0.276,0,0.5-0.224,0.5-0.5
		S23.776,23,23.5,23z M8.86,14.138l0.282-0.297c0.97-1.032,0.97-2.65,0-3.682L8.86,9.862C7.444,8.377,4.857,5.651,4.679,1H19.57
		c-0.177,4.651-2.765,7.377-4.181,8.862l-0.282,0.296c-0.972,1.033-0.972,2.65,0,3.683l0.282,0.297
		c1.416,1.485,4.004,4.211,4.181,8.862H4.679C4.857,18.349,7.444,15.623,8.86,14.138z"/>
	<path fill="#B3B3B3" d="M16.643,3.76c0-0.276-0.224-0.5-0.5-0.5H7.857c-0.276,0-0.5,0.224-0.5,0.5s0.224,0.5,0.5,0.5h8.285
		C16.419,4.26,16.643,4.036,16.643,3.76z"/>
</g>
</svg>
