<?xml version="1.0" encoding="utf-8"?>
<!-- Generator: Adobe Illustrator 18.0.0, SVG Export Plug-In . SVG Version: 6.00 Build 0)  -->
<!DOCTYPE svg PUBLIC "-//W3C//DTD SVG 1.1//EN" "http://www.w3.org/Graphics/SVG/1.1/DTD/svg11.dtd">
<svg version="1.1" id="Layer_1" xmlns="http://www.w3.org/2000/svg" xmlns:xlink="http://www.w3.org/1999/xlink" x="0px" y="0px"
	 viewBox="0 0 96 96" enable-background="new 0 0 96 96" xml:space="preserve">
<path fill="#93CDD3" d="M88.357,81.288L65.735,42.102V3h5.199c0.829,0,1.5-0.671,1.5-1.5S71.763,0,70.934,0h-6.699H31.753h-6.687
	c-0.829,0-1.5,0.671-1.5,1.5s0.671,1.5,1.5,1.5h5.187v39.102L7.643,81.288c-1.773,3.067-1.773,6.733,0,9.806
	C9.414,94.166,12.587,96,16.129,96h63.729c3.549,0,6.727-1.836,8.5-4.911C90.131,88.018,90.13,84.354,88.357,81.288z M33.052,43.253
	c0.131-0.228,0.201-0.486,0.201-0.75V3h29.482v39.504c0,0.263,0.069,0.522,0.201,0.75l6.385,11.061H26.67L33.052,43.253z
	 M85.76,89.59C84.529,91.725,82.322,93,79.858,93H16.129c-2.457,0-4.658-1.273-5.889-3.406c-1.23-2.133-1.23-4.677,0-6.806
	l14.698-25.473h46.115L85.76,82.789C86.99,84.916,86.99,87.458,85.76,89.59z"/>
</svg>
