<?xml version="1.0" encoding="utf-8"?>
<!-- Generator: Adobe Illustrator 18.0.0, SVG Export Plug-In . SVG Version: 6.00 Build 0)  -->
<!DOCTYPE svg PUBLIC "-//W3C//DTD SVG 1.1//EN" "http://www.w3.org/Graphics/SVG/1.1/DTD/svg11.dtd">
<svg version="1.1" id="Layer_1" xmlns="http://www.w3.org/2000/svg" xmlns:xlink="http://www.w3.org/1999/xlink" x="0px" y="0px"
	 viewBox="0 0 96 96" enable-background="new 0 0 96 96" xml:space="preserve">
<g>
	<path fill="#93CDD3" d="M94.499,92.995H82.46c-0.829,0-1.5,0.672-1.5,1.5s0.671,1.5,1.5,1.5h12.039c0.829,0,1.5-0.672,1.5-1.5
		S95.328,92.995,94.499,92.995z"/>
	<path fill="#93CDD3" d="M13.55,92.995H1.501c-0.829,0-1.5,0.672-1.5,1.5s0.671,1.5,1.5,1.5H13.55c0.829,0,1.5-0.672,1.5-1.5
		S14.378,92.995,13.55,92.995z"/>
	<path fill="#93CDD3" d="M42.084,41.008c0.809,0.142,1.592-0.408,1.732-1.225c0.659-3.845,1.274-7.992,1.829-12.326
		c0.25-1.956-0.16-3.99-1.152-5.72l-0.117-0.207c-0.246-0.457-0.376-0.973-0.376-1.492v-1.436c0-1.748,1.422-3.17,3.17-3.17h2.011
		c1.754,0,3.181,1.427,3.181,3.18v1.425c0,0.49-0.116,0.978-0.337,1.416c-1.081,1.532-1.675,3.419-1.675,5.327
		c0,0.394,0.024,0.791,0.073,1.192c0.543,4.212,1.142,8.188,1.779,11.814c0.128,0.728,0.761,1.24,1.476,1.24
		c0.086,0,0.174-0.007,0.262-0.022c0.816-0.144,1.361-0.921,1.218-1.737c-0.63-3.582-1.222-7.511-1.757-11.668
		c-0.033-0.273-0.05-0.546-0.05-0.819c0-1.319,0.416-2.618,1.17-3.658c0.039-0.054,0.074-0.11,0.106-0.169
		c0.481-0.893,0.736-1.901,0.736-2.916v-1.425c0-3.239-2.506-5.898-5.68-6.155V1.501c0-0.829-0.671-1.5-1.5-1.5s-1.5,0.671-1.5,1.5
		v10.958c-3.174,0.25-5.683,2.908-5.683,6.145v1.436c0,1.014,0.254,2.022,0.75,2.941l0.136,0.241
		c0.673,1.174,0.952,2.543,0.784,3.855c-0.549,4.292-1.158,8.396-1.81,12.199C40.719,40.092,41.267,40.867,42.084,41.008z"/>
	<path fill="#93CDD3" d="M62.489,68.994c-0.337-0.963-0.676-1.998-1.015-3.062h0.211c0.829,0,1.5-0.672,1.5-1.5s-0.671-1.5-1.5-1.5
		H34.323c-0.829,0-1.5,0.672-1.5,1.5s0.671,1.5,1.5,1.5h0.209c-0.34,1.069-0.68,2.108-1.018,3.071
		C27.206,87.382,20.711,93.317,20.652,93.37c-0.471,0.412-0.636,1.072-0.416,1.657c0.22,0.585,0.779,0.972,1.404,0.972h0
		l16.192-0.004c0.109,0.006,0.22,0.003,0.332-0.016c0.018-0.003,0.034-0.01,0.051-0.014c0.019-0.004,0.037-0.01,0.056-0.015
		c0.08-0.019,0.157-0.041,0.23-0.072c0.012-0.005,0.024-0.012,0.036-0.018c0.077-0.035,0.152-0.074,0.221-0.12
		c0.009-0.006,0.016-0.013,0.025-0.019c0.07-0.049,0.136-0.102,0.196-0.161c0.011-0.011,0.021-0.024,0.032-0.036
		c0.054-0.057,0.105-0.116,0.149-0.181c0.015-0.021,0.026-0.045,0.039-0.067c0.036-0.059,0.071-0.118,0.099-0.182
		c0.013-0.031,0.022-0.063,0.033-0.095c0.021-0.059,0.042-0.118,0.056-0.181c0.008-0.037,0.011-0.076,0.016-0.115
		c0.008-0.059,0.017-0.118,0.018-0.179c0-0.011,0.003-0.021,0.003-0.031c0-0.042-0.009-0.081-0.012-0.122
		c-0.003-0.038-0.001-0.075-0.007-0.113c-0.079-0.486-0.119-0.983-0.119-1.478c0-5.184,4.111-9.401,9.164-9.401
		c5.056,0,9.169,4.218,9.169,9.401c0,0.494-0.04,0.991-0.119,1.478c-0.006,0.038-0.004,0.076-0.007,0.113
		c-0.003,0.041-0.012,0.08-0.012,0.122c0,0.011,0.003,0.021,0.003,0.031c0.001,0.061,0.01,0.119,0.018,0.179
		c0.005,0.038,0.008,0.077,0.016,0.115c0.014,0.062,0.035,0.121,0.056,0.181c0.011,0.032,0.02,0.064,0.033,0.095
		c0.028,0.064,0.063,0.123,0.099,0.182c0.014,0.022,0.024,0.046,0.039,0.067c0.044,0.065,0.095,0.124,0.149,0.181
		c0.011,0.012,0.02,0.025,0.032,0.036c0.06,0.06,0.126,0.112,0.196,0.161c0.009,0.006,0.016,0.013,0.025,0.019
		c0.069,0.047,0.144,0.085,0.221,0.12c0.012,0.005,0.023,0.013,0.036,0.018c0.073,0.031,0.151,0.053,0.23,0.072
		c0.019,0.004,0.037,0.011,0.056,0.015c0.018,0.003,0.034,0.011,0.051,0.014c0.081,0.014,0.162,0.02,0.241,0.02
		c0.008,0,0.014-0.004,0.022-0.004l15.359,0.004h0c0.625,0,1.184-0.387,1.404-0.972c0.22-0.585,0.055-1.245-0.416-1.657
		C75.289,93.314,68.849,87.526,62.489,68.994z M60.612,92.995c0.001-0.071,0.009-0.142,0.009-0.213
		c0-6.838-5.459-12.401-12.169-12.401c-6.708,0-12.164,5.563-12.164,12.401c0,0.071,0.007,0.142,0.009,0.213l-11.335,0.002
		c2.613-3.376,7.046-10.361,11.387-23.011c0.441-1.258,0.888-2.621,1.332-4.055h20.645c0.442,1.427,0.888,2.788,1.329,4.046
		c4.344,12.656,8.777,19.644,11.39,23.021L60.612,92.995z"/>
	<path fill="#93CDD3" d="M37.866,47.736h1.377c-0.229,1.098-0.459,2.18-0.693,3.228c-0.509,2.248-1.026,4.382-1.536,6.342
		c-0.208,0.802,0.272,1.621,1.074,1.83c0.126,0.032,0.253,0.048,0.378,0.048c0.667,0,1.275-0.447,1.451-1.122
		c0.518-1.991,1.042-4.156,1.559-6.439c0.281-1.258,0.556-2.559,0.83-3.886h11.386c0.239,1.167,0.507,2.41,0.837,3.883
		c0.481,2.171,1.002,4.338,1.549,6.441c0.175,0.676,0.784,1.123,1.451,1.123c0.125,0,0.252-0.016,0.378-0.048
		c0.802-0.209,1.283-1.027,1.074-1.829c-0.538-2.069-1.05-4.201-1.524-6.34c-0.271-1.209-0.496-2.251-0.701-3.23h1.383
		c0.829,0,1.5-0.672,1.5-1.5s-0.671-1.5-1.5-1.5H37.866c-0.829,0-1.5,0.672-1.5,1.5S37.037,47.736,37.866,47.736z"/>
</g>
</svg>
