<?xml version="1.0" encoding="utf-8"?>
<!-- Generator: Adobe Illustrator 18.0.0, SVG Export Plug-In . SVG Version: 6.00 Build 0)  -->
<!DOCTYPE svg PUBLIC "-//W3C//DTD SVG 1.1//EN" "http://www.w3.org/Graphics/SVG/1.1/DTD/svg11.dtd">
<svg version="1.1" id="Layer_1" xmlns="http://www.w3.org/2000/svg" xmlns:xlink="http://www.w3.org/1999/xlink" x="0px" y="0px"
	 viewBox="0 0 20 20" enable-background="new 0 0 20 20" xml:space="preserve">
<path fill="#40E6C7" d="M16.644,13.289c-1.181,0-2.217,0.616-2.815,1.542l-7.256-3.271c0.081-0.288,0.138-0.586,0.138-0.9
	c0-0.407-0.084-0.792-0.217-1.153l7.495-4.122c0.614,0.801,1.57,1.326,2.655,1.326C18.495,6.711,20,5.206,20,3.355
	S18.495,0,16.644,0s-3.356,1.505-3.356,3.355c0,0.407,0.084,0.792,0.217,1.153L6.01,8.631C5.397,7.83,4.44,7.304,3.355,7.304
	C1.505,7.304,0,8.809,0,10.659s1.505,3.355,3.355,3.355c1.181,0,2.216-0.616,2.814-1.54l7.256,3.271
	c-0.081,0.288-0.138,0.585-0.138,0.898c0,1.851,1.505,3.355,3.356,3.355S20,18.495,20,16.645S18.495,13.289,16.644,13.289z
	 M16.644,1C17.944,1,19,2.057,19,3.355s-1.057,2.355-2.356,2.355s-2.356-1.057-2.356-2.355S15.345,1,16.644,1z M3.355,13.015
	C2.056,13.015,1,11.958,1,10.659s1.057-2.355,2.355-2.355c1.299,0,2.356,1.057,2.356,2.355S4.655,13.015,3.355,13.015z M16.644,19
	c-1.299,0-2.356-1.057-2.356-2.355s1.057-2.355,2.356-2.355S19,15.346,19,16.645S17.944,19,16.644,19z"/>
</svg>
