<?xml version="1.0" encoding="utf-8"?>
<!-- Generator: Adobe Illustrator 18.0.0, SVG Export Plug-In . SVG Version: 6.00 Build 0)  -->
<!DOCTYPE svg PUBLIC "-//W3C//DTD SVG 1.1//EN" "http://www.w3.org/Graphics/SVG/1.1/DTD/svg11.dtd">
<svg version="1.1" id="Layer_1" xmlns="http://www.w3.org/2000/svg" xmlns:xlink="http://www.w3.org/1999/xlink" x="0px" y="0px"
	 viewBox="0 0 8 8" enable-background="new 0 0 8 8" xml:space="preserve">
<polygon fill="#F3C358" points="1.528,7.608 2,4.856 0,2.906 2.764,2.505 4,0 5.236,2.505 8,2.906 6,4.856 6.472,7.608 4,6.309 "/>
<polygon fill="#F3C358" points="1.528,7.608 2,4.856 0,2.906 2.764,2.505 4,0 5.236,2.505 8,2.906 6,4.856 6.472,7.608 4,6.309 "/>
</svg>
