<?xml version="1.0" encoding="utf-8"?>
<!-- Generator: Adobe Illustrator 18.0.0, SVG Export Plug-In . SVG Version: 6.00 Build 0)  -->
<!DOCTYPE svg PUBLIC "-//W3C//DTD SVG 1.1//EN" "http://www.w3.org/Graphics/SVG/1.1/DTD/svg11.dtd">
<svg version="1.1" id="Layer_1" xmlns="http://www.w3.org/2000/svg" xmlns:xlink="http://www.w3.org/1999/xlink" x="0px" y="0px"
	 viewBox="0 0 43 43" enable-background="new 0 0 43 43" xml:space="preserve">
<g>
	<path fill="#93CDD3" d="M42.5,41.998h-5.437c-0.276,0-0.5,0.224-0.5,0.5s0.224,0.5,0.5,0.5H42.5c0.276,0,0.5-0.224,0.5-0.5
		S42.776,41.998,42.5,41.998z"/>
	<path fill="#93CDD3" d="M5.942,41.998H0.5c-0.276,0-0.5,0.224-0.5,0.5s0.224,0.5,0.5,0.5h5.441c0.276,0,0.5-0.224,0.5-0.5
		S6.218,41.998,5.942,41.998z"/>
	<path fill="#93CDD3" d="M18.45,17.59c-0.046,0.272,0.137,0.531,0.408,0.577c0.276,0.045,0.53-0.136,0.578-0.408
		c0.296-1.725,0.573-3.595,0.824-5.558c0.108-0.844-0.068-1.724-0.499-2.474l-0.054-0.096c-0.125-0.232-0.191-0.494-0.191-0.758
		V8.225c0-0.887,0.722-1.609,1.609-1.609h0.908c0.89,0,1.613,0.724,1.613,1.614v0.644c0,0.264-0.066,0.526-0.155,0.702
		c-0.485,0.669-0.753,1.501-0.753,2.343c0,0.171,0.01,0.342,0.031,0.516c0.246,1.904,0.516,3.696,0.803,5.327
		c0.042,0.243,0.253,0.414,0.491,0.414c0.029,0,0.059-0.002,0.088-0.007c0.271-0.048,0.453-0.307,0.405-0.579
		c-0.284-1.616-0.552-3.394-0.795-5.279c-0.016-0.13-0.023-0.261-0.023-0.391c0-0.633,0.199-1.256,0.598-1.812
		c0.203-0.377,0.311-0.803,0.311-1.233V8.229c0-1.425-1.146-2.582-2.564-2.609V0.5c0-0.276-0.224-0.5-0.5-0.5s-0.5,0.224-0.5,0.5
		V5.62c-1.418,0.024-2.566,1.181-2.566,2.605v0.648c0,0.43,0.107,0.856,0.316,1.242l0.061,0.107
		c0.323,0.564,0.456,1.222,0.375,1.852C19.019,14.023,18.744,15.879,18.45,17.59z"/>
	<path fill="#93CDD3" d="M27.875,31.041c-0.18-0.514-0.356-1.06-0.532-1.62h0.337c0.276,0,0.5-0.224,0.5-0.5s-0.224-0.5-0.5-0.5
		H15.323c-0.276,0-0.5,0.224-0.5,0.5s0.224,0.5,0.5,0.5h0.337c-0.175,0.56-0.352,1.106-0.534,1.623
		c-2.869,8.36-5.831,11.055-5.86,11.081c-0.156,0.138-0.211,0.358-0.137,0.552C9.202,42.871,9.387,43,9.595,43l7.354-0.001
		c0.012,0,0.022-0.006,0.033-0.007c0.016-0.001,0.03,0.004,0.046,0.002c0.024-0.004,0.042-0.017,0.064-0.024
		c0.028-0.009,0.055-0.017,0.081-0.03c0.032-0.017,0.06-0.036,0.088-0.059c0.022-0.018,0.043-0.036,0.061-0.057
		c0.023-0.026,0.041-0.055,0.057-0.085c0.014-0.026,0.027-0.051,0.037-0.08c0.011-0.033,0.016-0.067,0.021-0.102
		c0.002-0.02,0.012-0.037,0.012-0.057c0-0.013-0.007-0.024-0.008-0.037c-0.001-0.014,0.004-0.026,0.002-0.04
		c-0.036-0.226-0.056-0.458-0.056-0.697c0-2.439,1.936-4.423,4.315-4.423c2.381,0,4.318,1.984,4.318,4.423
		c0,0.238-0.02,0.471-0.056,0.697c-0.002,0.014,0.003,0.026,0.002,0.04c-0.001,0.013-0.008,0.024-0.008,0.037
		c0,0.02,0.009,0.038,0.012,0.057c0.004,0.035,0.009,0.069,0.021,0.102c0.01,0.029,0.023,0.054,0.037,0.08
		c0.017,0.031,0.035,0.059,0.057,0.085c0.019,0.022,0.039,0.039,0.061,0.057c0.028,0.023,0.055,0.043,0.088,0.059
		c0.026,0.013,0.053,0.022,0.081,0.03c0.022,0.007,0.041,0.02,0.064,0.024C26.409,42.998,26.435,43,26.461,43
		c0.003,0,0.005-0.001,0.008-0.001L33.407,43c0.208,0,0.394-0.129,0.467-0.323c0.074-0.194,0.02-0.414-0.136-0.552
		C33.708,42.098,30.747,39.404,27.875,31.041z M27,41.998c0.005-0.092,0.022-0.183,0.022-0.274c0-2.99-2.386-5.423-5.318-5.423
		c-2.931,0-5.315,2.433-5.315,5.423c0,0.091,0.017,0.182,0.022,0.274l-5.681,0.001c1.123-1.377,3.251-4.537,5.341-10.627
		c0.216-0.616,0.428-1.272,0.637-1.951h9.589c0.209,0.679,0.42,1.334,0.635,1.947c2.091,6.094,4.22,9.254,5.342,10.631L27,41.998z"
		/>
	<path fill="#93CDD3" d="M16.923,21.204h0.837c-0.117,0.568-0.234,1.136-0.354,1.674c-0.228,1.003-0.459,1.961-0.695,2.869
		c-0.069,0.268,0.091,0.541,0.358,0.61c0.042,0.011,0.085,0.016,0.126,0.016c0.223,0,0.426-0.149,0.484-0.374
		c0.238-0.917,0.472-1.886,0.702-2.902c0.135-0.61,0.268-1.247,0.401-1.894h5.439c0.131,0.646,0.264,1.284,0.401,1.893
		c0.226,1.015,0.459,1.984,0.697,2.902c0.059,0.225,0.262,0.374,0.484,0.374c0.041,0,0.084-0.005,0.126-0.016
		c0.268-0.069,0.428-0.342,0.358-0.61c-0.236-0.907-0.468-1.864-0.689-2.868c-0.121-0.54-0.239-1.108-0.356-1.675h0.836
		c0.276,0,0.5-0.224,0.5-0.5s-0.224-0.5-0.5-0.5h-9.156c-0.276,0-0.5,0.224-0.5,0.5S16.647,21.204,16.923,21.204z"/>
</g>
</svg>
