<?xml version="1.0" encoding="utf-8"?>
<!-- Generator: Adobe Illustrator 18.0.0, SVG Export Plug-In . SVG Version: 6.00 Build 0)  -->
<!DOCTYPE svg PUBLIC "-//W3C//DTD SVG 1.1//EN" "http://www.w3.org/Graphics/SVG/1.1/DTD/svg11.dtd">
<svg version="1.1" id="Layer_1" xmlns="http://www.w3.org/2000/svg" xmlns:xlink="http://www.w3.org/1999/xlink" x="0px" y="0px"
	 viewBox="0 0 43 43" enable-background="new 0 0 43 43" xml:space="preserve">
<g>
	<path fill="#93CDD3" d="M11.031,22.825c-0.276,0-0.5,0.224-0.5,0.5V40.75c0,0.276,0.224,0.5,0.5,0.5s0.5-0.224,0.5-0.5V23.325
		C11.531,23.048,11.307,22.825,11.031,22.825z"/>
	<path fill="#93CDD3" d="M17.817,22.825c-0.276,0-0.5,0.224-0.5,0.5V39c0,0.276,0.224,0.5,0.5,0.5s0.5-0.224,0.5-0.5V23.325
		C18.317,23.048,18.093,22.825,17.817,22.825z"/>
	<path fill="#93CDD3" d="M25.18,22.825c-0.276,0-0.5,0.224-0.5,0.5V39c0,0.276,0.224,0.5,0.5,0.5s0.5-0.224,0.5-0.5V23.325
		C25.68,23.048,25.457,22.825,25.18,22.825z"/>
	<path fill="#93CDD3" d="M31.967,22.825c-0.276,0-0.5,0.224-0.5,0.5V40.75c0,0.276,0.224,0.5,0.5,0.5s0.5-0.224,0.5-0.5V23.325
		C32.467,23.048,32.244,22.825,31.967,22.825z"/>
	<path fill="#93CDD3" d="M42.951,18.461c-0.083-0.174-0.259-0.284-0.451-0.284H22.095h-1.191H0.5c-0.192,0-0.368,0.11-0.451,0.284
		s-0.059,0.379,0.062,0.529l3.633,4.511V42.5c0,0.276,0.224,0.5,0.5,0.5s0.5-0.224,0.5-0.5V23.325c0-0.114-0.039-0.225-0.11-0.313
		l-3.088-3.834h19.358h1.191h19.359l-3.088,3.834c-0.071,0.089-0.11,0.199-0.11,0.313V42.5c0,0.276,0.224,0.5,0.5,0.5
		s0.5-0.224,0.5-0.5V23.501l3.633-4.511C43.009,18.84,43.034,18.635,42.951,18.461z"/>
	<path fill="#93CDD3" d="M16.44,8.994c0.072,0.266,0.347,0.423,0.614,0.351c0.267-0.073,0.423-0.348,0.351-0.614l-0.741-2.716
		c-0.016-0.056,0.008-0.095,0.03-0.117c0.021-0.023,0.057-0.047,0.115-0.034l2.096,0.498c0.217,0.052,0.442-0.048,0.553-0.244
		c0.004-0.007,0.405-0.718,1.057-1.171c0.364-0.253,0.522-0.717,0.383-1.125c-0.016-0.047-0.026-0.096-0.031-0.146
		c-0.019-0.182,0.048-0.373,0.183-0.523c0.134-0.149,0.315-0.236,0.497-0.237c0.001,0,0.003,0,0.004,0
		c0.183,0,0.355,0.071,0.485,0.201c0.131,0.13,0.203,0.303,0.203,0.487c0,0.076-0.013,0.149-0.037,0.221
		c-0.139,0.409,0.018,0.869,0.38,1.119c0.654,0.453,1.058,1.168,1.062,1.175c0.108,0.196,0.338,0.296,0.553,0.244l2.097-0.498
		c0.054-0.014,0.093,0.011,0.115,0.034c0.021,0.023,0.045,0.061,0.029,0.117L25.695,8.73c-0.072,0.267,0.084,0.542,0.351,0.614
		c0.044,0.012,0.089,0.018,0.132,0.018c0.22,0,0.422-0.146,0.482-0.368l0.741-2.716c0.105-0.386,0.003-0.788-0.275-1.076
		c-0.277-0.288-0.678-0.404-1.065-0.312l-1.752,0.416c-0.224-0.318-0.62-0.803-1.161-1.16c0.061-0.175,0.091-0.358,0.091-0.544
		c0-0.452-0.177-0.877-0.498-1.196c-0.2-0.198-0.429-0.331-0.689-0.409V0.5c0-0.276-0.224-0.5-0.5-0.5s-0.5,0.224-0.5,0.5v1.504
		c-0.281,0.092-0.541,0.251-0.747,0.48c-0.322,0.359-0.479,0.831-0.432,1.292c0.012,0.124,0.038,0.246,0.071,0.35
		c-0.535,0.373-0.93,0.862-1.152,1.181l-1.75-0.416c-0.386-0.093-0.786,0.023-1.065,0.311c-0.278,0.287-0.382,0.689-0.276,1.076
		L16.44,8.994z"/>
	<path fill="#93CDD3" d="M2.639,16.178c0.276,0,0.5-0.224,0.5-0.5v-0.858h11.264c0.276,0,0.5-0.224,0.5-0.5v-1.958H29.57v1.958
		c0,0.276,0.224,0.5,0.5,0.5h11.265v0.858c0,0.276,0.224,0.5,0.5,0.5s0.5-0.224,0.5-0.5v-1.358c0-0.276-0.224-0.5-0.5-0.5H30.57
		v-1.958c0-0.276-0.224-0.5-0.5-0.5H14.403c-0.276,0-0.5,0.224-0.5,0.5v1.958H2.639c-0.276,0-0.5,0.224-0.5,0.5v1.358
		C2.139,15.954,2.363,16.178,2.639,16.178z"/>
</g>
</svg>
