<?xml version="1.0" encoding="utf-8"?>
<!-- Generator: Adobe Illustrator 18.0.0, SVG Export Plug-In . SVG Version: 6.00 Build 0)  -->
<!DOCTYPE svg PUBLIC "-//W3C//DTD SVG 1.1//EN" "http://www.w3.org/Graphics/SVG/1.1/DTD/svg11.dtd">
<svg version="1.1" id="Layer_1" xmlns="http://www.w3.org/2000/svg" xmlns:xlink="http://www.w3.org/1999/xlink" x="0px" y="0px"
	 viewBox="0 0 28 28" enable-background="new 0 0 28 28" xml:space="preserve">
<g>
	<path fill="#93CDD3" d="M22.962,0.027C22.919,0.015,22.877,0,22.83,0H5.29C2.373,0,0,2.373,0,5.289c0,2.496,1.735,4.58,4.055,5.141
		v11.2c0,0.276,0.224,0.5,0.5,0.5s0.5-0.224,0.5-0.5V10.567c0.08,0.004,0.154,0.024,0.235,0.024c2.885,0,5.23-2.329,5.28-5.21h6.845
		c0.03,1.726,0.888,3.326,2.314,4.289c0.883,0.603,1.91,0.921,2.97,0.921c0.064,0,0.124-0.017,0.188-0.019V21.63
		c0,0.276,0.224,0.5,0.5,0.5s0.5-0.224,0.5-0.5V10.445C26.238,9.903,28,7.803,28,5.289C28,2.463,25.761,0.167,22.962,0.027z
		 M22.699,9.591c-0.858,0-1.69-0.259-2.408-0.748c-1.153-0.779-1.846-2.068-1.876-3.462h4.289c0.276,0,0.5-0.224,0.5-0.5
		s-0.224-0.5-0.5-0.5h-4.723c-0.001,0-0.002-0.001-0.003-0.001c-0.003,0-0.006,0.001-0.009,0.001h-7.949
		c-0.003,0-0.006-0.001-0.009-0.001c-0.001,0-0.002,0.001-0.003,0.001H5.294c-0.276,0-0.5,0.224-0.5,0.5s0.224,0.5,0.5,0.5H9.57
		c-0.05,2.329-1.946,4.21-4.28,4.21C2.924,9.591,1,7.661,1,5.289C1,2.924,2.924,1,5.29,1h17.409C25.07,1,27,2.924,27,5.289
		C27,7.661,25.07,9.591,22.699,9.591z"/>
	<path fill="#93CDD3" d="M10.832,15.271c-0.276,0-0.5,0.224-0.5,0.5V27.5c0,0.276,0.224,0.5,0.5,0.5s0.5-0.224,0.5-0.5V15.771
		C11.332,15.495,11.108,15.271,10.832,15.271z"/>
	<path fill="#93CDD3" d="M17.109,15.271c-0.276,0-0.5,0.224-0.5,0.5V27.5c0,0.276,0.224,0.5,0.5,0.5s0.5-0.224,0.5-0.5V15.771
		C17.609,15.495,17.386,15.271,17.109,15.271z"/>
</g>
</svg>
