<?xml version="1.0" encoding="utf-8"?>
<!-- Generator: Adobe Illustrator 18.0.0, SVG Export Plug-In . SVG Version: 6.00 Build 0)  -->
<!DOCTYPE svg PUBLIC "-//W3C//DTD SVG 1.1//EN" "http://www.w3.org/Graphics/SVG/1.1/DTD/svg11.dtd">
<svg version="1.1" id="Layer_1" xmlns="http://www.w3.org/2000/svg" xmlns:xlink="http://www.w3.org/1999/xlink" x="0px" y="0px"
	 viewBox="0 0 21 21" enable-background="new 0 0 21 21" xml:space="preserve">
<g>
	<path fill="#FFFFFF" d="M10.5,0C4.71,0,0,4.71,0,10.5c0,1.688,0.396,3.31,1.177,4.823l-1.169,3.562l3.885-0.218
		C5.761,20.174,8.099,21,10.5,21C16.29,21,21,16.29,21,10.5S16.29,0,10.5,0z M10.5,20c-2.233,0-4.406-0.79-6.119-2.225l-0.151-0.128
		l-2.815,0.158l0.846-2.577l-0.103-0.189C1.39,13.619,1,12.092,1,10.5C1,5.262,5.262,1,10.5,1S20,5.262,20,10.5S15.738,20,10.5,20z"
		/>
	<circle fill="#FFFFFF" cx="10.5" cy="14.764" r="0.57"/>
	<path fill="#FFFFFF" d="M10.996,5.769C10.307,5.643,9.554,5.83,8.963,6.29C8.391,6.798,8.089,7.45,8.089,8.176
		c0,0.276,0.224,0.5,0.5,0.5s0.5-0.224,0.5-0.5c0-0.444,0.176-0.816,0.513-1.117c0.339-0.264,0.806-0.385,1.201-0.309
		c0.514,0.11,0.966,0.563,1.075,1.071c0.115,0.577-0.067,1.08-0.525,1.425c-1.223,0.967-1.338,2.317-1.351,3.507
		c-0.003,0.275,0.219,0.502,0.495,0.505c0.001,0,0.003,0,0.005,0c0.273,0,0.497-0.221,0.5-0.495
		c0.014-1.284,0.172-2.101,0.962-2.726c0.75-0.563,1.084-1.465,0.894-2.419C12.665,6.723,11.906,5.964,10.996,5.769z"/>
</g>
</svg>
