<?xml version="1.0" encoding="utf-8"?>
<!-- Generator: Adobe Illustrator 18.0.0, SVG Export Plug-In . SVG Version: 6.00 Build 0)  -->
<!DOCTYPE svg PUBLIC "-//W3C//DTD SVG 1.1//EN" "http://www.w3.org/Graphics/SVG/1.1/DTD/svg11.dtd">
<svg version="1.1" id="Layer_1" xmlns="http://www.w3.org/2000/svg" xmlns:xlink="http://www.w3.org/1999/xlink" x="0px" y="0px"
	 viewBox="0 0 21 21" enable-background="new 0 0 21 21" xml:space="preserve">
<g>
	<path fill="#FFFFFF" d="M15.057,9.112c-3.277,0-5.943,2.666-5.943,5.943S11.779,21,15.057,21S21,18.333,21,15.056
		S18.334,9.112,15.057,9.112z M15.057,20c-2.726,0-4.943-2.218-4.943-4.944c0-2.726,2.218-4.943,4.943-4.943S20,12.33,20,15.056
		C20,17.782,17.782,20,15.057,20z"/>
	<path fill="#FFFFFF" d="M17.33,12.783c-0.195-0.195-0.512-0.195-0.707,0l-1.566,1.566l-1.566-1.566
		c-0.195-0.195-0.512-0.195-0.707,0s-0.195,0.512,0,0.707l1.566,1.566l-1.566,1.566c-0.195,0.195-0.195,0.512,0,0.707
		c0.098,0.098,0.226,0.146,0.354,0.146s0.256-0.049,0.354-0.146l1.566-1.566l1.566,1.566c0.098,0.098,0.226,0.146,0.354,0.146
		s0.256-0.049,0.354-0.146c0.195-0.195,0.195-0.512,0-0.707l-1.566-1.566l1.566-1.566C17.525,13.295,17.525,12.979,17.33,12.783z"/>
	<path fill="#FFFFFF" d="M9.308,20H4.64L3.185,5.679C3.182,5.655,3.17,5.635,3.164,5.612C3.155,5.577,3.148,5.543,3.133,5.511
		C3.132,5.509,3.132,5.507,3.13,5.505c0,0.001,0,0.002,0,0.003C3.048,5.345,2.883,5.229,2.688,5.229H2.043
		c-0.279,0-0.541-0.107-0.738-0.308C1.108,4.728,1,4.468,1,4.189c0-0.574,0.468-1.042,1.043-1.042h6.562c0.276,0,0.5-0.224,0.5-0.5
		V2.095C9.105,1.491,9.596,1,10.197,1h0.397c0.603,0,1.093,0.491,1.093,1.095v0.553c0,0.276,0.224,0.5,0.5,0.5h6.77
		c0.279,0,0.54,0.108,0.738,0.308C19.892,3.649,20,3.91,20,4.189c0,0.573-0.468,1.04-1.043,1.04H17.77
		c-0.192,0-0.354,0.112-0.438,0.271c0-0.004,0-0.009,0-0.013c-0.004,0.007-0.004,0.016-0.007,0.024
		c-0.016,0.032-0.023,0.066-0.031,0.101c-0.006,0.023-0.018,0.042-0.021,0.066L17.03,8.062c-0.028,0.275,0.172,0.521,0.446,0.548
		c0.018,0.002,0.034,0.003,0.052,0.003c0.253,0,0.471-0.192,0.496-0.449l0.197-1.934h0.736c1.127,0,2.043-0.915,2.043-2.04
		c0-0.548-0.214-1.062-0.599-1.442c-0.384-0.387-0.896-0.6-1.444-0.6h-6.27V2.095C12.688,0.939,11.749,0,10.595,0h-0.397
		C9.044,0,8.105,0.939,8.105,2.095v0.053H2.043C0.916,2.147,0,3.063,0,4.189c0,0.547,0.214,1.06,0.598,1.439
		C0.98,6.017,1.494,6.229,2.043,6.229h0.193L3.69,20.551C3.716,20.806,3.931,21,4.188,21h5.12c0.276,0,0.5-0.224,0.5-0.5
		S9.584,20,9.308,20z"/>
	<path fill="#FFFFFF" d="M5.694,5.229c-0.276,0-0.5,0.224-0.5,0.5s0.224,0.5,0.5,0.5h9.363c0.276,0,0.5-0.224,0.5-0.5
		s-0.224-0.5-0.5-0.5H5.694z"/>
</g>
</svg>
