<?xml version="1.0" encoding="utf-8"?>
<!-- Generator: Adobe Illustrator 18.0.0, SVG Export Plug-In . SVG Version: 6.00 Build 0)  -->
<!DOCTYPE svg PUBLIC "-//W3C//DTD SVG 1.1//EN" "http://www.w3.org/Graphics/SVG/1.1/DTD/svg11.dtd">
<svg version="1.1" id="Layer_1" xmlns="http://www.w3.org/2000/svg" xmlns:xlink="http://www.w3.org/1999/xlink" x="0px" y="0px"
	 viewBox="0 0 24 24" enable-background="new 0 0 24 24" xml:space="preserve">
<g>
	<path fill="#B3B3B3" d="M9.05,15.033c2.508,0,4.549-2.041,4.549-4.549S11.558,5.935,9.05,5.935c-2.509,0-4.55,2.041-4.55,4.549
		S6.541,15.033,9.05,15.033z M9.05,6.935c1.957,0,3.549,1.592,3.549,3.549s-1.592,3.549-3.549,3.549S5.5,12.441,5.5,10.484
		S7.093,6.935,9.05,6.935z"/>
	<path fill="#B3B3B3" d="M18.054,23.553c0.002-0.018,0.011-0.034,0.011-0.053c0-0.015-0.007-0.028-0.009-0.043
		c-0.001-0.015,0.004-0.03,0.001-0.045c-0.788-4.352-4.584-7.51-9.024-7.51s-8.236,3.158-9.024,7.51
		c-0.003,0.016,0.002,0.03,0.001,0.045C0.007,23.471,0,23.484,0,23.5c0,0.019,0.009,0.035,0.011,0.053
		c0.004,0.034,0.009,0.067,0.02,0.099c0.01,0.031,0.022,0.058,0.038,0.086c0.015,0.028,0.032,0.053,0.052,0.078
		c0.021,0.025,0.043,0.046,0.069,0.067c0.024,0.02,0.049,0.037,0.077,0.052c0.03,0.016,0.06,0.027,0.093,0.037
		c0.018,0.005,0.032,0.017,0.051,0.02c0.015,0.002,0.029-0.003,0.043-0.001C0.47,23.992,0.484,24,0.5,24h17.064c0,0,0,0,0.001,0
		c0.03,0,0.058-0.003,0.088-0.008c0.019-0.003,0.033-0.015,0.051-0.02c0.033-0.01,0.064-0.021,0.093-0.037
		c0.028-0.015,0.053-0.032,0.077-0.052c0.025-0.021,0.048-0.042,0.069-0.067s0.037-0.05,0.052-0.078s0.028-0.055,0.038-0.086
		C18.044,23.62,18.05,23.587,18.054,23.553z M9.032,16.901c3.753,0,6.983,2.532,7.906,6.099H1.126
		C2.049,19.433,5.279,16.901,9.032,16.901z"/>
	<path fill="#B3B3B3" d="M16.543,7.619c2.101,0,3.81-1.709,3.81-3.81S18.644,0,16.543,0s-3.81,1.708-3.81,3.809
		S14.442,7.619,16.543,7.619z M16.543,1.001c1.549,0,2.81,1.26,2.81,2.809s-1.261,2.81-2.81,2.81s-2.81-1.261-2.81-2.81
		S14.994,1.001,16.543,1.001z"/>
	<path fill="#B3B3B3" d="M23.932,15.255c0.015-0.028,0.028-0.056,0.038-0.086c0.01-0.032,0.016-0.064,0.02-0.098
		c0.001-0.019,0.01-0.035,0.01-0.054c0-0.015-0.007-0.028-0.009-0.044c-0.001-0.016,0.004-0.03,0.001-0.046
		c-0.591-3.247-3.295-5.782-6.575-6.165c-0.268-0.028-0.521,0.165-0.555,0.439c-0.031,0.274,0.165,0.522,0.439,0.555
		c2.642,0.307,4.833,2.233,5.548,4.761h-8.067c-0.276,0-0.5,0.224-0.5,0.5s0.224,0.5,0.5,0.5H23.5c0,0,0,0,0.001,0
		c0.03,0,0.059-0.003,0.089-0.008c0.019-0.004,0.034-0.015,0.052-0.021c0.032-0.01,0.062-0.021,0.091-0.036s0.054-0.033,0.078-0.053
		c0.025-0.02,0.047-0.041,0.068-0.066C23.899,15.309,23.916,15.283,23.932,15.255z"/>
</g>
</svg>
