<?xml version="1.0" encoding="utf-8"?>
<!-- Generator: Adobe Illustrator 18.0.0, SVG Export Plug-In . SVG Version: 6.00 Build 0)  -->
<!DOCTYPE svg PUBLIC "-//W3C//DTD SVG 1.1//EN" "http://www.w3.org/Graphics/SVG/1.1/DTD/svg11.dtd">
<svg version="1.1" id="Layer_1" xmlns="http://www.w3.org/2000/svg" xmlns:xlink="http://www.w3.org/1999/xlink" x="0px" y="0px"
	 viewBox="0 0 20 20" enable-background="new 0 0 20 20" xml:space="preserve">
<path fill="#F1D273" d="M18.5,0.419h-5.184c-0.701-0.162-1.446-0.204-2.168-0.242c-0.215-0.011-0.427-0.023-0.63-0.037
	c-1.064-0.076-2.14-0.104-3.202-0.085C6.02-0.047,4.883-0.006,4.01,0.174C2.842,0.416,2.035,0.915,1.606,1.668
	C1.25,2.323,1.335,2.994,1.4,3.288C0.049,4.441,0.415,5.782,0.63,6.299v0.002C0.183,6.834-0.028,7.387,0.003,7.941
	c0.025,0.704,0.408,1.231,0.613,1.464c-0.13,0.249-0.277,0.653-0.266,1.11c0.012,0.52,0.227,0.991,0.619,1.36
	c0.523,0.497,1.416,0.749,2.655,0.749c1.082,0,2.072-0.186,2.423-0.26L6.13,12.35c0.232-0.052,0.49-0.107,0.748-0.159l0.066-0.018
	c0.022-0.008,0.048-0.012,0.069-0.012c0.036,0,0.048,0.011,0.071,0.031c0.016,0.014,0.39,0.366-0.443,2.997
	c-0.548,1.696-0.524,3.034,0.066,3.867c0.611,0.875,1.59,0.943,1.875,0.943c0.214,0,0.398-0.081,0.557-0.251
	c0.429-0.487,0.329-1.553,0.28-1.911c0.055-0.15,0.11-0.3,0.168-0.451c0.557-1.475,1.26-3.191,2.249-4.731
	c0.182-0.283,0.426-0.533,0.684-0.799l0.137-0.141c0.333-0.347,0.602-0.761,0.792-1.216h5.05c0.827,0,1.5-0.673,1.5-1.5v-7.08
	C20,1.092,19.327,0.419,18.5,0.419z M12.646,9.784c-0.137,0.471-0.382,0.899-0.708,1.238l-0.133,0.137
	c-0.282,0.289-0.573,0.588-0.809,0.956c-1.04,1.618-1.768,3.394-2.342,4.915c-0.067,0.175-0.132,0.351-0.196,0.528
	c-0.065,0.15-0.073,0.297-0.024,0.447c0.05,0.398,0.035,0.802-0.004,0.986c-0.239-0.027-0.64-0.131-0.904-0.509
	c-0.397-0.56-0.373-1.62,0.069-2.987c0.743-2.345,0.781-3.523,0.148-4.056c-0.201-0.182-0.453-0.278-0.728-0.278
	c-0.121,0-0.246,0.019-0.364,0.056c-0.235,0.048-0.47,0.097-0.685,0.146l-0.077,0.011c-0.551,0.12-1.435,0.248-2.264,0.248
	c-0.947,0-1.645-0.168-1.968-0.475c-0.568-0.534-0.18-1.239-0.13-1.325l0.011-0.016c0.227-0.317,0.169-0.763-0.125-1.014
	C1.357,8.736,1.019,8.367,1.002,7.895c-0.019-0.331,0.135-0.67,0.46-1.026C1.701,6.622,1.744,6.25,1.573,5.96
	c0,0,0-0.001-0.001-0.001C1.377,5.537,1.19,4.718,2.144,3.972L2.191,3.93c0.231-0.233,0.304-0.543,0.195-0.818
	C2.363,3.025,2.255,2.567,2.48,2.154c0.275-0.483,0.858-0.819,1.732-1c0.784-0.161,1.839-0.196,3.049-0.1l0.025,0.002l0.025,0
	c1.041-0.021,2.094,0.008,3.136,0.082c0.21,0.015,0.427,0.026,0.648,0.038c0.563,0.03,1.141,0.061,1.674,0.151v7.591
	C12.769,9.211,12.728,9.502,12.646,9.784z M19,9c0,0.276-0.224,0.5-0.5,0.5h-1.616V2.8c0-0.276-0.224-0.5-0.5-0.5
	c-0.276,0-0.5,0.224-0.5,0.5v6.7h-2.115V8.918V1.419H18.5c0.276,0,0.5,0.224,0.5,0.5V9z"/>
</svg>
