<?xml version="1.0" encoding="utf-8"?>
<!-- Generator: Adobe Illustrator 18.0.0, SVG Export Plug-In . SVG Version: 6.00 Build 0)  -->
<!DOCTYPE svg PUBLIC "-//W3C//DTD SVG 1.1//EN" "http://www.w3.org/Graphics/SVG/1.1/DTD/svg11.dtd">
<svg version="1.1" id="Layer_1" xmlns="http://www.w3.org/2000/svg" xmlns:xlink="http://www.w3.org/1999/xlink" x="0px" y="0px"
	 viewBox="0 0 20 20" enable-background="new 0 0 20 20" xml:space="preserve">
<g>
	<path fill="#46F8AF" d="M14.682,3.342c1.073-0.301,2.233-0.324,3.379-0.314l-1.487,1.159c-0.218,0.17-0.257,0.484-0.087,0.702
		c0.099,0.127,0.246,0.193,0.395,0.193c0.107,0,0.216-0.035,0.308-0.105l2.619-2.041c0.02-0.016,0.031-0.038,0.048-0.056
		c0.012-0.012,0.028-0.017,0.039-0.031c0.008-0.01,0.01-0.023,0.017-0.033c0.02-0.03,0.033-0.06,0.046-0.092
		c0.012-0.029,0.023-0.057,0.028-0.087c0.006-0.032,0.007-0.062,0.007-0.095s0-0.063-0.007-0.095
		c-0.006-0.03-0.017-0.058-0.028-0.087c-0.013-0.032-0.027-0.063-0.046-0.092c-0.007-0.011-0.009-0.023-0.017-0.033
		c-0.013-0.016-0.031-0.025-0.045-0.039c-0.015-0.015-0.024-0.035-0.042-0.049L17.19,0.106c-0.219-0.17-0.533-0.131-0.702,0.087
		c-0.17,0.218-0.131,0.532,0.087,0.702l1.454,1.133c-1.204-0.01-2.428,0.018-3.615,0.351c-2.035,0.571-3.831,1.959-5.338,4.126
		c-0.632,0.908-1.158,1.89-1.667,2.839c-0.65,1.213-1.265,2.359-2.087,3.383c-1.203,1.5-2.779,2.228-4.819,2.228v1
		c2.363,0,4.194-0.851,5.599-2.602c0.88-1.096,1.545-2.337,2.188-3.537c0.495-0.924,1.008-1.88,1.606-2.741
		C11.267,5.105,12.877,3.849,14.682,3.342z"/>
	<path fill="#46F8AF" d="M5.319,7.272c0.001,0,0.089,0.111,0.089,0.111C5.495,7.491,5.605,7.54,5.722,7.54s0.237-0.049,0.346-0.135
		c0.215-0.172,0.205-0.542,0.033-0.757C4.697,4.896,2.865,4.045,0.5,4.045c-0.276,0-0.5,0.224-0.5,0.5s0.224,0.5,0.5,0.5
		C2.543,5.045,4.119,5.774,5.319,7.272z"/>
	<path fill="#46F8AF" d="M19.994,17.431c-0.001-0.023-0.004-0.044-0.009-0.066c-0.004-0.023-0.01-0.044-0.018-0.066
		c-0.007-0.019-0.013-0.038-0.022-0.056c-0.01-0.02-0.022-0.038-0.035-0.057c-0.007-0.011-0.009-0.023-0.017-0.033
		c-0.006-0.008-0.016-0.012-0.023-0.019c-0.014-0.016-0.028-0.03-0.044-0.044c-0.008-0.007-0.012-0.017-0.02-0.023l-2.619-2.041
		c-0.219-0.168-0.533-0.131-0.702,0.087c-0.17,0.218-0.131,0.532,0.087,0.702l1.487,1.159c-1.145,0.01-2.306-0.013-3.38-0.314
		c-1.804-0.507-3.414-1.764-4.834-3.802l-0.068-0.101c-0.15-0.234-0.461-0.301-0.69-0.151c-0.232,0.149-0.301,0.458-0.151,0.69
		l0.136,0.201c1.51,2.167,3.306,3.555,5.338,4.126c1.077,0.301,2.186,0.355,3.278,0.355c0.113,0,0.225-0.002,0.338-0.003
		l-1.453,1.132c-0.218,0.17-0.257,0.484-0.087,0.702C16.585,19.934,16.732,20,16.881,20c0.107,0,0.216-0.035,0.308-0.105
		l2.619-2.041c0.008-0.007,0.012-0.016,0.02-0.023c0.017-0.015,0.031-0.03,0.046-0.047c0.006-0.007,0.015-0.009,0.021-0.017
		c0.008-0.01,0.01-0.023,0.017-0.033c0.013-0.019,0.025-0.037,0.035-0.057c0.008-0.019,0.014-0.037,0.021-0.056
		c0.008-0.022,0.014-0.044,0.018-0.066c0.004-0.022,0.007-0.043,0.009-0.066c0-0.011,0.005-0.019,0.005-0.029
		C20,17.45,19.995,17.441,19.994,17.431z"/>
</g>
</svg>
