<?xml version="1.0" encoding="utf-8"?>
<!-- Generator: Adobe Illustrator 18.0.0, SVG Export Plug-In . SVG Version: 6.00 Build 0)  -->
<!DOCTYPE svg PUBLIC "-//W3C//DTD SVG 1.1//EN" "http://www.w3.org/Graphics/SVG/1.1/DTD/svg11.dtd">
<svg version="1.1" id="Layer_1" xmlns="http://www.w3.org/2000/svg" xmlns:xlink="http://www.w3.org/1999/xlink" x="0px" y="0px"
	 viewBox="0 0 26 19.2" enable-background="new 0 0 26 19.2" xml:space="preserve">
<g>
	<path fill="#40E6C7" d="M17.469,12.824c-1.681,0-3.048,1.311-3.167,2.963h-2.605c-0.119-1.651-1.485-2.963-3.167-2.963
		c-1.759,0-3.189,1.431-3.189,3.189c0,1.758,1.431,3.188,3.189,3.188c1.49,0,2.735-1.032,3.084-2.415h2.771
		c0.348,1.383,1.593,2.415,3.084,2.415c1.759,0,3.189-1.431,3.189-3.188C20.659,14.255,19.228,12.824,17.469,12.824z M8.531,18.202
		c-1.207,0-2.189-0.981-2.189-2.188s0.982-2.189,2.189-2.189s2.189,0.982,2.189,2.189S9.738,18.202,8.531,18.202z M17.469,18.202
		c-1.207,0-2.189-0.981-2.189-2.188s0.982-2.189,2.189-2.189s2.189,0.982,2.189,2.189S18.676,18.202,17.469,18.202z"/>
	<path fill="#40E6C7" d="M25.5,10.059h-3.699l-2.558-7.962c-0.403-1.255-1.56-2.099-2.878-2.099c-0.361,0-0.717,0.065-1.058,0.192
		L13,1.052l-2.305-0.862c-0.341-0.127-0.697-0.192-1.059-0.192c-1.318,0-2.475,0.844-2.878,2.099L4.2,10.059H0.5
		c-0.276,0-0.5,0.224-0.5,0.5s0.224,0.5,0.5,0.5h4.064h16.872H25.5c0.276,0,0.5-0.224,0.5-0.5S25.776,10.059,25.5,10.059z
		 M7.71,2.403c0.344-1.071,1.569-1.674,2.634-1.276l2.48,0.927c0.113,0.042,0.237,0.042,0.351,0l2.481-0.927
		c1.064-0.398,2.29,0.205,2.634,1.276l1.389,4.324H6.321L7.71,2.403z M5.25,10.059L6,7.727h14.001l0.749,2.332H5.25z"/>
</g>
</svg>
