<?xml version="1.0" encoding="utf-8"?>
<!-- Generator: Adobe Illustrator 18.0.0, SVG Export Plug-In . SVG Version: 6.00 Build 0)  -->
<!DOCTYPE svg PUBLIC "-//W3C//DTD SVG 1.1//EN" "http://www.w3.org/Graphics/SVG/1.1/DTD/svg11.dtd">
<svg version="1.1" id="Layer_1" xmlns="http://www.w3.org/2000/svg" xmlns:xlink="http://www.w3.org/1999/xlink" x="0px" y="0px"
	 viewBox="0 0 28 28" enable-background="new 0 0 28 28" xml:space="preserve">
<g>
	<path fill="#93CDD3" d="M7.27,14.673c-0.276,0-0.5,0.224-0.5,0.5v11.201c0,0.276,0.224,0.5,0.5,0.5s0.5-0.224,0.5-0.5V15.173
		C7.77,14.897,7.546,14.673,7.27,14.673z"/>
	<path fill="#93CDD3" d="M11.633,14.673c-0.276,0-0.5,0.224-0.5,0.5V25.25c0,0.276,0.224,0.5,0.5,0.5s0.5-0.224,0.5-0.5V15.173
		C12.133,14.897,11.909,14.673,11.633,14.673z"/>
	<path fill="#93CDD3" d="M16.366,14.673c-0.276,0-0.5,0.224-0.5,0.5V25.25c0,0.276,0.224,0.5,0.5,0.5s0.5-0.224,0.5-0.5V15.173
		C16.866,14.897,16.642,14.673,16.366,14.673z"/>
	<path fill="#93CDD3" d="M20.729,14.673c-0.276,0-0.5,0.224-0.5,0.5v11.201c0,0.276,0.224,0.5,0.5,0.5s0.5-0.224,0.5-0.5V15.173
		C21.229,14.897,21.006,14.673,20.729,14.673z"/>
	<path fill="#93CDD3" d="M27.951,11.969c-0.083-0.174-0.259-0.284-0.451-0.284H14.383h-0.766H0.5c-0.192,0-0.368,0.11-0.451,0.284
		c-0.083,0.174-0.059,0.38,0.062,0.529l2.296,2.852V27.5c0,0.276,0.224,0.5,0.5,0.5s0.5-0.224,0.5-0.5V15.173
		c0-0.114-0.039-0.225-0.11-0.313l-1.751-2.175h12.073h0.766h12.072l-1.751,2.175c-0.071,0.089-0.11,0.199-0.11,0.313V27.5
		c0,0.276,0.224,0.5,0.5,0.5s0.5-0.224,0.5-0.5V15.35l2.296-2.852C28.01,12.349,28.034,12.143,27.951,11.969z"/>
	<path fill="#93CDD3" d="M10.575,6.007c0.074,0.268,0.351,0.421,0.614,0.351c0.266-0.073,0.423-0.348,0.351-0.614l-0.433-1.583
		l1.183,0.281c0.222,0.057,0.446-0.049,0.554-0.245c0.002-0.004,0.241-0.426,0.625-0.692c0.297-0.207,0.426-0.588,0.301-0.981
		c-0.007-0.067,0.02-0.14,0.072-0.199c0.053-0.06,0.104-0.079,0.19-0.093c0.094,0,0.156,0.048,0.185,0.076
		c0.029,0.029,0.078,0.092,0.065,0.271c-0.116,0.338,0.011,0.718,0.31,0.924c0.385,0.267,0.627,0.692,0.629,0.696
		c0.109,0.194,0.336,0.294,0.553,0.243l1.182-0.281l-0.432,1.583c-0.073,0.267,0.084,0.541,0.351,0.614
		c0.044,0.012,0.088,0.018,0.132,0.018c0.22,0,0.421-0.146,0.482-0.368l0.477-1.746c0.084-0.31,0.002-0.632-0.221-0.862
		c-0.224-0.231-0.543-0.322-0.855-0.25l-1.008,0.239c-0.141-0.188-0.347-0.425-0.614-0.63c0.018-0.086,0.027-0.174,0.027-0.264
		c0-0.339-0.133-0.657-0.374-0.896c-0.114-0.114-0.247-0.207-0.39-0.273V0.5c0-0.276-0.224-0.5-0.5-0.5s-0.5,0.224-0.5,0.5v0.84
		c-0.162,0.073-0.311,0.179-0.434,0.317c-0.24,0.268-0.358,0.621-0.323,0.969c0.005,0.045,0.012,0.089,0.021,0.133
		c-0.267,0.205-0.474,0.442-0.614,0.63l-1.008-0.239c-0.308-0.071-0.631,0.02-0.854,0.249c-0.223,0.23-0.306,0.553-0.222,0.863
		L10.575,6.007z"/>
	<path fill="#93CDD3" d="M1.875,10.757c0.276,0,0.5-0.224,0.5-0.5V9.883h7.063c0.276,0,0.5-0.224,0.5-0.5V8.304h9.071v1.079
		c0,0.276,0.224,0.5,0.5,0.5h7.063v0.374c0,0.276,0.224,0.5,0.5,0.5s0.5-0.224,0.5-0.5V9.383c0-0.276-0.224-0.5-0.5-0.5H20.01V7.804
		c0-0.276-0.224-0.5-0.5-0.5H9.438c-0.276,0-0.5,0.224-0.5,0.5v1.079H1.875c-0.276,0-0.5,0.224-0.5,0.5v0.874
		C1.375,10.534,1.599,10.757,1.875,10.757z"/>
</g>
</svg>
