<?xml version="1.0" encoding="utf-8"?>
<!-- Generator: Adobe Illustrator 18.0.0, SVG Export Plug-In . SVG Version: 6.00 Build 0)  -->
<!DOCTYPE svg PUBLIC "-//W3C//DTD SVG 1.1//EN" "http://www.w3.org/Graphics/SVG/1.1/DTD/svg11.dtd">
<svg version="1.1" id="Layer_1" xmlns="http://www.w3.org/2000/svg" xmlns:xlink="http://www.w3.org/1999/xlink" x="0px" y="0px"
	 viewBox="0 0 28 28" enable-background="new 0 0 28 28" xml:space="preserve">
<g>
	<path fill="#93CDD3" d="M27.5,22.645h-5.163c0.002-0.04,0.008-0.079,0-0.12l-0.029-0.141c-0.266-1.313-0.497-2.448-0.7-3.87
		c-0.04-0.273-0.294-0.457-0.566-0.424c-0.273,0.039-0.463,0.293-0.424,0.566c0.208,1.45,0.44,2.598,0.71,3.926l0.013,0.062H10.425
		c-0.274,0-0.497,0.226-0.5,0.5c-0.001,0.145-0.261,1.348-1.187,1.844c-0.243,0.13-0.335,0.434-0.205,0.677
		c0.131,0.243,0.433,0.337,0.677,0.204c0.98-0.525,1.46-1.556,1.634-2.225h16.137c-0.228,3.154-2.609,3.348-2.688,3.354H7.221H6.1
		c-1.813,0-2.873-2.963-3.442-5.448C1.464,16.346,1.31,9.62,1.217,5.602c-0.033-1.421-0.053-2.3-0.1-2.852h19.339
		c0.276,0,0.5-0.224,0.5-0.5s-0.224-0.5-0.5-0.5H0.5c-0.253,0-0.467,0.189-0.497,0.441c-0.015,0.123,0.017,0.242,0.082,0.339
		c0.069,0.353,0.1,1.687,0.132,3.095C0.311,9.681,0.466,16.47,1.683,21.773c0.96,4.189,2.405,6.226,4.417,6.226h1.121l17.101-0.001
		C24.358,27.995,28,27.748,28,23.145C28,22.868,27.776,22.645,27.5,22.645z"/>
	<path fill="#93CDD3" d="M11.508,15.674c-0.042,0.034-0.079,0.076-0.109,0.123c-1.051,0.588-2.161,1.135-3.268,1.552
		c-0.258,0.098-0.389,0.386-0.292,0.645c0.075,0.2,0.266,0.323,0.468,0.323c0.059,0,0.118-0.01,0.176-0.032
		c1.165-0.439,2.323-1.006,3.412-1.614c1.028,0.564,2.14,0.862,3.309,0.862c0.896,0,1.823-0.166,2.763-0.501
		c3.23-1.146,6.195-4.215,7.381-7.638c0.05-0.151,0.022-0.346-0.069-0.476c-0.201-0.286-0.563-0.301-1.421-0.319
		c0.168-0.122,0.339-0.243,0.486-0.349c1.41-1.006,1.614-1.186,1.683-1.474c0.215-0.917,0.204-6.478-0.679-6.755
		c-0.241-0.074-0.528,0.065-0.632,0.296c-1.467,3.235-4.352,4.939-7.143,6.587C14.053,8.984,10.726,10.948,11.508,15.674z
		 M24.98,1.937c0.164,1.354,0.301,3.47,0.094,4.516c-0.199,0.19-0.861,0.663-1.311,0.984c-1.327,0.947-1.521,1.114-1.6,1.381
		c-0.043,0.149-0.009,0.34,0.083,0.465c0.203,0.275,0.525,0.295,1.514,0.314c0.13,0.003,0.289,0.007,0.438,0.012
		c-1.199,2.927-3.776,5.49-6.565,6.48c-1.206,0.43-2.932,0.718-4.699-0.023c2.879-1.738,5.066-3.581,5.199-3.694
		c0.21-0.179,0.236-0.494,0.058-0.704c-0.179-0.212-0.494-0.237-0.705-0.058c-0.032,0.026-2.202,1.854-5.031,3.571
		c-0.464-3.808,2.237-5.414,5.627-7.416C20.528,6.321,23.262,4.707,24.98,1.937z"/>
</g>
</svg>
