<?xml version="1.0" encoding="utf-8"?>
<!-- Generator: Adobe Illustrator 18.0.0, SVG Export Plug-In . SVG Version: 6.00 Build 0)  -->
<!DOCTYPE svg PUBLIC "-//W3C//DTD SVG 1.1//EN" "http://www.w3.org/Graphics/SVG/1.1/DTD/svg11.dtd">
<svg version="1.1" id="Layer_1" xmlns="http://www.w3.org/2000/svg" xmlns:xlink="http://www.w3.org/1999/xlink" x="0px" y="0px"
	 viewBox="0 0 22 22" enable-background="new 0 0 22 22" xml:space="preserve">
<g>
	<path fill="#FFFFFF" d="M11,0C4.935,0,0,4.935,0,11s4.935,11,11,11s11-4.935,11-11S17.065,0,11,0z M11,21C5.486,21,1,16.514,1,11
		S5.486,1,11,1s10,4.486,10,10S16.514,21,11,21z"/>
	<path fill="#FFFFFF" d="M14.448,7.305l-8.088,3.12c-0.2,0.077-0.198,0.36,0.002,0.435l1.971,0.736l0.763,2.453
		c0.049,0.157,0.241,0.215,0.369,0.111l1.099-0.896c0.115-0.094,0.279-0.099,0.4-0.011l1.981,1.439
		c0.136,0.099,0.33,0.024,0.364-0.14l1.452-6.982C14.796,7.389,14.619,7.239,14.448,7.305z M12.905,8.938l-3.179,2.955
		c-0.112,0.104-0.184,0.243-0.204,0.394l-0.108,0.802C9.4,13.196,9.249,13.207,9.22,13.103L8.803,11.64
		c-0.048-0.167,0.022-0.345,0.169-0.436l3.852-2.372C12.894,8.789,12.965,8.883,12.905,8.938z"/>
</g>
</svg>
