<?xml version="1.0" encoding="utf-8"?>
<!-- Generator: Adobe Illustrator 18.0.0, SVG Export Plug-In . SVG Version: 6.00 Build 0)  -->
<!DOCTYPE svg PUBLIC "-//W3C//DTD SVG 1.1//EN" "http://www.w3.org/Graphics/SVG/1.1/DTD/svg11.dtd">
<svg version="1.1" id="Layer_1" xmlns="http://www.w3.org/2000/svg" xmlns:xlink="http://www.w3.org/1999/xlink" x="0px" y="0px"
	 viewBox="0 0 42 42" enable-background="new 0 0 42 42" xml:space="preserve">
<g>
	<linearGradient id="SVGID_1_" gradientUnits="userSpaceOnUse" x1="15.8188" y1="35.932" x2="28.2444" y2="1.7931">
		<stop  offset="0" style="stop-color:#B368FA"/>
		<stop  offset="1" style="stop-color:#FF81BC"/>
	</linearGradient>
	<path fill="url(#SVGID_1_)" d="M41.927,22.959c0.008-0.014,0.016-0.028,0.023-0.042c0.007-0.015,0.013-0.029,0.019-0.045
		c0.006-0.016,0.011-0.031,0.015-0.047c0.004-0.015,0.007-0.03,0.009-0.045c0.003-0.018,0.005-0.036,0.005-0.054
		c0-0.008,0.002-0.016,0.002-0.024V12c0-1.664-1.354-3.018-3.017-3.018h-7.134C31.588,3.986,27.442,0,22.381,0H19.62
		c-5.061,0-9.209,3.986-9.469,8.983H3.018C1.354,8.983,0,10.337,0,12v10.701c0,0.008,0.002,0.016,0.002,0.024
		c0.001,0.018,0.003,0.036,0.005,0.054c0.002,0.015,0.006,0.03,0.009,0.045c0.004,0.016,0.009,0.032,0.015,0.047
		c0.006,0.015,0.012,0.03,0.019,0.045c0.007,0.014,0.015,0.028,0.023,0.042c0.008,0.014,0.017,0.027,0.026,0.039
		c0.01,0.013,0.02,0.026,0.031,0.038c0.01,0.011,0.021,0.022,0.032,0.033C0.175,23.08,0.188,23.09,0.202,23.1
		c0.013,0.01,0.026,0.019,0.04,0.027c0.013,0.008,0.027,0.016,0.042,0.023c0.016,0.008,0.032,0.014,0.049,0.021
		c0.008,0.003,0.015,0.007,0.023,0.009c0.69,0.209,1.419,0.406,2.179,0.592V38.22c0,2.084,1.696,3.78,3.78,3.78h29.372
		c2.084,0,3.78-1.696,3.78-3.78V23.772c0.76-0.186,1.489-0.383,2.179-0.592c0.008-0.002,0.015-0.007,0.023-0.009
		c0.017-0.006,0.033-0.013,0.049-0.021c0.014-0.007,0.028-0.014,0.042-0.023c0.014-0.008,0.027-0.017,0.04-0.027
		c0.013-0.01,0.026-0.02,0.038-0.032c0.011-0.01,0.022-0.021,0.032-0.033c0.011-0.012,0.022-0.025,0.031-0.038
		C41.91,22.985,41.919,22.972,41.927,22.959z M19.62,1h2.761c4.509,0,8.208,3.537,8.468,7.982H11.152C11.411,4.537,15.11,1,19.62,1z
		 M3.018,9.983h35.965C40.095,9.983,41,10.888,41,12v10.325c-5.209,1.522-12.465,2.394-20,2.394c-7.533,0-14.789-0.872-20-2.394V12
		C1,10.888,1.905,9.983,3.018,9.983z M29.301,25.362c1.255-0.11,2.48-0.244,3.668-0.402v2.973c0,0.628-0.511,1.14-1.14,1.14h-1.388
		c-0.629,0-1.14-0.511-1.14-1.14V25.362z M9.032,24.96c1.189,0.157,2.413,0.292,3.668,0.402v2.571c0,0.628-0.511,1.14-1.14,1.14
		h-1.388c-0.629,0-1.14-0.511-1.14-1.14V24.96z M38.466,38.22c0,1.533-1.247,2.78-2.78,2.78H6.314c-1.533,0-2.78-1.247-2.78-2.78
		V24.005c1.407,0.313,2.917,0.585,4.498,0.816v3.112c0,1.18,0.96,2.14,2.14,2.14h1.388c1.18,0,2.14-0.96,2.14-2.14v-2.489
		c2.364,0.18,4.818,0.274,7.3,0.274c2.482,0,4.936-0.095,7.301-0.274v2.489c0,1.18,0.96,2.14,2.14,2.14h1.388
		c1.18,0,2.14-0.96,2.14-2.14v-3.112c1.581-0.231,3.091-0.503,4.498-0.816V38.22z"/>
	<linearGradient id="SVGID_2_" gradientUnits="userSpaceOnUse" x1="17.3152" y1="29.2585" x2="24.8779" y2="8.4803">
		<stop  offset="0" style="stop-color:#B368FA"/>
		<stop  offset="1" style="stop-color:#FF81BC"/>
	</linearGradient>
	<path fill="url(#SVGID_2_)" d="M4.82,19.625c4.753,0.943,10.348,1.442,16.18,1.442c5.832,0,11.427-0.499,16.18-1.442
		c0.271-0.054,0.447-0.317,0.393-0.588c-0.054-0.271-0.316-0.448-0.588-0.393C32.296,19.575,26.768,20.067,21,20.067
		c-5.768,0-11.295-0.492-15.985-1.423c-0.272-0.054-0.534,0.122-0.588,0.393C4.373,19.308,4.549,19.572,4.82,19.625z"/>
</g>
</svg>
