<?xml version="1.0" encoding="utf-8"?>
<!-- Generator: Adobe Illustrator 18.0.0, SVG Export Plug-In . SVG Version: 6.00 Build 0)  -->
<!DOCTYPE svg PUBLIC "-//W3C//DTD SVG 1.1//EN" "http://www.w3.org/Graphics/SVG/1.1/DTD/svg11.dtd">
<svg version="1.1" id="Layer_1" xmlns="http://www.w3.org/2000/svg" xmlns:xlink="http://www.w3.org/1999/xlink" x="0px" y="0px"
	 viewBox="0 0 42 42" enable-background="new 0 0 42 42" xml:space="preserve">
<g>
	<linearGradient id="SVGID_1_" gradientUnits="userSpaceOnUse" x1="15.9185" y1="40.0326" x2="27.8533" y2="7.2418">
		<stop  offset="0" style="stop-color:#1DBB21"/>
		<stop  offset="1" style="stop-color:#D4E945"/>
	</linearGradient>
	<path fill="url(#SVGID_1_)" d="M36.296,15.613c0-3.033-2.467-5.5-5.5-5.5h-4.591c-0.146-2.351-2.099-4.22-4.486-4.22h-1.428
		c-2.387,0-4.34,1.87-4.486,4.22h-4.591c-3.033,0-5.5,2.467-5.5,5.5v8.505c0,0.002-0.001,0.005-0.001,0.007
		c0,0.01,0.001,0.02,0.001,0.03V36.5c0,3.033,2.467,5.5,5.5,5.5h19.581c3.033,0,5.5-2.467,5.5-5.5V24.15
		c0-0.008,0.001-0.017,0.001-0.025c0-0.002-0.001-0.004-0.001-0.006V15.613z M20.291,6.893h1.428c1.836,0,3.346,1.421,3.489,3.22
		h-8.405C16.945,8.314,18.456,6.893,20.291,6.893z M35.296,36.5c0,2.481-2.019,4.5-4.5,4.5H11.215c-2.481,0-4.5-2.019-4.5-4.5
		v-8.771c1.067,1.784,2.898,3.072,5.046,3.383v1.99c0,0.827,0.673,1.5,1.5,1.5h1.416c0.827,0,1.5-0.673,1.5-1.5v-1.917h9.657v1.917
		c0,0.827,0.673,1.5,1.5,1.5h1.416c0.827,0,1.5-0.673,1.5-1.5v-1.99c2.148-0.311,3.979-1.6,5.046-3.383V36.5z M15.177,30.687v2.415
		c0,0.276-0.224,0.5-0.5,0.5h-1.416c-0.276,0-0.5-0.224-0.5-0.5v-4.97c0-0.276,0.224-0.5,0.5-0.5h1.416c0.276,0,0.5,0.224,0.5,0.5
		v2.552c0,0,0,0.001,0,0.001S15.177,30.686,15.177,30.687z M26.834,33.102v-4.97c0-0.276,0.224-0.5,0.5-0.5h1.416
		c0.276,0,0.5,0.224,0.5,0.5v4.97c0,0.276-0.224,0.5-0.5,0.5h-1.416C27.058,33.602,26.834,33.377,26.834,33.102z M35.296,24.15
		c-0.012,2.952-2.184,5.466-5.046,5.951v-1.969c0-0.827-0.673-1.5-1.5-1.5h-1.416c-0.827,0-1.5,0.673-1.5,1.5v2.053h-9.657v-2.053
		c0-0.827-0.673-1.5-1.5-1.5h-1.416c-0.827,0-1.5,0.673-1.5,1.5v1.969c-2.86-0.485-5.031-2.996-5.046-5.946v-8.542
		c0-2.481,2.019-4.5,4.5-4.5h5.077h9.428h5.077c2.481,0,4.5,2.019,4.5,4.5V24.15z"/>
	<linearGradient id="SVGID_2_" gradientUnits="userSpaceOnUse" x1="19.8371" y1="54.6372" x2="35.0852" y2="12.7434">
		<stop  offset="0" style="stop-color:#1DBB21"/>
		<stop  offset="1" style="stop-color:#D4E945"/>
	</linearGradient>
	<path fill="url(#SVGID_2_)" d="M41.74,3.142l-1.148-0.628c-0.467-0.256-0.849-0.638-1.105-1.105L38.859,0.26
		C38.771,0.1,38.603,0,38.42,0s-0.351,0.1-0.439,0.26l-0.628,1.148c-0.256,0.468-0.638,0.85-1.105,1.105l-1.148,0.628
		c-0.16,0.088-0.26,0.256-0.26,0.439c0,0.183,0.1,0.351,0.26,0.439l1.148,0.628c0.467,0.255,0.849,0.638,1.105,1.105l0.628,1.148
		c0.088,0.16,0.256,0.26,0.439,0.26s0.351-0.1,0.439-0.26l0.628-1.148c0.256-0.468,0.638-0.85,1.105-1.105l1.148-0.628
		C41.9,3.931,42,3.763,42,3.58C42,3.397,41.9,3.229,41.74,3.142z M40.112,3.77c-0.635,0.348-1.155,0.867-1.502,1.503L38.42,5.619
		l-0.189-0.346c-0.348-0.635-0.867-1.155-1.502-1.503L36.382,3.58l0.346-0.189c0.635-0.347,1.155-0.867,1.502-1.503l0.189-0.346
		l0.189,0.346c0.348,0.635,0.867,1.155,1.502,1.503l0.346,0.189L40.112,3.77z"/>
	<linearGradient id="SVGID_3_" gradientUnits="userSpaceOnUse" x1="0.4227" y1="32.5678" x2="15.4928" y2="-8.8368">
		<stop  offset="0" style="stop-color:#1DBB21"/>
		<stop  offset="1" style="stop-color:#D4E945"/>
	</linearGradient>
	<path fill="url(#SVGID_3_)" d="M8.254,5.886c0.634,0.435,1.164,1.021,1.532,1.695l0.14,0.256c0.088,0.16,0.256,0.26,0.439,0.26
		s0.351-0.1,0.439-0.26l0.14-0.256c0.369-0.675,0.899-1.261,1.532-1.696l0.324-0.222c0.143-0.098,0.225-0.264,0.217-0.438
		c-0.009-0.174-0.107-0.33-0.259-0.414c-0.826-0.452-1.502-1.128-1.954-1.954c-0.088-0.16-0.256-0.26-0.439-0.26
		s-0.351,0.1-0.439,0.26C9.475,3.685,8.799,4.361,7.972,4.813C7.82,4.896,7.722,5.053,7.713,5.226C7.704,5.4,7.786,5.565,7.93,5.664
		L8.254,5.886z M10.365,4.024c0.354,0.477,0.777,0.898,1.256,1.249c-0.485,0.378-0.91,0.833-1.256,1.341
		c-0.346-0.508-0.772-0.963-1.257-1.341C9.588,4.922,10.011,4.502,10.365,4.024z"/>
	<linearGradient id="SVGID_4_" gradientUnits="userSpaceOnUse" x1="15.1455" y1="47.9481" x2="30.1133" y2="6.8245">
		<stop  offset="0" style="stop-color:#1DBB21"/>
		<stop  offset="1" style="stop-color:#D4E945"/>
	</linearGradient>
	<path fill="url(#SVGID_4_)" d="M28.585,6.56c0.532,0.365,0.976,0.856,1.285,1.422l0.12,0.219c0.088,0.16,0.256,0.26,0.439,0.26h0
		c0.183,0,0.351-0.1,0.439-0.26l0.12-0.219c0.309-0.565,0.753-1.057,1.285-1.422l0.277-0.19c0.143-0.098,0.225-0.264,0.217-0.438
		s-0.107-0.33-0.259-0.414c-0.693-0.379-1.26-0.946-1.639-1.639c-0.088-0.16-0.256-0.26-0.439-0.26c-0.183,0-0.351,0.1-0.439,0.26
		c-0.379,0.693-0.945,1.26-1.639,1.639c-0.152,0.083-0.251,0.24-0.259,0.414s0.073,0.339,0.217,0.438L28.585,6.56z M30.429,5.032
		c0.275,0.356,0.594,0.674,0.952,0.946c-0.361,0.293-0.683,0.635-0.952,1.015c-0.27-0.379-0.591-0.721-0.952-1.015
		C29.834,5.706,30.154,5.388,30.429,5.032z"/>
	<linearGradient id="SVGID_5_" gradientUnits="userSpaceOnUse" x1="-2.4285" y1="27.625" x2="12.4584" y2="-13.2765">
		<stop  offset="0" style="stop-color:#1DBB21"/>
		<stop  offset="1" style="stop-color:#D4E945"/>
	</linearGradient>
	<path fill="url(#SVGID_5_)" d="M4.007,14.652c-0.607-0.332-1.103-0.828-1.435-1.435c-0.088-0.16-0.256-0.26-0.439-0.26
		c-0.183,0-0.351,0.1-0.439,0.26c-0.332,0.607-0.828,1.104-1.435,1.435c-0.152,0.083-0.251,0.24-0.259,0.414
		c-0.009,0.173,0.073,0.339,0.216,0.437l0.246,0.169c0.465,0.319,0.855,0.75,1.125,1.245l0.106,0.195
		c0.088,0.16,0.256,0.26,0.439,0.26h0c0.183,0,0.351-0.1,0.439-0.26l0.106-0.194c0.271-0.495,0.66-0.926,1.126-1.245l0.246-0.169
		c0.143-0.098,0.225-0.264,0.216-0.437C4.258,14.892,4.16,14.735,4.007,14.652z M2.134,15.916c-0.219-0.298-0.475-0.569-0.758-0.806
		c0.281-0.221,0.536-0.473,0.758-0.753c0.223,0.28,0.477,0.532,0.758,0.753C2.608,15.347,2.353,15.618,2.134,15.916z"/>
	<linearGradient id="SVGID_6_" gradientUnits="userSpaceOnUse" x1="14.014" y1="39.06" x2="26.4254" y2="4.96">
		<stop  offset="0" style="stop-color:#1DBB21"/>
		<stop  offset="1" style="stop-color:#D4E945"/>
	</linearGradient>
	<path fill="url(#SVGID_6_)" d="M21.005,16.367c-1.921,0-3.484,1.563-3.484,3.485s1.563,3.485,3.484,3.485
		c1.921,0,3.484-1.563,3.484-3.485S22.926,16.367,21.005,16.367z M21.005,22.337c-1.37,0-2.484-1.115-2.484-2.485
		c0-1.37,1.114-2.485,2.484-2.485c1.37,0,2.484,1.115,2.484,2.485C23.489,21.222,22.375,22.337,21.005,22.337z"/>
</g>
</svg>
