<?xml version="1.0" encoding="utf-8"?>
<!-- Generator: Adobe Illustrator 18.0.0, SVG Export Plug-In . SVG Version: 6.00 Build 0)  -->
<!DOCTYPE svg PUBLIC "-//W3C//DTD SVG 1.1//EN" "http://www.w3.org/Graphics/SVG/1.1/DTD/svg11.dtd">
<svg version="1.1" id="Layer_1" xmlns="http://www.w3.org/2000/svg" xmlns:xlink="http://www.w3.org/1999/xlink" x="0px" y="0px"
	 viewBox="0 0 24 24" enable-background="new 0 0 24 24" xml:space="preserve">
<g>
	<path fill="#2A2A2A" d="M12,11.9c-3.3,0-6-2.7-6-6s2.7-6,6-6s6,2.7,6,6S15.3,11.9,12,11.9z M12,1c-2.7,0-5,2.2-5,5s2.2,5,5,5
		s5-2.2,5-5S14.8,1,12,1z"/>
	<path fill="#2A2A2A" d="M23.5,24h-23c-0.1,0-0.3-0.1-0.4-0.2C0,23.7,0,23.6,0,23.4c1-5.8,6.1-10,12-10c5.9,0,10.9,4.2,12,10
		c0,0.1,0,0.3-0.1,0.4C23.8,23.9,23.6,24,23.5,24z M1.1,23h21.8c-1.2-5-5.7-8.6-10.9-8.6C6.8,14.4,2.3,18,1.1,23z"/>
</g>
</svg>
