<?xml version="1.0" encoding="utf-8"?>
<!-- Generator: Adobe Illustrator 18.0.0, SVG Export Plug-In . SVG Version: 6.00 Build 0)  -->
<!DOCTYPE svg PUBLIC "-//W3C//DTD SVG 1.1//EN" "http://www.w3.org/Graphics/SVG/1.1/DTD/svg11.dtd">
<svg version="1.1" id="Layer_1" xmlns="http://www.w3.org/2000/svg" xmlns:xlink="http://www.w3.org/1999/xlink" x="0px" y="0px"
	 viewBox="0 0 20 20" enable-background="new 0 0 20 20" xml:space="preserve">
<g>
	<path fill="#93CDD3" d="M19.318,15.555l-4.16-4.158c0.506-1.058,0.773-2.224,0.773-3.432c0-2.128-0.829-4.129-2.334-5.634
		c-1.505-1.505-3.505-2.333-5.634-2.333c-2.128,0-4.129,0.829-5.634,2.333c-3.107,3.107-3.106,8.161,0,11.267
		c1.505,1.505,3.506,2.334,5.634,2.334c1.207,0,2.373-0.267,3.43-0.772l4.159,4.159c0.454,0.454,1.052,0.682,1.65,0.682
		c0.598,0,1.196-0.227,1.652-0.681l0.464-0.464C20.227,17.945,20.227,16.464,19.318,15.555z M3.037,12.892
		c-2.716-2.716-2.716-7.136,0-9.852c1.316-1.316,3.065-2.04,4.926-2.04c1.861,0,3.61,0.725,4.926,2.04
		c1.316,1.316,2.041,3.065,2.041,4.926c0,1.861-0.725,3.61-2.041,4.926s-3.065,2.041-4.926,2.041
		C6.103,14.932,4.353,14.208,3.037,12.892z M18.611,18.149l-0.462,0.462c-0.521,0.52-1.368,0.52-1.887,0.001l-3.962-3.962
		c0.463-0.301,0.898-0.652,1.298-1.052c0.399-0.399,0.75-0.834,1.051-1.297l3.963,3.96C19.13,16.782,19.13,17.629,18.611,18.149z"/>
	<path fill="#93CDD3" d="M10.5,10.622c-0.71,0.709-1.653,1.1-2.656,1.1s-1.947-0.391-2.656-1.1c-0.71-0.71-1.1-1.653-1.1-2.656
		c0-0.276-0.224-0.5-0.5-0.5s-0.5,0.224-0.5,0.5c0,1.27,0.495,2.465,1.394,3.364c0.899,0.898,2.093,1.393,3.364,1.393
		s2.465-0.495,3.364-1.393c0.195-0.195,0.195-0.512,0-0.708C11.012,10.427,10.695,10.427,10.5,10.622z"/>
</g>
</svg>
