<?xml version="1.0" encoding="utf-8"?>
<!-- Generator: Adobe Illustrator 18.0.0, SVG Export Plug-In . SVG Version: 6.00 Build 0)  -->
<!DOCTYPE svg PUBLIC "-//W3C//DTD SVG 1.1//EN" "http://www.w3.org/Graphics/SVG/1.1/DTD/svg11.dtd">
<svg version="1.1" id="Layer_1" xmlns="http://www.w3.org/2000/svg" xmlns:xlink="http://www.w3.org/1999/xlink" x="0px" y="0px"
	 viewBox="0 0 12 12" enable-background="new 0 0 12 12" xml:space="preserve">
<g>
	<path fill="#40E6C7" d="M6,0C2.691,0,0,2.691,0,6s2.691,6,6,6s6-2.691,6-6S9.309,0,6,0z M6,11c-2.757,0-5-2.243-5-5s2.243-5,5-5
		s5,2.243,5,5S8.757,11,6,11z"/>
	<path fill="#40E6C7" d="M7.812,5.182L6,6.994L4.188,5.182c-0.195-0.195-0.512-0.195-0.707,0s-0.195,0.512,0,0.707l2.166,2.166
		C5.74,8.148,5.867,8.201,6,8.201s0.26-0.053,0.354-0.146l2.165-2.166c0.195-0.195,0.195-0.512,0-0.707S8.007,4.986,7.812,5.182z"/>
</g>
</svg>
