<?xml version="1.0" encoding="utf-8"?>
<!-- Generator: Adobe Illustrator 18.0.0, SVG Export Plug-In . SVG Version: 6.00 Build 0)  -->
<!DOCTYPE svg PUBLIC "-//W3C//DTD SVG 1.1//EN" "http://www.w3.org/Graphics/SVG/1.1/DTD/svg11.dtd">
<svg version="1.1" id="Layer_1" xmlns="http://www.w3.org/2000/svg" xmlns:xlink="http://www.w3.org/1999/xlink" x="0px" y="0px"
	 viewBox="0 0 9 16" enable-background="new 0 0 9 16" xml:space="preserve">
<path fill="#FFFFFF" d="M0.5,16c-0.133,0-0.266-0.053-0.365-0.158c-0.189-0.201-0.179-0.518,0.023-0.707L7.769,8L0.158,0.865
	c-0.202-0.189-0.212-0.505-0.023-0.707c0.189-0.203,0.505-0.211,0.707-0.023l8,7.5C8.943,7.73,9,7.862,9,8
	c0,0.138-0.057,0.27-0.158,0.365l-8,7.5C0.746,15.955,0.623,16,0.5,16z"/>
</svg>
