<?xml version="1.0" encoding="utf-8"?>
<!-- Generator: Adobe Illustrator 18.0.0, SVG Export Plug-In . SVG Version: 6.00 Build 0)  -->
<!DOCTYPE svg PUBLIC "-//W3C//DTD SVG 1.1//EN" "http://www.w3.org/Graphics/SVG/1.1/DTD/svg11.dtd">
<svg version="1.1" id="Layer_1" xmlns="http://www.w3.org/2000/svg" xmlns:xlink="http://www.w3.org/1999/xlink" x="0px" y="0px"
	 viewBox="0 0 24 24" enable-background="new 0 0 24 24" xml:space="preserve">
<g>
	<circle opacity="0.6" fill="#193F51" cx="12" cy="12" r="11.5"/>
	<path fill="#FFFFFF" d="M10.889,16.24c-0.141,0-0.274-0.059-0.369-0.163l-4.116-4.505c-0.187-0.204-0.172-0.521,0.032-0.707
		s0.521-0.171,0.706,0.032l3.733,4.086l5.97-7.047c0.181-0.21,0.495-0.235,0.705-0.058c0.211,0.178,0.236,0.494,0.059,0.705
		l-6.338,7.481c-0.093,0.109-0.229,0.174-0.372,0.177C10.895,16.24,10.892,16.24,10.889,16.24z"/>
	<path opacity="0.5" fill="#638487" d="M12,24C5.383,24,0,18.616,0,12S5.383,0,12,0s12,5.383,12,12S18.617,24,12,24z M12,1
		C5.935,1,1,5.934,1,12c0,6.066,4.935,11,11,11s11-4.935,11-11C23,5.934,18.065,1,12,1z"/>
</g>
</svg>
