<?xml version="1.0" encoding="utf-8"?>
<!-- Generator: Adobe Illustrator 18.0.0, SVG Export Plug-In . SVG Version: 6.00 Build 0)  -->
<!DOCTYPE svg PUBLIC "-//W3C//DTD SVG 1.1//EN" "http://www.w3.org/Graphics/SVG/1.1/DTD/svg11.dtd">
<svg version="1.1" id="Layer_1" xmlns="http://www.w3.org/2000/svg" xmlns:xlink="http://www.w3.org/1999/xlink" x="0px" y="0px"
	 viewBox="0 0 6 7" enable-background="new 0 0 6 7" xml:space="preserve">
<path fill="#40E6C7" d="M5.846,2.54L3.354,0.148C3.354,0.147,3.353,0.146,3.352,0.145L3.346,0.14C3.33,0.124,3.31,0.118,3.293,0.105
	C3.259,0.08,3.227,0.054,3.188,0.038C3.14,0.019,3.09,0.012,3.04,0.008C3.026,0.007,3.014,0,3,0C2.986,0,2.974,0.007,2.96,0.008
	c-0.05,0.004-0.1,0.011-0.147,0.03C2.773,0.054,2.74,0.081,2.707,0.106C2.69,0.118,2.669,0.125,2.654,0.14L2.648,0.145
	C2.647,0.146,2.646,0.147,2.646,0.148L0.154,2.54c-0.199,0.191-0.206,0.508-0.015,0.707c0.192,0.197,0.508,0.207,0.707,0.014
	L2.5,1.673V6.5C2.5,6.776,2.724,7,3,7s0.5-0.224,0.5-0.5V1.673l1.654,1.587C5.25,3.354,5.375,3.4,5.5,3.4
	c0.131,0,0.263-0.052,0.361-0.153C6.052,3.048,6.045,2.731,5.846,2.54z"/>
</svg>
