<?xml version="1.0" encoding="utf-8"?>
<!-- Generator: Adobe Illustrator 18.0.0, SVG Export Plug-In . SVG Version: 6.00 Build 0)  -->
<!DOCTYPE svg PUBLIC "-//W3C//DTD SVG 1.1//EN" "http://www.w3.org/Graphics/SVG/1.1/DTD/svg11.dtd">
<svg version="1.1" id="Layer_1" xmlns="http://www.w3.org/2000/svg" xmlns:xlink="http://www.w3.org/1999/xlink" x="0px" y="0px"
	 viewBox="0 0 14 14" enable-background="new 0 0 14 14" xml:space="preserve">
<g>
	<path fill="#93CDD3" d="M13.5,8.998c-0.276,0-0.5,0.224-0.5,0.5V11.5c0,0.827-0.673,1.5-1.5,1.5h-9C1.673,13,1,12.327,1,11.5v-9
		C1,1.673,1.673,1,2.5,1h2.002c0.276,0,0.5-0.224,0.5-0.5S4.778,0,4.502,0H2.5C1.121,0,0,1.121,0,2.5v9C0,12.879,1.121,14,2.5,14h9
		c1.379,0,2.5-1.121,2.5-2.5V9.498C14,9.222,13.776,8.998,13.5,8.998z"/>
	<path fill="#93CDD3" d="M6.714,4.394h2.893v2.893c0,0.276,0.224,0.5,0.5,0.5s0.5-0.224,0.5-0.5V4.394H13.5
		c0.276,0,0.5-0.224,0.5-0.5s-0.224-0.5-0.5-0.5h-2.894V0.5c0-0.276-0.224-0.5-0.5-0.5s-0.5,0.224-0.5,0.5v2.894H6.714
		c-0.276,0-0.5,0.224-0.5,0.5S6.438,4.394,6.714,4.394z"/>
</g>
</svg>
