<?xml version="1.0" encoding="utf-8"?>
<!-- Generator: Adobe Illustrator 18.0.0, SVG Export Plug-In . SVG Version: 6.00 Build 0)  -->
<!DOCTYPE svg PUBLIC "-//W3C//DTD SVG 1.1//EN" "http://www.w3.org/Graphics/SVG/1.1/DTD/svg11.dtd">
<svg version="1.1" id="Layer_1" xmlns="http://www.w3.org/2000/svg" xmlns:xlink="http://www.w3.org/1999/xlink" x="0px" y="0px"
	 viewBox="0 0 14 14" enable-background="new 0 0 14 14" xml:space="preserve">
<path fill="#93CDD3" d="M11.546,9.092c-0.815,0-1.533,0.403-1.979,1.016L4.847,7.98c0.038-0.171,0.061-0.347,0.061-0.529
	c0-0.249-0.048-0.485-0.118-0.712l4.902-2.696c0.45,0.525,1.11,0.864,1.854,0.864C12.899,4.907,14,3.807,14,2.453
	C14,1.101,12.899,0,11.546,0S9.092,1.101,9.092,2.453c0,0.249,0.048,0.485,0.118,0.712L4.308,5.862
	c-0.451-0.525-1.11-0.865-1.854-0.865C1.101,4.997,0,6.098,0,7.451c0,1.353,1.101,2.453,2.454,2.453
	c0.814,0,1.531-0.403,1.978-1.014l4.721,2.129c-0.037,0.17-0.06,0.346-0.06,0.527c0,1.354,1.101,2.454,2.454,2.454
	S14,12.899,14,11.546S12.899,9.092,11.546,9.092z M11.546,1C12.348,1,13,1.652,13,2.453c0,0.802-0.652,1.454-1.454,1.454
	s-1.454-0.652-1.454-1.454C10.092,1.652,10.744,1,11.546,1z M2.454,8.904C1.652,8.904,1,8.252,1,7.451
	c0-0.802,0.652-1.454,1.454-1.454s1.454,0.652,1.454,1.454C3.908,8.252,3.255,8.904,2.454,8.904z M11.546,13
	c-0.802,0-1.454-0.652-1.454-1.454s0.652-1.454,1.454-1.454S13,10.744,13,11.546S12.348,13,11.546,13z"/>
</svg>
