<?xml version="1.0" encoding="utf-8"?>
<!-- Generator: Adobe Illustrator 18.0.0, SVG Export Plug-In . SVG Version: 6.00 Build 0)  -->
<!DOCTYPE svg PUBLIC "-//W3C//DTD SVG 1.1//EN" "http://www.w3.org/Graphics/SVG/1.1/DTD/svg11.dtd">
<svg version="1.1" id="Layer_1" xmlns="http://www.w3.org/2000/svg" xmlns:xlink="http://www.w3.org/1999/xlink" x="0px" y="0px"
	 viewBox="0 0 6 7" enable-background="new 0 0 6 7" xml:space="preserve">
<path fill="#40E6C7" d="M5.846,4.46L3.354,6.852C3.354,6.853,3.353,6.854,3.352,6.855L3.346,6.86C3.33,6.876,3.31,6.882,3.293,6.895
	C3.259,6.92,3.227,6.946,3.188,6.962C3.14,6.981,3.09,6.988,3.04,6.992C3.026,6.993,3.014,7,3,7C2.986,7,2.974,6.993,2.96,6.992
	c-0.05-0.004-0.1-0.011-0.147-0.03C2.773,6.946,2.74,6.919,2.707,6.894C2.69,6.882,2.669,6.875,2.654,6.86L2.648,6.855
	C2.647,6.854,2.646,6.853,2.646,6.852L0.154,4.46c-0.199-0.191-0.206-0.508-0.015-0.707c0.192-0.197,0.508-0.207,0.707-0.014
	L2.5,5.327V0.5C2.5,0.224,2.724,0,3,0s0.5,0.224,0.5,0.5v4.827l1.654-1.587C5.25,3.646,5.375,3.6,5.5,3.6
	c0.131,0,0.263,0.052,0.361,0.153C6.052,3.952,6.045,4.269,5.846,4.46z"/>
</svg>
