<?xml version="1.0" encoding="utf-8"?>
<!-- Generator: Adobe Illustrator 18.0.0, SVG Export Plug-In . SVG Version: 6.00 Build 0)  -->
<!DOCTYPE svg PUBLIC "-//W3C//DTD SVG 1.1//EN" "http://www.w3.org/Graphics/SVG/1.1/DTD/svg11.dtd">
<svg version="1.1" id="Layer_1" xmlns="http://www.w3.org/2000/svg" xmlns:xlink="http://www.w3.org/1999/xlink" x="0px" y="0px"
	 viewBox="0 0 30 34" enable-background="new 0 0 30 34" xml:space="preserve">
<g>
	<path fill="#2A2A2A" d="M26.366,17c3.187-3.386,4.356-6.468,3.198-8.498c-1.165-2.041-4.395-2.544-8.877-1.435
		C19.386,2.571,17.328,0,15,0c-2.328,0-4.386,2.572-5.689,7.068c-4.488-1.1-7.715-0.597-8.876,1.434
		c-1.158,2.029,0.01,5.111,3.197,8.498c-3.19,3.38-4.359,6.463-3.197,8.499c0.762,1.334,2.41,2.017,4.722,2.017
		c1.21,0,2.612-0.197,4.155-0.577C10.614,31.43,12.673,34,15,34c2.328,0,4.385-2.57,5.687-7.062c1.546,0.383,2.948,0.583,4.16,0.582
		c2.308,0,3.954-0.685,4.718-2.022C30.727,23.462,29.557,20.38,26.366,17z M28.695,8.998c0.895,1.568-0.278,4.334-3.037,7.283
		c-1.159-1.145-2.493-2.265-3.992-3.33c-0.001-0.001-0.002-0.001-0.002-0.002c-0.002-0.002-0.004-0.003-0.006-0.005
		c-0.019-0.019-0.039-0.036-0.06-0.052c-1.006-0.714-2.05-1.385-3.101-1.993c-0.739-0.435-1.516-0.843-2.32-1.245
		c1.467-0.635,2.907-1.147,4.292-1.512C24.606,7.034,27.761,7.36,28.695,8.998z M21.021,20.271
		c-0.024,0.017-0.047,0.036-0.067,0.057c-1.024,0.724-1.994,1.349-2.965,1.911c-0.997,0.587-2.045,1.136-3.201,1.678
		c-1.668,0.781-3.263,1.378-4.766,1.799c-0.394-1.582-0.678-3.281-0.833-5.082C9.079,19.446,9.023,18.224,9.023,17
		c0-1.23,0.056-2.456,0.166-3.656c0.154-1.783,0.448-3.471,0.845-5.056c1.496,0.42,3.089,1.016,4.754,1.795
		c1.149,0.538,2.196,1.087,3.204,1.68c1.004,0.581,1.999,1.22,2.959,1.898c0.021,0.021,0.044,0.04,0.068,0.058
		c1.485,1.051,2.802,2.154,3.943,3.28C23.792,18.15,22.473,19.252,21.021,20.271z M15,1c1.793,0,3.581,2.41,4.721,6.319
		C18.194,7.753,16.61,8.341,15,9.083c-1.649-0.759-3.232-1.348-4.721-1.765C11.42,3.409,13.208,1,15,1z M1.305,8.998
		c0.895-1.565,3.849-1.915,7.75-0.964c-0.409,1.638-0.703,3.388-0.862,5.231c-0.112,1.217-0.17,2.474-0.17,3.735
		c0,0.884,0.039,1.763,0.095,2.636c-1.25-0.942-2.407-1.942-3.44-2.986C1.664,13.564,0.372,10.632,1.305,8.998z M1.305,25.002
		c-0.899-1.573,0.275-4.341,3.038-7.286c1.167,1.139,2.464,2.227,3.874,3.237c0.163,1.764,0.446,3.444,0.838,5.014
		C5.153,26.918,2.198,26.568,1.305,25.002z M15,33c-1.792,0-3.58-2.409-4.721-6.317c1.557-0.436,3.21-1.054,4.933-1.86
		c1.186-0.556,2.26-1.119,3.282-1.721c0.724-0.42,1.457-0.891,2.203-1.393c-0.185,1.584-0.463,3.097-0.84,4.501
		C18.726,30.398,16.865,33,15,33z M28.695,25.002c-0.898,1.574-3.854,1.924-7.752,0.966c0.389-1.557,0.671-3.227,0.837-5.012
		c1.422-1.012,2.719-2.1,3.877-3.239C28.421,20.662,29.594,23.429,28.695,25.002z"/>
	<path fill="#2A2A2A" d="M15,14.491c-1.382,0-2.507,1.125-2.507,2.508c0,1.382,1.125,2.507,2.507,2.507s2.507-1.125,2.507-2.507
		C17.507,15.616,16.382,14.491,15,14.491z M15,18.506c-0.831,0-1.507-0.676-1.507-1.507s0.676-1.508,1.507-1.508
		s1.507,0.677,1.507,1.508S15.831,18.506,15,18.506z"/>
</g>
</svg>
