<?xml version="1.0" encoding="utf-8"?>
<!-- Generator: Adobe Illustrator 18.0.0, SVG Export Plug-In . SVG Version: 6.00 Build 0)  -->
<!DOCTYPE svg PUBLIC "-//W3C//DTD SVG 1.1//EN" "http://www.w3.org/Graphics/SVG/1.1/DTD/svg11.dtd">
<svg version="1.1" id="Layer_1" xmlns="http://www.w3.org/2000/svg" xmlns:xlink="http://www.w3.org/1999/xlink" x="0px" y="0px"
	 viewBox="0 0 24 24" enable-background="new 0 0 24 24" xml:space="preserve">
<g>
	<linearGradient id="SVGID_1_" gradientUnits="userSpaceOnUse" x1="-5.4802" y1="22.5621" x2="24.1479" y2="-10.3431">
		<stop  offset="0" style="stop-color:#2083C8"/>
		<stop  offset="1" style="stop-color:#3DD48D"/>
	</linearGradient>
	<path fill="url(#SVGID_1_)" d="M0.5,3.648h4.007c0.241,1.5,1.533,2.652,3.099,2.652c1.567,0,2.859-1.152,3.1-2.652H23.5
		c0.276,0,0.5-0.224,0.5-0.5s-0.224-0.5-0.5-0.5H10.706C10.464,1.15,9.172,0,7.606,0C6.042,0,4.75,1.15,4.508,2.648H0.5
		c-0.276,0-0.5,0.224-0.5,0.5S0.224,3.648,0.5,3.648z M7.606,1c1.186,0,2.15,0.965,2.15,2.15s-0.965,2.15-2.15,2.15
		c-1.183,0-2.144-0.96-2.149-2.142c0-0.004,0.002-0.007,0.002-0.01c0-0.003-0.002-0.006-0.002-0.009C5.464,1.959,6.425,1,7.606,1z"
		/>
	<linearGradient id="SVGID_2_" gradientUnits="userSpaceOnUse" x1="1.0566" y1="24.1519" x2="30.6847" y2="-8.7534">
		<stop  offset="0" style="stop-color:#2083C8"/>
		<stop  offset="1" style="stop-color:#3DD48D"/>
	</linearGradient>
	<path fill="url(#SVGID_2_)" d="M23.5,11.498h-3.843C19.415,10,18.123,8.85,16.559,8.85c-1.565,0-2.857,1.15-3.1,2.648H0.5
		c-0.276,0-0.5,0.224-0.5,0.5s0.224,0.5,0.5,0.5h12.958c0.241,1.5,1.533,2.652,3.1,2.652c1.566,0,2.858-1.152,3.099-2.652H23.5
		c0.276,0,0.5-0.224,0.5-0.5S23.776,11.498,23.5,11.498z M16.559,14.15c-1.185,0-2.149-0.964-2.15-2.148
		c0-0.001,0.001-0.002,0.001-0.004c0-0.001,0-0.002,0-0.003c0.002-1.183,0.966-2.146,2.15-2.146c1.186,0,2.149,0.965,2.149,2.15
		S17.744,14.15,16.559,14.15z"/>
	<linearGradient id="SVGID_3_" gradientUnits="userSpaceOnUse" x1="7.5935" y1="25.7416" x2="37.2215" y2="-7.1636">
		<stop  offset="0" style="stop-color:#2083C8"/>
		<stop  offset="1" style="stop-color:#3DD48D"/>
	</linearGradient>
	<path fill="url(#SVGID_3_)" d="M23.5,20.348H10.577c-0.242-1.497-1.534-2.647-3.1-2.647c-1.564,0-2.856,1.15-3.099,2.647H0.5
		c-0.276,0-0.5,0.224-0.5,0.5s0.224,0.5,0.5,0.5h3.878C4.619,22.848,5.912,24,7.478,24c1.567,0,2.859-1.152,3.1-2.652H23.5
		c0.276,0,0.5-0.224,0.5-0.5S23.776,20.348,23.5,20.348z M7.478,23c-1.184,0-2.146-0.962-2.149-2.145
		c0-0.002,0.001-0.005,0.001-0.007c0-0.002-0.001-0.004-0.001-0.006C5.333,19.66,6.295,18.7,7.478,18.7
		c1.186,0,2.15,0.964,2.15,2.149S8.663,23,7.478,23z"/>
</g>
</svg>
