<?xml version="1.0" encoding="utf-8"?>
<!-- Generator: Adobe Illustrator 18.0.0, SVG Export Plug-In . SVG Version: 6.00 Build 0)  -->
<!DOCTYPE svg PUBLIC "-//W3C//DTD SVG 1.1//EN" "http://www.w3.org/Graphics/SVG/1.1/DTD/svg11.dtd">
<svg version="1.1" id="Layer_1" xmlns="http://www.w3.org/2000/svg" xmlns:xlink="http://www.w3.org/1999/xlink" x="0px" y="0px"
	 viewBox="0 0 96 96" enable-background="new 0 0 96 96" xml:space="preserve">
<g>
	<path fill="#93CDD3" d="M28.454,55.345c0.286,0,0.575-0.082,0.831-0.252c0.321-0.215,7.47-5.065,8.939-12.369h9.225h1.531h9.226
		c1.469,7.304,8.617,12.154,8.938,12.369c0.256,0.171,0.545,0.252,0.831,0.252c0.483,0,0.958-0.234,1.248-0.666
		c0.46-0.688,0.276-1.619-0.411-2.081c-0.066-0.044-6.009-4.11-7.512-9.875h0.942c0.829,0,1.5-0.671,1.5-1.5s-0.671-1.5-1.5-1.5
		h-2.745H48.98h-1.531H36.932h-2.745c-0.829,0-1.5,0.671-1.5,1.5s0.671,1.5,1.5,1.5h0.942c-1.503,5.765-7.447,9.831-7.512,9.875
		c-0.687,0.461-0.872,1.393-0.411,2.081C27.496,55.111,27.97,55.345,28.454,55.345z"/>
	<path fill="#93CDD3" d="M34.273,26.586h1.159v8.206c0,0.829,0.671,1.5,1.5,1.5s1.5-0.671,1.5-1.5v-8.206h19.564v8.206
		c0,0.829,0.671,1.5,1.5,1.5s1.5-0.671,1.5-1.5v-8.206h1.159c0.682,0,1.278-0.46,1.451-1.12c0.173-0.66-0.121-1.353-0.716-1.688
		c-0.11-0.062-11.029-6.321-13.198-17.447c0.009-0.068,0.021-0.135,0.021-0.206V1.5c0-0.829-0.671-1.5-1.5-1.5s-1.5,0.671-1.5,1.5
		v4.627c0,0.07,0.011,0.138,0.021,0.206C44.573,17.421,33.646,23.718,33.536,23.78c-0.593,0.336-0.886,1.029-0.712,1.688
		C32.997,26.127,33.592,26.586,34.273,26.586z M48.214,11.697c2.302,5.46,6.239,9.453,9.22,11.889H38.994
		C41.975,21.15,45.912,17.157,48.214,11.697z"/>
	<path fill="#93CDD3" d="M77.321,58.777h-2.008V53.28c0-0.829-0.671-1.5-1.5-1.5s-1.5,0.671-1.5,1.5v5.497H23.688V53.28
		c0-0.829-0.671-1.5-1.5-1.5s-1.5,0.671-1.5,1.5v5.497h-2.008c-0.829,0-1.5,0.671-1.5,1.5s0.671,1.5,1.5,1.5h2.008V94.5
		c0,0.829,0.671,1.5,1.5,1.5s1.5-0.671,1.5-1.5V61.777h48.625V94.5c0,0.829,0.671,1.5,1.5,1.5s1.5-0.671,1.5-1.5V61.777h2.008
		c0.829,0,1.5-0.671,1.5-1.5S78.149,58.777,77.321,58.777z"/>
	<path fill="#93CDD3" d="M48,66.642c-8.094,0-14.679,6.585-14.679,14.679S39.906,96,48,96c8.094,0,14.679-6.585,14.679-14.679
		S56.094,66.642,48,66.642z M48,93c-6.439,0-11.679-5.239-11.679-11.679S41.56,69.642,48,69.642c6.44,0,11.679,5.239,11.679,11.679
		S54.44,93,48,93z"/>
	<path fill="#93CDD3" d="M55.115,79.821H49.5v-5.615c0-0.829-0.671-1.5-1.5-1.5s-1.5,0.671-1.5,1.5v7.115c0,0.829,0.671,1.5,1.5,1.5
		h7.115c0.829,0,1.5-0.671,1.5-1.5S55.944,79.821,55.115,79.821z"/>
</g>
</svg>
