<?xml version="1.0" encoding="utf-8"?>
<!-- Generator: Adobe Illustrator 18.0.0, SVG Export Plug-In . SVG Version: 6.00 Build 0)  -->
<!DOCTYPE svg PUBLIC "-//W3C//DTD SVG 1.1//EN" "http://www.w3.org/Graphics/SVG/1.1/DTD/svg11.dtd">
<svg version="1.1" id="Layer_1" xmlns="http://www.w3.org/2000/svg" xmlns:xlink="http://www.w3.org/1999/xlink" x="0px" y="0px"
	 viewBox="0 0 96 96" enable-background="new 0 0 96 96" xml:space="preserve">
<g>
	<path fill="#93CDD3" d="M24.818,50.541c-0.829,0-1.5,0.672-1.5,1.5v38.583c0,0.828,0.671,1.5,1.5,1.5s1.5-0.672,1.5-1.5V52.041
		C26.318,51.213,25.646,50.541,24.818,50.541z"/>
	<path fill="#93CDD3" d="M39.846,50.541c-0.829,0-1.5,0.672-1.5,1.5v34.708c0,0.828,0.671,1.5,1.5,1.5s1.5-0.672,1.5-1.5V52.041
		C41.346,51.213,40.675,50.541,39.846,50.541z"/>
	<path fill="#93CDD3" d="M56.15,50.541c-0.829,0-1.5,0.672-1.5,1.5v34.708c0,0.828,0.671,1.5,1.5,1.5s1.5-0.672,1.5-1.5V52.041
		C57.65,51.213,56.978,50.541,56.15,50.541z"/>
	<path fill="#93CDD3" d="M71.178,50.541c-0.829,0-1.5,0.672-1.5,1.5v38.583c0,0.828,0.671,1.5,1.5,1.5s1.5-0.672,1.5-1.5V52.041
		C72.678,51.213,72.007,50.541,71.178,50.541z"/>
	<path fill="#93CDD3" d="M95.852,41.102c-0.25-0.521-0.775-0.853-1.353-0.853H49.319h-2.637H1.501c-0.578,0-1.104,0.331-1.353,0.853
		c-0.25,0.521-0.177,1.139,0.185,1.588l7.957,9.881v41.929c0,0.828,0.671,1.5,1.5,1.5s1.5-0.672,1.5-1.5V52.041
		c0-0.342-0.117-0.674-0.332-0.94l-6.323-7.852h42.047h2.637h42.047l-6.323,7.852c-0.214,0.267-0.332,0.599-0.332,0.94v42.458
		c0,0.828,0.671,1.5,1.5,1.5s1.5-0.672,1.5-1.5V52.57l7.957-9.881C96.03,42.24,96.102,41.622,95.852,41.102z"/>
	<path fill="#93CDD3" d="M36.418,20.412c0.218,0.799,1.042,1.266,1.842,1.052c0.799-0.218,1.27-1.043,1.052-1.842l-1.587-5.815
		l4.438,1.054c0.653,0.155,1.33-0.146,1.657-0.73c0.009-0.015,0.859-1.515,2.223-2.463c0.947-0.659,1.357-1.867,0.997-2.939
		c-0.026-0.077-0.043-0.156-0.051-0.238c-0.03-0.294,0.081-0.606,0.306-0.856c0.222-0.248,0.518-0.392,0.811-0.393
		c0.002,0,0.004,0,0.007,0c0.299,0,0.582,0.117,0.795,0.329c0.215,0.214,0.334,0.498,0.334,0.8c0,0.126-0.02,0.248-0.059,0.362
		c-0.365,1.07,0.042,2.274,0.987,2.927c1.371,0.948,2.226,2.456,2.232,2.467c0.326,0.59,1.005,0.891,1.66,0.734l4.438-1.054
		l-1.587,5.815c-0.218,0.799,0.253,1.624,1.052,1.842c0.132,0.036,0.265,0.053,0.396,0.053c0.66,0,1.264-0.438,1.446-1.105
		l1.641-6.015c0.271-0.989,0.006-2.021-0.707-2.758c-0.713-0.738-1.735-1.036-2.733-0.799l-3.62,0.86
		c-0.495-0.676-1.264-1.584-2.268-2.332C52.2,9.044,52.24,8.709,52.24,8.37c0-1.107-0.433-2.147-1.219-2.928
		c-0.408-0.406-0.889-0.699-1.41-0.897V1.501c0-0.829-0.671-1.5-1.5-1.5s-1.5,0.671-1.5,1.5v3.051
		c-0.58,0.236-1.116,0.594-1.551,1.078c-0.788,0.878-1.173,2.032-1.058,3.163c0.02,0.194,0.053,0.386,0.1,0.575
		c-1.003,0.748-1.773,1.656-2.268,2.333l-3.62-0.86c-1-0.237-2.02,0.061-2.733,0.799c-0.713,0.737-0.978,1.769-0.708,2.758
		L36.418,20.412z"/>
	<path fill="#93CDD3" d="M6.237,36.608c0.829,0,1.5-0.671,1.5-1.5V33.6h24.549c0.829,0,1.5-0.671,1.5-1.5v-3.942h31.69V32.1
		c0,0.829,0.671,1.5,1.5,1.5h24.549v1.508c0,0.829,0.671,1.5,1.5,1.5s1.5-0.671,1.5-1.5V32.1c0-0.829-0.671-1.5-1.5-1.5H68.477
		v-3.942c0-0.829-0.671-1.5-1.5-1.5h-34.69c-0.829,0-1.5,0.671-1.5,1.5V30.6H6.237c-0.829,0-1.5,0.671-1.5,1.5v3.008
		C4.737,35.937,5.408,36.608,6.237,36.608z"/>
</g>
</svg>
