<?xml version="1.0" encoding="utf-8"?>
<!-- Generator: Adobe Illustrator 18.0.0, SVG Export Plug-In . SVG Version: 6.00 Build 0)  -->
<!DOCTYPE svg PUBLIC "-//W3C//DTD SVG 1.1//EN" "http://www.w3.org/Graphics/SVG/1.1/DTD/svg11.dtd">
<svg version="1.1" id="Layer_1" xmlns="http://www.w3.org/2000/svg" xmlns:xlink="http://www.w3.org/1999/xlink" x="0px" y="0px"
	 viewBox="0 0 21 21" enable-background="new 0 0 21 21" xml:space="preserve">
<g>
	<path fill="#93CDD3" d="M12.272,10.146L9.751,7.625c-0.195-0.195-0.512-0.195-0.707,0s-0.195,0.512,0,0.707l1.667,1.667H0.5
		c-0.276,0-0.5,0.224-0.5,0.5s0.224,0.5,0.5,0.5h10.211l-1.667,1.666c-0.195,0.195-0.195,0.512,0,0.707
		c0.098,0.098,0.226,0.146,0.354,0.146s0.256-0.049,0.354-0.146l2.521-2.52C12.467,10.657,12.467,10.341,12.272,10.146z"/>
	<path fill="#93CDD3" d="M20.5,0h-8.065c-0.276,0-0.5,0.224-0.5,0.5s0.224,0.5,0.5,0.5H20v19h-7.565c-0.276,0-0.5,0.224-0.5,0.5
		s0.224,0.5,0.5,0.5H20.5c0.276,0,0.5-0.224,0.5-0.5v-20C21,0.224,20.776,0,20.5,0z"/>
</g>
</svg>
