<?xml version="1.0" encoding="utf-8"?>
<!-- Generator: Adobe Illustrator 18.0.0, SVG Export Plug-In . SVG Version: 6.00 Build 0)  -->
<!DOCTYPE svg PUBLIC "-//W3C//DTD SVG 1.1//EN" "http://www.w3.org/Graphics/SVG/1.1/DTD/svg11.dtd">
<svg version="1.1" id="Layer_1" xmlns="http://www.w3.org/2000/svg" xmlns:xlink="http://www.w3.org/1999/xlink" x="0px" y="0px"
	 viewBox="0 0 58 43" enable-background="new 0 0 58 43" xml:space="preserve">
<g>
	<path fill="#81C9C9" d="M39.189,29.49c-3.657,0-6.632,2.975-6.632,6.632c0,0.042,0.006,0.083,0.006,0.125h-7.128
		c0.001-0.042,0.006-0.083,0.006-0.125c0-3.657-2.975-6.632-6.631-6.632s-6.632,2.975-6.632,6.632s2.975,6.631,6.632,6.631
		c3.273,0,5.992-2.385,6.529-5.506h7.321c0.537,3.122,3.256,5.506,6.529,5.506c3.657,0,6.631-2.975,6.631-6.631
		S42.846,29.49,39.189,29.49z M18.811,41.753c-3.105,0-5.632-2.526-5.632-5.631c0-3.105,2.526-5.632,5.632-5.632
		c3.105,0,5.631,2.526,5.631,5.632C24.442,39.226,21.916,41.753,18.811,41.753z M39.189,41.753c-3.105,0-5.632-2.526-5.632-5.631
		c0-3.105,2.526-5.632,5.632-5.632c3.105,0,5.631,2.526,5.631,5.632C44.821,39.226,42.294,41.753,39.189,41.753z"/>
	<path fill="#81C9C9" d="M57.5,23.187h-8.902L42.622,4.589c-0.834-2.597-3.227-4.341-5.953-4.341c-0.746,0-1.482,0.134-2.188,0.398
		L29,2.695l-5.48-2.049c-0.706-0.264-1.442-0.398-2.189-0.398c-2.726,0-5.118,1.745-5.953,4.341L9.402,23.187H0.5
		c-0.276,0-0.5,0.224-0.5,0.5s0.224,0.5,0.5,0.5h9.267h38.467H57.5c0.276,0,0.5-0.224,0.5-0.5S57.776,23.187,57.5,23.187z
		 M16.33,4.894c0.701-2.181,2.711-3.647,5-3.647c0.626,0,1.245,0.113,1.838,0.334l5.656,2.115c0.114,0.042,0.238,0.042,0.351,0
		l5.656-2.115c0.593-0.222,1.211-0.334,1.838-0.334c2.29,0,4.3,1.466,5,3.647l3.436,10.695H12.894L16.33,4.894z M10.453,23.187
		l2.12-6.598h32.855l2.12,6.598H10.453z"/>
</g>
</svg>
