<?xml version="1.0" encoding="utf-8"?>
<!-- Generator: Adobe Illustrator 18.0.0, SVG Export Plug-In . SVG Version: 6.00 Build 0)  -->
<!DOCTYPE svg PUBLIC "-//W3C//DTD SVG 1.1//EN" "http://www.w3.org/Graphics/SVG/1.1/DTD/svg11.dtd">
<svg version="1.1" id="Layer_1" xmlns="http://www.w3.org/2000/svg" xmlns:xlink="http://www.w3.org/1999/xlink" x="0px" y="0px"
	 viewBox="0 0 21 21" enable-background="new 0 0 21 21" xml:space="preserve">
<g>
	<path fill="#FFFFFF" d="M20.992,8.676c-0.013-0.275-0.243-0.494-0.522-0.476c-0.276,0.013-0.489,0.248-0.476,0.523
		C19.998,8.819,20,8.916,20,9.013c0,4.414-4.262,8.005-9.5,8.005c-0.584,0-1.149-0.042-1.681-0.124
		c-0.162-0.027-0.321,0.029-0.435,0.145l-2.177,2.232v-2.788c0-0.194-0.112-0.371-0.288-0.453C2.885,14.609,1,11.92,1,9.013
		C1,4.2,6.1,0.368,11.924,1.089c0.264,0.035,0.523-0.161,0.558-0.435c0.034-0.274-0.16-0.524-0.435-0.558
		C11.529,0.033,11.009,0,10.5,0C4.71,0,0,4.043,0,9.013c0,3.206,1.987,6.162,5.208,7.783V20.5c0,0.204,0.123,0.387,0.312,0.463
		C5.581,20.988,5.645,21,5.708,21c0.132,0,0.262-0.052,0.358-0.151l2.857-2.931c0.505,0.066,1.034,0.099,1.576,0.099
		c5.79,0,10.5-4.04,10.5-9.005C21,8.9,20.998,8.787,20.992,8.676z"/>
	<path fill="#FFFFFF" d="M13.58,4.393h2.896v2.895c0,0.276,0.224,0.5,0.5,0.5s0.5-0.224,0.5-0.5V4.393h0.74h2.152
		c0.276,0,0.5-0.224,0.5-0.5s-0.224-0.5-0.5-0.5h-2.152h-0.74v-0.61V0.5c0-0.276-0.224-0.5-0.5-0.5s-0.5,0.224-0.5,0.5v2.283v0.61
		H13.58c-0.276,0-0.5,0.224-0.5,0.5S13.304,4.393,13.58,4.393z"/>
</g>
</svg>
