<?xml version="1.0" encoding="utf-8"?>
<!-- Generator: Adobe Illustrator 18.0.0, SVG Export Plug-In . SVG Version: 6.00 Build 0)  -->
<!DOCTYPE svg PUBLIC "-//W3C//DTD SVG 1.1//EN" "http://www.w3.org/Graphics/SVG/1.1/DTD/svg11.dtd">
<svg version="1.1" id="Layer_1" xmlns="http://www.w3.org/2000/svg" xmlns:xlink="http://www.w3.org/1999/xlink" x="0px" y="0px"
	 viewBox="0 0 20 20" enable-background="new 0 0 20 20" xml:space="preserve">
<g>
	<path fill="#40E6C7" d="M19.5,0h-19C0.224,0,0,0.224,0,0.5S0.224,1,0.5,1h19C19.776,1,20,0.776,20,0.5S19.776,0,19.5,0z"/>
	<path fill="#40E6C7" d="M0.5,10.5h10.363c0.276,0,0.5-0.224,0.5-0.5s-0.224-0.5-0.5-0.5H0.5C0.224,9.5,0,9.724,0,10
		S0.224,10.5,0.5,10.5z"/>
	<path fill="#40E6C7" d="M15.182,19H0.5C0.224,19,0,19.224,0,19.5S0.224,20,0.5,20h14.682c0.276,0,0.5-0.224,0.5-0.5
		S15.458,19,15.182,19z"/>
</g>
</svg>
