<?xml version="1.0" encoding="utf-8"?>
<!-- Generator: Adobe Illustrator 18.0.0, SVG Export Plug-In . SVG Version: 6.00 Build 0)  -->
<!DOCTYPE svg PUBLIC "-//W3C//DTD SVG 1.1//EN" "http://www.w3.org/Graphics/SVG/1.1/DTD/svg11.dtd">
<svg version="1.1" id="Layer_1" xmlns="http://www.w3.org/2000/svg" xmlns:xlink="http://www.w3.org/1999/xlink" x="0px" y="0px"
	 viewBox="0 0 5 3" enable-background="new 0 0 5 3" xml:space="preserve">
<g>
	<polygon fill="#FFFFFF" points="0,3 0.73,3 2.365,0 0.952,0 	"/>
	<polygon fill="#FFFFFF" points="3.587,0 2.635,3 3.365,3 5,0 	"/>
</g>
</svg>
