<?xml version="1.0" encoding="utf-8"?>
<!-- Generator: Adobe Illustrator 18.0.0, SVG Export Plug-In . SVG Version: 6.00 Build 0)  -->
<!DOCTYPE svg PUBLIC "-//W3C//DTD SVG 1.1//EN" "http://www.w3.org/Graphics/SVG/1.1/DTD/svg11.dtd">
<svg version="1.1" id="Layer_1" xmlns="http://www.w3.org/2000/svg" xmlns:xlink="http://www.w3.org/1999/xlink" x="0px" y="0px"
	 viewBox="0 0 53 51" enable-background="new 0 0 53 51" xml:space="preserve">
<g>
	<linearGradient id="SVGID_1_" gradientUnits="userSpaceOnUse" x1="26.5" y1="43" x2="26.5" y2="3.9928">
		<stop  offset="0.17" style="stop-color:#0F2A38"/>
		<stop  offset="0.64" style="stop-color:#FF2E64"/>
		<stop  offset="1" style="stop-color:#F46F6F"/>
	</linearGradient>
	<path fill="url(#SVGID_1_)" d="M52.128,22.098c0.79-0.771,1.069-1.9,0.729-2.949c-0.341-1.048-1.23-1.798-2.321-1.957l-14.47-2.103
		c-0.224-0.032-0.416-0.172-0.517-0.376l-6.471-13.11C28.591,0.614,27.603,0,26.5,0c-1.104,0-2.092,0.614-2.579,1.603l-6.471,13.111
		c-0.101,0.203-0.294,0.343-0.519,0.375L2.464,17.191c-1.091,0.159-1.98,0.909-2.321,1.957c-0.341,1.049-0.062,2.179,0.729,2.949
		L11.34,32.303c0.162,0.158,0.236,0.385,0.197,0.607L9.066,47.32C8.92,48.172,9.143,49,9.693,49.652
		c0.859,1.02,2.351,1.328,3.546,0.699l12.941-6.803c0.198-0.104,0.443-0.104,0.64,0l12.941,6.803
		c0.423,0.223,0.874,0.336,1.339,0.336c0.847,0,1.651-0.377,2.206-1.035c0.551-0.652,0.773-1.48,0.628-2.332l-2.472-14.41
		c-0.039-0.223,0.035-0.449,0.197-0.607L52.128,22.098z M40.476,33.08l2.472,14.409c0.096,0.556-0.049,1.095-0.406,1.519
		c-0.556,0.66-1.528,0.871-2.315,0.459l-12.94-6.803c-0.241-0.127-0.513-0.194-0.786-0.194c-0.272,0-0.544,0.067-0.785,0.194
		l-12.94,6.803c-0.784,0.413-1.76,0.203-2.316-0.459c-0.357-0.424-0.501-0.963-0.405-1.518l2.472-14.41
		c0.094-0.548-0.088-1.106-0.486-1.494L1.569,21.381c-0.522-0.51-0.7-1.229-0.475-1.923s0.792-1.172,1.515-1.276l14.467-2.103
		c0.55-0.079,1.025-0.425,1.271-0.923l6.471-13.11C25.141,1.391,25.77,1,26.5,1c0.729,0,1.358,0.391,1.682,1.046l6.471,13.109
		c0.246,0.499,0.721,0.845,1.27,0.924l14.469,2.103c0.723,0.104,1.289,0.582,1.515,1.276s0.048,1.413-0.475,1.923L40.962,31.586
		C40.564,31.974,40.382,32.532,40.476,33.08z"/>
	<linearGradient id="SVGID_2_" gradientUnits="userSpaceOnUse" x1="31.6636" y1="43" x2="31.6636" y2="3.9928">
		<stop  offset="0.17" style="stop-color:#0F2A38"/>
		<stop  offset="0.64" style="stop-color:#FF2E64"/>
		<stop  offset="1" style="stop-color:#F46F6F"/>
	</linearGradient>
	<path fill="url(#SVGID_2_)" d="M31.639,20.822c-1.037,0-2.417,0.498-3.103,2.87c-0.27,0.938-0.406,2.068-0.406,3.36
		c0,1.68,0.232,3.048,0.689,4.066c0.749,1.668,1.943,2.018,2.813,2.018c0.96,0,2.26-0.423,2.999-2.437
		c0.375-1.032,0.564-2.339,0.564-3.886c0-1.639-0.212-2.961-0.63-3.93C33.982,21.535,32.969,20.822,31.639,20.822z M33.693,30.357
		c-0.585,1.595-1.456,1.779-2.06,1.779c-0.86,0-1.464-0.453-1.901-1.428c-0.399-0.889-0.602-2.119-0.602-3.656
		c0-1.198,0.124-2.236,0.367-3.084c0.62-2.146,1.766-2.146,2.142-2.146c0.939,0,1.578,0.464,2.01,1.46
		c0.363,0.842,0.548,2.03,0.548,3.532C34.197,28.244,34.027,29.437,33.693,30.357z"/>
	<linearGradient id="SVGID_3_" gradientUnits="userSpaceOnUse" x1="21.9896" y1="43" x2="21.9896" y2="3.9928">
		<stop  offset="0.17" style="stop-color:#0F2A38"/>
		<stop  offset="0.64" style="stop-color:#FF2E64"/>
		<stop  offset="1" style="stop-color:#F46F6F"/>
	</linearGradient>
	<path fill="url(#SVGID_3_)" d="M24.731,21.822c0.276,0,0.5-0.224,0.5-0.5s-0.224-0.5-0.5-0.5h-4.46
		c-0.245,0-0.453,0.177-0.493,0.419l-0.976,5.909c-0.039,0.237,0.096,0.469,0.322,0.551c0.223,0.081,0.479-0.008,0.601-0.215
		c0.464-0.782,1.222-1.249,2.025-1.249c1.368,0,2.48,1.321,2.48,2.945c0,1.629-1.112,2.954-2.48,2.954
		c-0.826,0-1.599-0.494-2.066-1.322c-0.137-0.241-0.442-0.325-0.682-0.189c-0.24,0.136-0.325,0.441-0.189,0.682
		c0.647,1.146,1.746,1.83,2.938,1.83c1.919,0,3.48-1.773,3.48-3.954c0-2.176-1.562-3.945-3.48-3.945
		c-0.606,0-1.19,0.178-1.702,0.502l0.646-3.917H24.731z"/>
</g>
</svg>
