<?xml version="1.0" encoding="utf-8"?>
<!-- Generator: Adobe Illustrator 18.0.0, SVG Export Plug-In . SVG Version: 6.00 Build 0)  -->
<!DOCTYPE svg PUBLIC "-//W3C//DTD SVG 1.1//EN" "http://www.w3.org/Graphics/SVG/1.1/DTD/svg11.dtd">
<svg version="1.1" id="Layer_1" xmlns="http://www.w3.org/2000/svg" xmlns:xlink="http://www.w3.org/1999/xlink" x="0px" y="0px"
	 viewBox="0 0 20 20" enable-background="new 0 0 20 20" xml:space="preserve">
<g>
	<path fill="#A7C4F9" d="M18.347,18.326C19.368,17.3,20,15.887,20,14.329c0-2.959-2.278-5.392-5.171-5.646V6.01
		c0-0.276-0.224-0.5-0.5-0.5H2.875C1.841,5.51,1,4.669,1,3.635v-0.76C1,1.841,1.841,1,2.875,1h11.454c0.276,0,0.5-0.224,0.5-0.5
		S14.605,0,14.329,0H2.875C1.412,0,0.214,1.103,0.036,2.518C0.024,2.562,0.009,2.604,0.009,2.651v0.008
		c0,0.015,0.007,0.027,0.008,0.041C0.014,2.759,0,2.815,0,2.875v0.76v12.209c0,1.323,1.077,2.4,2.4,2.4h7.834
		C11.268,19.324,12.719,20,14.328,20c1.558,0,2.971-0.632,3.998-1.653c0.004-0.004,0.009-0.005,0.013-0.008
		S18.343,18.33,18.347,18.326z M19,14.329c0,1.107-0.404,2.113-1.05,2.914l-6.536-6.536c0.802-0.647,1.807-1.05,2.915-1.05
		C16.904,9.657,19,11.753,19,14.329z M2.4,17.244c-0.772,0-1.4-0.628-1.4-1.4V5.796C1.505,6.235,2.155,6.51,2.875,6.51h10.954v2.173
		c-1.362,0.12-2.587,0.719-3.503,1.632c-0.002,0.002-0.005,0.003-0.007,0.005s-0.003,0.005-0.005,0.007
		c-1.023,1.027-1.657,2.442-1.657,4.002c0,1.067,0.302,2.062,0.816,2.915H2.4z M9.656,14.329c0-1.108,0.404-2.113,1.05-2.915
		l6.536,6.536C16.441,18.596,15.436,19,14.328,19C11.752,19,9.656,16.904,9.656,14.329z"/>
	<path fill="#A7C4F9" d="M2.868,2.755c-0.276,0-0.5,0.224-0.5,0.5s0.224,0.5,0.5,0.5h10.083c0.276,0,0.5-0.224,0.5-0.5
		s-0.224-0.5-0.5-0.5H2.868z"/>
</g>
</svg>
