<?xml version="1.0" encoding="utf-8"?>
<!-- Generator: Adobe Illustrator 18.0.0, SVG Export Plug-In . SVG Version: 6.00 Build 0)  -->
<!DOCTYPE svg PUBLIC "-//W3C//DTD SVG 1.1//EN" "http://www.w3.org/Graphics/SVG/1.1/DTD/svg11.dtd">
<svg version="1.1" id="Layer_1" xmlns="http://www.w3.org/2000/svg" xmlns:xlink="http://www.w3.org/1999/xlink" x="0px" y="0px"
	 viewBox="0 0 21 21" enable-background="new 0 0 21 21" xml:space="preserve">
<g>
	<path fill="#FFFFFF" d="M10.5,0C4.71,0,0,4.71,0,10.5S4.71,21,10.5,21S21,16.29,21,10.5S16.29,0,10.5,0z M10.5,20
		C5.262,20,1,15.738,1,10.5S5.262,1,10.5,1S20,5.262,20,10.5S15.738,20,10.5,20z"/>
	<path fill="#FFFFFF" d="M12.764,6L11.59,5.998c-1.319,0-2.17,0.873-2.17,2.227v1.026H8.241c-0.102,0-0.184,0.082-0.184,0.184v1.488
		c0,0.102,0.082,0.184,0.184,0.184H9.42v3.753c0,0.102,0.082,0.184,0.184,0.184h1.539c0.102,0,0.184-0.082,0.184-0.184v-3.751h1.379
		c0.102,0,0.184-0.082,0.184-0.184V9.437c0-0.049-0.02-0.096-0.055-0.131c-0.035-0.035-0.082-0.055-0.131-0.055h-1.379v-0.87
		c0-0.418,0.1-0.631,0.644-0.631h0.79c0.102,0,0.184-0.082,0.184-0.184V6.186C12.948,6.084,12.866,6,12.764,6z"/>
</g>
</svg>
