<?xml version="1.0" encoding="utf-8"?>
<!-- Generator: Adobe Illustrator 18.0.0, SVG Export Plug-In . SVG Version: 6.00 Build 0)  -->
<!DOCTYPE svg PUBLIC "-//W3C//DTD SVG 1.1//EN" "http://www.w3.org/Graphics/SVG/1.1/DTD/svg11.dtd">
<svg version="1.1" id="Layer_1" xmlns="http://www.w3.org/2000/svg" xmlns:xlink="http://www.w3.org/1999/xlink" x="0px" y="0px"
	 viewBox="0 0 55 55" enable-background="new 0 0 55 55" xml:space="preserve">
<path fill="#FFFFFF" d="M27.5,0C12.337,0,0,12.337,0,27.5c0,5.596,1.684,10.804,4.567,15.152c0.051,0.13,0.125,0.253,0.232,0.358
	c0.004,0.004,0.01,0.005,0.014,0.009c2.329,3.394,5.4,6.237,8.975,8.303c0.055,0.033,0.105,0.073,0.164,0.095
	C17.954,53.693,22.576,55,27.5,55C42.663,55,55,42.663,55,27.5S42.663,0,27.5,0z M6.814,42.384l3.967-3.969
	c2.242-2.241,3.318-5.382,2.955-8.608c-0.44-4.184,0.984-8.261,3.91-11.187c3.117-3.121,7.533-4.505,11.85-3.801l-4.908,4.962
	c-1.235,1.157-1.916,2.79-1.916,4.597c0,1.701,0.689,3.369,1.894,4.576l2.799,2.794c1.22,1.221,2.844,1.894,4.573,1.895
	c0,0,0,0,0.001,0c1.729-0.001,3.354-0.673,4.573-1.895l4.546-4.543c0.348,3.975-1.069,7.905-3.968,10.804
	c-2.673,2.734-6.61,4.21-10.548,3.968c-3.056-0.218-6.016,0.861-8.112,2.957l-4.279,4.282C11.278,47.443,8.785,45.115,6.814,42.384z
	 M27.5,53c-4.151,0-8.069-1.003-11.536-2.77l3.88-3.882c1.687-1.686,4.076-2.546,6.564-2.376c4.589,0.287,8.99-1.372,12.104-4.557
	c3.836-3.834,5.406-9.266,4.2-14.527c-0.081-0.354-0.349-0.637-0.698-0.737c-0.347-0.102-0.726-0.005-0.983,0.254l-5.933,5.93
	c-0.843,0.844-1.965,1.309-3.159,1.309c-0.001,0-0.001,0-0.001,0c-1.194-0.001-2.315-0.465-3.159-1.31l-2.799-2.793
	c-0.831-0.834-1.308-1.986-1.308-3.162c0-1.248,0.456-2.362,1.311-3.164l6.198-6.265c0.247-0.25,0.345-0.611,0.258-0.952
	c-0.088-0.341-0.349-0.61-0.686-0.71c-5.532-1.634-11.478-0.13-15.521,3.919c-3.354,3.354-4.989,8.023-4.484,12.817
	c0.296,2.625-0.572,5.169-2.381,6.978l-3.684,3.688C3.347,36.838,2,32.323,2,27.5C2,13.439,13.439,2,27.5,2S53,13.439,53,27.5
	S41.561,53,27.5,53z"/>
</svg>
