<?xml version="1.0" encoding="utf-8"?>
<!-- Generator: Adobe Illustrator 18.0.0, SVG Export Plug-In . SVG Version: 6.00 Build 0)  -->
<!DOCTYPE svg PUBLIC "-//W3C//DTD SVG 1.1//EN" "http://www.w3.org/Graphics/SVG/1.1/DTD/svg11.dtd">
<svg version="1.1" id="Layer_1" xmlns="http://www.w3.org/2000/svg" xmlns:xlink="http://www.w3.org/1999/xlink" x="0px" y="0px"
	 viewBox="0 0 64 38" enable-background="new 0 0 64 38" xml:space="preserve">
<g>
	<path fill="#FFFFFF" d="M63.26,11.673c0.437-0.118,0.74-0.514,0.74-0.966V2.601c0-1.38-1.123-2.503-2.503-2.503H2.504
		C1.123,0.097,0,1.22,0,2.601v8.106c0,0.452,0.304,0.849,0.74,0.966c3.312,0.89,5.624,3.902,5.624,7.327s-2.312,6.438-5.624,7.327
		C0.304,26.445,0,26.841,0,27.293V35.4c0,1.38,1.123,2.503,2.504,2.503h58.993c1.38,0,2.503-1.123,2.503-2.503v-8.106
		c0-0.452-0.304-0.849-0.74-0.966c-3.311-0.89-5.623-3.903-5.623-7.327S59.949,12.563,63.26,11.673z M55.637,19
		c0,4.067,2.58,7.675,6.363,9.027V35.4c0,0.277-0.226,0.503-0.503,0.503H2.504C2.226,35.903,2,35.677,2,35.4v-7.372
		c3.783-1.353,6.364-4.96,6.364-9.027S5.783,11.325,2,9.973V2.601c0-0.277,0.226-0.503,0.504-0.503h58.993
		C61.774,2.097,62,2.323,62,2.601v7.372C58.217,11.325,55.637,14.933,55.637,19z"/>
	<path fill="#FFFFFF" d="M17.815,4.809c-0.553,0-1,0.448-1,1v1.884c0,0.552,0.447,1,1,1s1-0.448,1-1V5.809
		C18.815,5.257,18.368,4.809,17.815,4.809z"/>
	<path fill="#FFFFFF" d="M17.815,12.975c-0.553,0-1,0.448-1,1v1.885c0,0.552,0.447,1,1,1s1-0.448,1-1v-1.885
		C18.815,13.423,18.368,12.975,17.815,12.975z"/>
	<path fill="#FFFFFF" d="M17.815,21.141c-0.553,0-1,0.448-1,1v1.885c0,0.552,0.447,1,1,1s1-0.448,1-1v-1.885
		C18.815,21.589,18.368,21.141,17.815,21.141z"/>
	<path fill="#FFFFFF" d="M17.815,29.307c-0.553,0-1,0.447-1,1v1.885c0,0.553,0.447,1,1,1s1-0.447,1-1v-1.885
		C18.815,29.754,18.368,29.307,17.815,29.307z"/>
	<path fill="#FFFFFF" d="M46.322,16.186l-5.094-0.74l-2.279-4.616c-0.336-0.683-1.457-0.682-1.793,0l-2.278,4.616l-5.094,0.74
		c-0.377,0.055-0.689,0.319-0.808,0.681c-0.117,0.362-0.02,0.759,0.253,1.025l3.687,3.593l-0.87,5.074
		c-0.064,0.375,0.09,0.754,0.397,0.978c0.175,0.127,0.381,0.191,0.588,0.191c0.159,0,0.319-0.038,0.466-0.115l4.556-2.396
		l4.558,2.396c0.336,0.179,0.746,0.149,1.053-0.076c0.308-0.224,0.462-0.603,0.397-0.978l-0.87-5.074l3.687-3.593
		c0.272-0.266,0.37-0.663,0.253-1.025C47.012,16.505,46.699,16.241,46.322,16.186z M41.418,20.42
		c-0.235,0.23-0.343,0.561-0.287,0.885l0.616,3.595l-3.229-1.697c-0.146-0.077-0.305-0.115-0.465-0.115s-0.319,0.038-0.466,0.115
		L34.359,24.9l0.616-3.595c0.056-0.324-0.052-0.655-0.287-0.885l-2.612-2.545l3.609-0.524c0.326-0.047,0.607-0.252,0.753-0.547
		l1.614-3.271l1.615,3.271c0.146,0.295,0.427,0.5,0.753,0.547l3.609,0.524L41.418,20.42z"/>
</g>
</svg>
