<?xml version="1.0" encoding="utf-8"?>
<!-- Generator: Adobe Illustrator 18.0.0, SVG Export Plug-In . SVG Version: 6.00 Build 0)  -->
<!DOCTYPE svg PUBLIC "-//W3C//DTD SVG 1.1//EN" "http://www.w3.org/Graphics/SVG/1.1/DTD/svg11.dtd">
<svg version="1.1" id="Layer_1" xmlns="http://www.w3.org/2000/svg" xmlns:xlink="http://www.w3.org/1999/xlink" x="0px" y="0px"
	 viewBox="0 0 24 24" enable-background="new 0 0 24 24" xml:space="preserve">
<g>
	<path fill="#B3B3B3" d="M22.735,8.944l-7.679-7.679C14.241,0.449,13.155,0,12.001,0S9.762,0.449,8.945,1.266L1.267,8.944
		C0.451,9.761,0.001,10.846,0.001,12s0.45,2.239,1.266,3.056l7.678,7.679C9.762,23.551,10.847,24,12.001,24s2.24-0.449,3.056-1.266
		l7.679-7.679C24.42,13.371,24.42,10.629,22.735,8.944z M22.028,14.349l-7.679,7.679c-1.255,1.254-3.442,1.254-4.697,0l-7.678-7.679
		C1.347,13.722,1.001,12.888,1.001,12s0.346-1.722,0.973-2.349l7.678-7.679C10.28,1.346,11.114,1,12.001,1s1.721,0.346,2.349,0.973
		l7.679,7.679C23.323,10.946,23.323,13.054,22.028,14.349z"/>
	<path fill="#B3B3B3" d="M12.001,8.129c0.537,0,1.042-0.209,1.422-0.589s0.589-0.885,0.589-1.422s-0.209-1.042-0.589-1.422
		c-0.76-0.76-2.084-0.761-2.844,0c-0.784,0.784-0.784,2.06,0,2.844C10.959,7.92,11.464,8.129,12.001,8.129z M11.286,5.403
		c0.191-0.19,0.445-0.296,0.715-0.296s0.524,0.105,0.715,0.296s0.296,0.444,0.296,0.715s-0.105,0.523-0.296,0.715
		c-0.382,0.381-1.048,0.381-1.43,0C10.892,6.438,10.892,5.798,11.286,5.403z"/>
	<path fill="#B3B3B3" d="M10.579,16.46c-0.783,0.783-0.784,2.059,0,2.844c0.38,0.38,0.885,0.589,1.422,0.589
		s1.042-0.209,1.422-0.589s0.589-0.886,0.589-1.422c0-0.537-0.209-1.042-0.589-1.422C12.664,15.701,11.34,15.7,10.579,16.46z
		 M12.716,18.597c-0.382,0.381-1.048,0.381-1.429,0c-0.394-0.395-0.394-1.036,0-1.43c0.191-0.191,0.445-0.297,0.715-0.297
		s0.524,0.105,0.715,0.297s0.296,0.444,0.296,0.715C13.012,18.151,12.907,18.405,12.716,18.597z"/>
	<path fill="#B3B3B3" d="M20.019,11.5H3.983c-0.276,0-0.5,0.224-0.5,0.5s0.224,0.5,0.5,0.5H20.02c0.276,0,0.5-0.224,0.5-0.5
		S20.296,11.5,20.019,11.5z"/>
</g>
</svg>
