<?xml version="1.0" encoding="utf-8"?>
<!-- Generator: Adobe Illustrator 18.0.0, SVG Export Plug-In . SVG Version: 6.00 Build 0)  -->
<!DOCTYPE svg PUBLIC "-//W3C//DTD SVG 1.1//EN" "http://www.w3.org/Graphics/SVG/1.1/DTD/svg11.dtd">
<svg version="1.1" id="Layer_1" xmlns="http://www.w3.org/2000/svg" xmlns:xlink="http://www.w3.org/1999/xlink" x="0px" y="0px"
	 viewBox="0 0 28 28" enable-background="new 0 0 28 28" xml:space="preserve">
<path fill="#93CDD3" d="M25.773,23.632l-6.559-11.361V1h1.445c0.276,0,0.5-0.224,0.5-0.5S20.935,0,20.658,0h-1.945H9.283H7.342
	c-0.276,0-0.5,0.224-0.5,0.5S7.066,1,7.342,1h1.441v11.271L2.227,23.632c-0.526,0.91-0.526,1.999,0,2.911S3.696,28,4.747,28h18.502
	c1.054,0,1.997-0.545,2.523-1.458C26.299,25.63,26.299,24.542,25.773,23.632z M9.716,12.654c0.044-0.076,0.067-0.162,0.067-0.25V1
	h8.431v11.404c0,0.088,0.023,0.174,0.067,0.25l1.798,3.114H7.919L9.716,12.654z M24.907,26.042C24.561,26.642,23.941,27,23.249,27
	H4.747c-0.69,0-1.308-0.357-1.654-0.957c-0.346-0.599-0.346-1.313,0-1.911l4.249-7.363h13.314l4.251,7.363
	C25.252,24.729,25.252,25.443,24.907,26.042z"/>
</svg>
