<?xml version="1.0" encoding="utf-8"?>
<!-- Generator: Adobe Illustrator 18.0.0, SVG Export Plug-In . SVG Version: 6.00 Build 0)  -->
<!DOCTYPE svg PUBLIC "-//W3C//DTD SVG 1.1//EN" "http://www.w3.org/Graphics/SVG/1.1/DTD/svg11.dtd">
<svg version="1.1" id="Layer_1" xmlns="http://www.w3.org/2000/svg" xmlns:xlink="http://www.w3.org/1999/xlink" x="0px" y="0px"
	 viewBox="0 0 28 28" enable-background="new 0 0 28 28" xml:space="preserve">
<path fill="#93CDD3" d="M24.6,10.913c-1.02-3.512-3.729-6.3-7.217-7.424c0-0.016,0.005-0.031,0.005-0.047
	C17.388,1.544,15.844,0,13.946,0s-3.442,1.544-3.442,3.442c0,0.028,0.008,0.054,0.008,0.082C7.08,4.666,4.411,7.44,3.402,10.913
	C1.523,10.935,0,12.467,0,14.352c0,1.897,1.544,3.441,3.442,3.441c0.062,0,0.12-0.015,0.182-0.018
	c1.161,3.202,3.715,5.671,6.953,6.723c0,0.021-0.006,0.04-0.006,0.061c0,1.897,1.544,3.441,3.442,3.441s3.442-1.544,3.442-3.441
	c0-0.023-0.006-0.044-0.007-0.067c3.225-1.059,5.77-3.526,6.93-6.717c0.061,0.003,0.119,0.018,0.18,0.018
	c1.898,0,3.442-1.544,3.442-3.441C28,12.468,26.478,10.937,24.6,10.913z M13.946,1c1.347,0,2.442,1.096,2.442,2.442
	s-1.095,2.441-2.442,2.441s-2.442-1.095-2.442-2.441S12.6,1,13.946,1z M1,14.352c0-1.347,1.095-2.442,2.442-2.442
	s2.442,1.096,2.442,2.442s-1.095,2.441-2.442,2.441S1,15.698,1,14.352z M14.012,27c-1.347,0-2.442-1.095-2.442-2.441
	s1.095-2.442,2.442-2.442s2.442,1.096,2.442,2.442S15.359,27,14.012,27z M17.269,23.495c-0.451-1.376-1.732-2.379-3.257-2.379
	c-1.527,0-2.81,1.006-3.259,2.386c-2.835-0.965-5.074-3.129-6.136-5.929c1.318-0.483,2.267-1.738,2.267-3.221
	c0-1.563-1.053-2.87-2.482-3.289c0.932-3.053,3.277-5.491,6.292-6.541c0.456,1.367,1.733,2.363,3.252,2.363
	c1.532,0,2.817-1.012,3.263-2.397c3.066,1.036,5.448,3.488,6.39,6.576c-1.43,0.418-2.483,1.726-2.483,3.29
	c0,1.484,0.95,2.74,2.269,3.222C22.323,20.363,20.092,22.524,17.269,23.495z M24.558,16.793c-1.347,0-2.442-1.095-2.442-2.441
	s1.095-2.442,2.442-2.442S27,13.005,27,14.352S25.904,16.793,24.558,16.793z"/>
</svg>
