<?xml version="1.0" encoding="utf-8"?>
<!-- Generator: Adobe Illustrator 18.0.0, SVG Export Plug-In . SVG Version: 6.00 Build 0)  -->
<!DOCTYPE svg PUBLIC "-//W3C//DTD SVG 1.1//EN" "http://www.w3.org/Graphics/SVG/1.1/DTD/svg11.dtd">
<svg version="1.1" id="Layer_1" xmlns="http://www.w3.org/2000/svg" xmlns:xlink="http://www.w3.org/1999/xlink" x="0px" y="0px"
	 viewBox="0 0 28 28" enable-background="new 0 0 28 28" xml:space="preserve">
<g>
	<path fill="#93CDD3" d="M26.122,6.99c-0.246-0.428-0.53-0.849-0.832-1.261c0.616-0.803,0.727-1.93,0.191-2.859
		c-0.684-1.185-2.33-1.631-3.52-0.942c-0.146,0.084-0.28,0.181-0.404,0.289C17.181-0.588,11.518-0.741,7.003,1.868
		C3.764,3.737,1.448,6.755,0.48,10.367s-0.472,7.383,1.397,10.62c1.87,3.238,4.888,5.555,8.5,6.522
		c1.206,0.323,2.43,0.483,3.646,0.483c2.425,0,4.819-0.637,6.976-1.882c3.238-1.868,5.554-4.887,6.521-8.499
		C28.488,14,27.991,10.228,26.122,6.99z M22.462,2.792c0.24-0.138,0.512-0.211,0.787-0.211c0.562,0,1.086,0.302,1.367,0.788
		c0.434,0.753,0.175,1.72-0.577,2.155c-0.239,0.138-0.511,0.211-0.786,0.211c-0.563,0-1.087-0.303-1.368-0.789
		c-0.211-0.365-0.267-0.79-0.158-1.196C21.836,3.343,22.097,3.003,22.462,2.792z M26.555,17.353
		c-0.898,3.354-3.049,6.156-6.056,7.893c-3.008,1.735-6.512,2.194-9.864,1.298c-3.354-0.898-6.157-3.05-7.893-6.057
		c-1.736-3.006-2.197-6.508-1.298-9.861s3.05-6.156,6.057-7.893C11.67,0.327,16.89,0.45,20.944,3.009
		c-0.076,0.153-0.137,0.314-0.182,0.482c-0.178,0.665-0.087,1.359,0.257,1.955c0.459,0.795,1.315,1.289,2.234,1.289
		c0.449,0,0.892-0.119,1.283-0.345c0.259,0.36,0.505,0.726,0.72,1.098C26.992,10.496,27.453,13.999,26.555,17.353z"/>
	<path fill="#93CDD3" d="M13.995,7.892c-1.064,0-2.116,0.282-3.042,0.817c-2.911,1.681-3.912,5.417-2.231,8.328
		c1.086,1.881,3.111,3.049,5.285,3.049c1.064,0,2.117-0.283,3.043-0.818c1.41-0.813,2.419-2.128,2.84-3.701s0.205-3.216-0.609-4.626
		C18.194,9.06,16.169,7.892,13.995,7.892z M18.924,15.308c-0.353,1.315-1.196,2.414-2.375,3.095
		c-0.775,0.447-1.654,0.684-2.543,0.684c-1.818,0-3.511-0.977-4.418-2.549c-1.405-2.434-0.568-5.557,1.865-6.963
		c0.774-0.446,1.654-0.683,2.542-0.683c1.818,0,3.512,0.977,4.419,2.549C19.095,12.619,19.276,13.993,18.924,15.308z"/>
</g>
</svg>
