<?xml version="1.0" encoding="utf-8"?>
<!-- Generator: Adobe Illustrator 18.0.0, SVG Export Plug-In . SVG Version: 6.00 Build 0)  -->
<!DOCTYPE svg PUBLIC "-//W3C//DTD SVG 1.1//EN" "http://www.w3.org/Graphics/SVG/1.1/DTD/svg11.dtd">
<svg version="1.1" id="Layer_1" xmlns="http://www.w3.org/2000/svg" xmlns:xlink="http://www.w3.org/1999/xlink" x="0px" y="0px"
	 viewBox="0 0 20 20" enable-background="new 0 0 20 20" xml:space="preserve">
<g>
	<path fill="#93CDD3" d="M10,0C4.5,0,0,3.9,0,8.6c0,3.1,1.9,5.9,4.9,7.4v3.5c0,0.2,0.1,0.4,0.3,0.5c0.1,0,0.1,0,0.2,0
		c0.1,0,0.3-0.1,0.4-0.2l2.7-2.8c0.5,0.1,1,0.1,1.5,0.1c5.5,0,10-3.8,10-8.6C20,3.9,15.5,0,10,0z M10,16.2c-0.5,0-1.1,0-1.6-0.1
		c-0.2,0-0.3,0-0.4,0.1l-2,2.1v-2.6c0-0.2-0.1-0.4-0.3-0.5C2.8,13.9,1,11.3,1,8.6C1,4.4,5,1,10,1s9,3.4,9,7.6
		C19,12.8,15,16.2,10,16.2z"/>
	<circle fill="#93CDD3" cx="5.8" cy="8.5" r="1.1"/>
	<circle fill="#93CDD3" cx="10" cy="8.5" r="1.1"/>
	<circle fill="#93CDD3" cx="14.2" cy="8.5" r="1.1"/>
</g>
</svg>
