<?xml version="1.0" encoding="utf-8"?>
<!-- Generator: Adobe Illustrator 18.0.0, SVG Export Plug-In . SVG Version: 6.00 Build 0)  -->
<!DOCTYPE svg PUBLIC "-//W3C//DTD SVG 1.1//EN" "http://www.w3.org/Graphics/SVG/1.1/DTD/svg11.dtd">
<svg version="1.1" id="Layer_1" xmlns="http://www.w3.org/2000/svg" xmlns:xlink="http://www.w3.org/1999/xlink" x="0px" y="0px"
	 viewBox="0 0 21 21" enable-background="new 0 0 21 21" xml:space="preserve">
<g>
	<path fill="#FFFFFF" d="M8.721,8.787c2.423,0,4.394-1.971,4.394-4.394S11.144,0,8.721,0S4.328,1.971,4.328,4.394
		S6.298,8.787,8.721,8.787z M8.721,1c1.871,0,3.394,1.522,3.394,3.394s-1.522,3.394-3.394,3.394S5.328,6.265,5.328,4.394
		S6.85,1,8.721,1z"/>
	<path fill="#FFFFFF" d="M8.509,9.838c-4.183,0.091-7.758,3.133-8.501,7.233c-0.026,0.146,0.014,0.296,0.108,0.409
		c0.095,0.114,0.235,0.18,0.384,0.18h6.604c0.276,0,0.5-0.224,0.5-0.5s-0.224-0.5-0.5-0.5H1.124
		c0.877-3.334,3.901-5.746,7.407-5.822c0.276-0.006,0.495-0.234,0.489-0.511C9.015,10.051,8.78,9.85,8.509,9.838z"/>
	<path fill="#FFFFFF" d="M20.153,13.405l-0.513-0.38l0.116-0.579c0.112-0.56-0.029-1.134-0.391-1.574
		c-0.441-0.54-1.118-0.799-1.845-0.66l-0.631,0.096l-0.327-0.492c-0.353-0.529-0.942-0.846-1.579-0.846s-1.227,0.316-1.58,0.847
		l-0.378,0.513l-0.58-0.117c-0.721-0.144-1.402,0.12-1.844,0.66c-0.361,0.44-0.503,1.015-0.391,1.574l0.094,0.633l-0.489,0.326
		c-0.531,0.352-0.848,0.942-0.848,1.579c0,0.638,0.316,1.229,0.847,1.58l0.513,0.38l-0.116,0.579
		c-0.112,0.56,0.029,1.134,0.39,1.574c0.442,0.54,1.125,0.801,1.845,0.659l0.632-0.094l0.327,0.491
		C13.757,20.684,14.347,21,14.984,21s1.227-0.316,1.58-0.847l0.379-0.513l0.579,0.116c0.714,0.143,1.402-0.119,1.844-0.66
		c0.361-0.44,0.503-1.014,0.391-1.573l-0.094-0.633l0.489-0.326C20.683,16.213,21,15.622,21,14.984
		C21,14.348,20.683,13.757,20.153,13.405z M19.598,15.732l-0.489,0.326c-0.358,0.238-0.535,0.664-0.449,1.083l0.116,0.579
		c0.054,0.269-0.011,0.532-0.184,0.743c-0.211,0.257-0.537,0.38-0.873,0.312l-0.58-0.116c-0.424-0.083-0.849,0.099-1.083,0.449
		l-0.325,0.49c-0.34,0.51-1.154,0.51-1.494,0l-0.327-0.491c-0.195-0.293-0.522-0.469-0.875-0.469c-0.068,0-0.138,0.007-0.207,0.021
		l-0.579,0.116c-0.337,0.067-0.663-0.055-0.873-0.312c-0.173-0.211-0.238-0.475-0.184-0.743l0.116-0.577
		c0.086-0.421-0.091-0.847-0.448-1.085l-0.491-0.326c-0.254-0.17-0.4-0.442-0.4-0.748c0-0.305,0.146-0.577,0.401-0.747l0.489-0.326
		c0.358-0.238,0.535-0.664,0.449-1.083l-0.116-0.579c-0.055-0.269,0.011-0.532,0.184-0.743c0.211-0.259,0.539-0.383,0.872-0.313
		l0.581,0.117c0.422,0.083,0.849-0.099,1.083-0.449l0.325-0.49c0.34-0.51,1.155-0.509,1.493-0.001l0.327,0.491
		c0.233,0.351,0.649,0.532,1.084,0.449l0.578-0.117c0.336-0.069,0.661,0.055,0.873,0.313c0.173,0.211,0.238,0.475,0.184,0.743
		l-0.116,0.577c-0.086,0.421,0.091,0.847,0.448,1.085l0.491,0.326c0.254,0.17,0.4,0.442,0.4,0.747
		C20,15.29,19.853,15.562,19.598,15.732z"/>
	<path fill="#FFFFFF" d="M14.984,12.56c-1.337,0-2.425,1.088-2.425,2.425s1.088,2.425,2.425,2.425s2.425-1.088,2.425-2.425
		S16.321,12.56,14.984,12.56z M14.984,16.409c-0.785,0-1.425-0.64-1.425-1.425s0.64-1.425,1.425-1.425s1.425,0.64,1.425,1.425
		S15.769,16.409,14.984,16.409z"/>
</g>
</svg>
