<?xml version="1.0" encoding="utf-8"?>
<!-- Generator: Adobe Illustrator 18.0.0, SVG Export Plug-In . SVG Version: 6.00 Build 0)  -->
<!DOCTYPE svg PUBLIC "-//W3C//DTD SVG 1.1//EN" "http://www.w3.org/Graphics/SVG/1.1/DTD/svg11.dtd">
<svg version="1.1" id="Layer_1" xmlns="http://www.w3.org/2000/svg" xmlns:xlink="http://www.w3.org/1999/xlink" x="0px" y="0px"
	 viewBox="0 0 11 20" enable-background="new 0 0 11 20" xml:space="preserve">
<path fill="#4E6A7B" d="M1.226,10l9.618-9.138c0.2-0.19,0.208-0.506,0.018-0.707c-0.19-0.2-0.506-0.208-0.707-0.018l-10,9.5
	C0.056,9.732,0,9.863,0,10s0.056,0.268,0.156,0.362l10,9.5C10.252,19.954,10.377,20,10.5,20c0.132,0,0.264-0.052,0.362-0.156
	c0.19-0.2,0.182-0.517-0.018-0.707L1.226,10z"/>
</svg>
