<?xml version="1.0" encoding="utf-8"?>
<!-- Generator: Adobe Illustrator 18.0.0, SVG Export Plug-In . SVG Version: 6.00 Build 0)  -->
<!DOCTYPE svg PUBLIC "-//W3C//DTD SVG 1.1//EN" "http://www.w3.org/Graphics/SVG/1.1/DTD/svg11.dtd">
<svg version="1.1" id="Layer_1" xmlns="http://www.w3.org/2000/svg" xmlns:xlink="http://www.w3.org/1999/xlink" x="0px" y="0px"
	 viewBox="0 0 25 25" enable-background="new 0 0 25 25" xml:space="preserve">
<g>
	<path fill="#40E6C7" d="M17.572,8.273l-6.246,7.372l-3.912-4.281c-0.186-0.204-0.502-0.219-0.706-0.032s-0.219,0.503-0.032,0.706
		l4.295,4.701c0.095,0.104,0.229,0.163,0.369,0.163c0.003,0,0.006,0,0.01,0c0.144-0.003,0.278-0.067,0.372-0.177l6.614-7.806
		c0.178-0.211,0.152-0.526-0.059-0.705C18.067,8.038,17.753,8.062,17.572,8.273z"/>
	<path fill="#40E6C7" d="M12.5,0C5.607,0,0,5.607,0,12.5S5.607,25,12.5,25S25,19.393,25,12.5S19.393,0,12.5,0z M12.5,24
		C6.159,24,1,18.841,1,12.5S6.159,1,12.5,1S24,6.159,24,12.5S18.841,24,12.5,24z"/>
</g>
</svg>
