<?xml version="1.0" encoding="utf-8"?>
<!-- Generator: Adobe Illustrator 18.0.0, SVG Export Plug-In . SVG Version: 6.00 Build 0)  -->
<!DOCTYPE svg PUBLIC "-//W3C//DTD SVG 1.1//EN" "http://www.w3.org/Graphics/SVG/1.1/DTD/svg11.dtd">
<svg version="1.1" id="Layer_1" xmlns="http://www.w3.org/2000/svg" xmlns:xlink="http://www.w3.org/1999/xlink" x="0px" y="0px"
	 viewBox="0 0 24 24" enable-background="new 0 0 24 24" xml:space="preserve">
<g>
	<path fill="#93CDD3" d="M12,0C5.383,0,0,4.616,0,10.29c0,3.672,2.286,7.058,5.989,8.903V23.5c0,0.203,0.123,0.387,0.312,0.463
		C6.362,23.988,6.426,24,6.489,24c0.132,0,0.262-0.053,0.358-0.151l3.312-3.397c0.598,0.079,1.215,0.119,1.84,0.119
		c6.617,0,12-4.611,12-10.28C24,4.616,18.617,0,12,0z M12,19.57c-0.664,0-1.318-0.049-1.944-0.145
		c-0.16-0.024-0.322,0.029-0.435,0.146l-2.632,2.699V18.88c0-0.194-0.112-0.371-0.288-0.453C3.185,16.782,1,13.664,1,10.29
		C1,5.168,5.935,1,12,1s11,4.168,11,9.29C23,15.407,18.065,19.57,12,19.57z"/>
	<circle fill="#93CDD3" cx="6.893" cy="10.21" r="1.286"/>
	<circle fill="#93CDD3" cx="12" cy="10.21" r="1.286"/>
	<circle fill="#93CDD3" cx="17.106" cy="10.21" r="1.286"/>
</g>
</svg>
