<?xml version="1.0" encoding="utf-8"?>
<!-- Generator: Adobe Illustrator 18.0.0, SVG Export Plug-In . SVG Version: 6.00 Build 0)  -->
<!DOCTYPE svg PUBLIC "-//W3C//DTD SVG 1.1//EN" "http://www.w3.org/Graphics/SVG/1.1/DTD/svg11.dtd">
<svg version="1.1" id="Layer_1" xmlns="http://www.w3.org/2000/svg" xmlns:xlink="http://www.w3.org/1999/xlink" x="0px" y="0px"
	 viewBox="0 0 22 22" enable-background="new 0 0 22 22" xml:space="preserve">
<path fill="#FFFFFF" d="M11,22C4.935,22,0,17.065,0,11S4.935,0,11,0s11,4.935,11,11S17.065,22,11,22z M11,1C5.486,1,1,5.486,1,11
	s4.486,10,10,10s10-4.486,10-10S16.514,1,11,1z"/>
<path fill="#FFFFFF" d="M13.975,15.197h-3.349c-1.71,0-3.101-1.391-3.101-3.101V9.905c0-1.71,1.391-3.102,3.101-3.102h3.349
	c0.276,0,0.5,0.224,0.5,0.5s-0.224,0.5-0.5,0.5h-3.349c-1.159,0-2.101,0.943-2.101,2.102v2.191c0,1.159,0.943,2.101,2.101,2.101
	h3.349c0.276,0,0.5,0.224,0.5,0.5S14.251,15.197,13.975,15.197z"/>
<path fill="#FFFFFF" d="M12.604,11.5H9.396c-0.276,0-0.5-0.224-0.5-0.5s0.224-0.5,0.5-0.5h3.208c0.276,0,0.5,0.224,0.5,0.5
	S12.88,11.5,12.604,11.5z"/>
</svg>
