<?xml version="1.0" encoding="utf-8"?>
<!-- Generator: Adobe Illustrator 18.0.0, SVG Export Plug-In . SVG Version: 6.00 Build 0)  -->
<!DOCTYPE svg PUBLIC "-//W3C//DTD SVG 1.1//EN" "http://www.w3.org/Graphics/SVG/1.1/DTD/svg11.dtd">
<svg version="1.1" id="Layer_1" xmlns="http://www.w3.org/2000/svg" xmlns:xlink="http://www.w3.org/1999/xlink" x="0px" y="0px"
	 viewBox="0 0 32 32" enable-background="new 0 0 32 32" xml:space="preserve">
<g>
	<g>
		<g>
			<path fill="#F3C358" d="M10.192,27.399c-0.133,0-0.26-0.053-0.354-0.146l-5.091-5.092c-0.195-0.195-0.195-0.512,0-0.707
				L25.018,1.183c0.073-0.073,0.168-0.122,0.27-0.14l6.128-1.037c0.159-0.023,0.323,0.024,0.437,0.14
				c0.115,0.114,0.167,0.277,0.14,0.437l-1.037,6.128c-0.018,0.102-0.066,0.197-0.14,0.27L10.546,27.252
				C10.452,27.346,10.325,27.399,10.192,27.399z M5.808,21.807l4.384,4.385L29.996,6.387l0.893-5.277l-5.277,0.893L5.808,21.807z"/>
			<path fill="#F3C358" d="M12.329,29.536c-0.128,0-0.256-0.049-0.354-0.146l-9.428-9.428c-0.195-0.195-0.195-0.512,0-0.707
				s0.512-0.195,0.707,0l9.428,9.428c0.195,0.195,0.195,0.512,0,0.707C12.585,29.487,12.457,29.536,12.329,29.536z"/>
			<path fill="#F3C358" d="M4.598,27.901c-0.128,0-0.256-0.049-0.354-0.146c-0.195-0.195-0.195-0.512,0-0.707l3.048-3.048
				c0.195-0.195,0.512-0.195,0.707,0c0.195,0.195,0.195,0.512,0,0.707l-3.048,3.048C4.854,27.852,4.726,27.901,4.598,27.901z"/>
			<path fill="#F3C358" d="M2.901,31.999c-0.775,0-1.503-0.302-2.051-0.85c-1.131-1.131-1.131-2.971,0-4.102
				c1.094-1.096,3.006-1.096,4.101,0c0.548,0.548,0.85,1.276,0.85,2.051s-0.302,1.503-0.85,2.051
				C4.404,31.697,3.676,31.999,2.901,31.999z M2.901,27.199c-0.508,0-0.985,0.197-1.344,0.556c-0.741,0.741-0.741,1.947,0,2.688
				c0.717,0.717,1.969,0.718,2.687,0c0.359-0.359,0.557-0.836,0.557-1.344s-0.198-0.985-0.557-1.344S3.409,27.199,2.901,27.199z"/>
		</g>
		<path fill="#F3C358" d="M15.317,17.182c-0.128,0-0.256-0.049-0.354-0.146c-0.195-0.195-0.195-0.512,0-0.707L27.695,3.597
			c0.195-0.195,0.512-0.195,0.707,0s0.195,0.512,0,0.707L15.671,17.036C15.573,17.133,15.445,17.182,15.317,17.182z"/>
	</g>
	<g>
		<g>
			<path fill="#F3C358" d="M10.908,16.5c-0.128,0-0.256-0.049-0.354-0.146L1.189,6.979C1.116,6.906,1.067,6.811,1.05,6.709
				L0.007,0.584c-0.027-0.16,0.024-0.323,0.139-0.437c0.115-0.115,0.276-0.167,0.437-0.14L6.717,1.04
				C6.82,1.058,6.914,1.107,6.988,1.18l9.365,9.375c0.195,0.195,0.195,0.512,0,0.707c-0.195,0.195-0.512,0.195-0.707,0L6.393,2
				L1.111,1.11l0.898,5.274l9.252,9.262c0.195,0.195,0.195,0.512,0,0.707C11.164,16.452,11.036,16.5,10.908,16.5z"/>
			<path fill="#F3C358" d="M21.805,27.397c-0.133,0-0.26-0.053-0.354-0.146l-5.805-5.806c-0.195-0.195-0.195-0.512,0-0.707
				s0.512-0.195,0.707,0l5.452,5.452l4.384-4.384l-5.452-5.452c-0.195-0.195-0.195-0.512,0-0.707s0.512-0.195,0.707,0l5.805,5.806
				c0.195,0.195,0.195,0.512,0,0.707l-5.091,5.091C22.064,27.345,21.937,27.397,21.805,27.397z"/>
			<path fill="#F3C358" d="M19.672,29.536c-0.128,0-0.256-0.049-0.354-0.146c-0.195-0.195-0.195-0.512,0-0.707l9.428-9.428
				c0.195-0.195,0.512-0.195,0.707,0s0.195,0.512,0,0.707l-9.428,9.428C19.928,29.487,19.8,29.536,19.672,29.536z"/>
			<path fill="#F3C358" d="M27.403,27.901c-0.128,0-0.256-0.049-0.354-0.146l-3.048-3.048c-0.195-0.195-0.195-0.512,0-0.707
				s0.512-0.195,0.707,0l3.048,3.048c0.195,0.195,0.195,0.512,0,0.707C27.659,27.852,27.531,27.901,27.403,27.901z"/>
			<path fill="#F3C358" d="M29.1,31.999c-0.775,0-1.503-0.302-2.051-0.85c-1.13-1.131-1.13-2.971,0-4.102
				c1.096-1.096,3.006-1.096,4.101,0c0.548,0.548,0.85,1.276,0.85,2.051s-0.302,1.503-0.85,2.051
				C30.603,31.697,29.874,31.999,29.1,31.999z M29.1,27.199c-0.508,0-0.985,0.197-1.344,0.556c-0.74,0.741-0.74,1.947,0,2.688
				c0.718,0.718,1.969,0.718,2.687,0C30.802,30.083,31,29.606,31,29.099s-0.198-0.985-0.557-1.344S29.607,27.199,29.1,27.199z"/>
		</g>
		<path fill="#F3C358" d="M12.123,12.623c-0.128,0-0.256-0.049-0.354-0.146L3.603,4.302c-0.195-0.195-0.195-0.512,0-0.707
			c0.195-0.195,0.512-0.195,0.707,0l8.167,8.175c0.195,0.195,0.195,0.512,0,0.707C12.379,12.574,12.251,12.623,12.123,12.623z"/>
	</g>
</g>
</svg>
