<?xml version="1.0" encoding="utf-8"?>
<!-- Generator: Adobe Illustrator 18.0.0, SVG Export Plug-In . SVG Version: 6.00 Build 0)  -->
<!DOCTYPE svg PUBLIC "-//W3C//DTD SVG 1.1//EN" "http://www.w3.org/Graphics/SVG/1.1/DTD/svg11.dtd">
<svg version="1.1" id="Layer_1" xmlns="http://www.w3.org/2000/svg" xmlns:xlink="http://www.w3.org/1999/xlink" x="0px" y="0px"
	 viewBox="0 0 20 20" enable-background="new 0 0 20 20" xml:space="preserve">
<path fill="#F1D273" d="M18.962,7.265c0.488-0.545,0.739-1.029,0.869-1.374c0.326-0.873,0.181-1.686-0.394-2.177
	c-0.225-0.187-0.507-0.302-0.826-0.338c0.006-0.014,0.011-0.028,0.017-0.042c0.329-0.881,0.179-1.68-0.395-2.131
	c-0.627-0.512-1.632-0.469-2.67,0.153c-0.084-0.394-0.288-0.743-0.604-1.001C14.658,0.123,14.282,0,13.87,0
	c-0.466,0-1.21,0.164-2.12,0.949L5.559,6.412C5.576,6.27,5.597,6.111,5.621,5.933c0.062-0.508,0.133-1.099,0.195-1.72
	c0.162-1.736-0.955-3.251-2.102-3.578c-0.841-0.236-1.649,0.243-2,1.181C1.625,2.054,1.475,2.454,1.488,2.937
	c0.028,0.85-0.25,2.042-0.608,3.472c-0.826,3.458-1.854,7.761,0.988,11.404C3.004,19.264,4.373,20,5.937,20
	c1.826,0,3.918-1.027,6.217-3.053l6.418-5.657c0.528-0.46,0.919-1,1.129-1.561c0.334-0.89,0.149-1.787-0.461-2.278
	C19.154,7.379,19.061,7.317,18.962,7.265z M18.894,5.54c-0.108,0.289-0.404,0.873-1.168,1.539l-0.142,0.123
	c-0.007,0.006-0.016,0.007-0.022,0.013l-3.676,3.365c-0.203,0.187-0.218,0.502-0.031,0.706c0.099,0.108,0.234,0.163,0.369,0.163
	c0.121,0,0.241-0.043,0.338-0.131l3.52-3.223c0.245-0.009,0.432,0.052,0.522,0.127c0.277,0.223,0.34,0.676,0.161,1.154
	c-0.152,0.406-0.446,0.807-0.853,1.16l-6.421,5.659c-3.796,3.346-6.699,3.732-8.836,1C0.11,13.934,1.076,9.89,1.868,6.576
	c0.358-1.43,0.652-2.693,0.62-3.669C2.48,2.623,2.575,2.37,2.651,2.167c0.067-0.178,0.262-0.592,0.632-0.592
	c0.052,0,0.106,0.008,0.16,0.023c0.656,0.187,1.497,1.237,1.377,2.52C4.76,4.728,4.69,5.311,4.624,5.852
	c-0.137,1-0.181,1.522-0.151,1.801C4.497,7.885,4.679,8.069,4.91,8.097C5.069,8.116,5.221,8.059,5.328,7.95
	c0.004-0.004,0.009-0.008,0.013-0.013l7.066-6.235C13.081,1.122,13.574,1,13.87,1c0.188,0,0.353,0.051,0.466,0.138
	c0.25,0.204,0.322,0.576,0.214,0.985l-3.564,3.263c-0.203,0.187-0.218,0.502-0.031,0.706c0.099,0.108,0.233,0.163,0.369,0.163
	c0.121,0,0.241-0.043,0.338-0.131l3.667-3.357c0.922-0.801,1.543-0.92,1.83-0.92c0.183,0,0.336,0.046,0.45,0.139
	c0.221,0.174,0.252,0.548,0.083,0.999c-0.067,0.177-0.168,0.396-0.371,0.67l-3.655,3.345c-0.203,0.186-0.218,0.502-0.031,0.706
	c0.099,0.108,0.233,0.163,0.369,0.163c0.121,0,0.241-0.043,0.338-0.131l3.595-3.29c0.371-0.112,0.699-0.098,0.856,0.033
	C19.032,4.684,19.069,5.071,18.894,5.54z"/>
</svg>
