<?xml version="1.0" encoding="utf-8"?>
<!-- Generator: Adobe Illustrator 18.0.0, SVG Export Plug-In . SVG Version: 6.00 Build 0)  -->
<!DOCTYPE svg PUBLIC "-//W3C//DTD SVG 1.1//EN" "http://www.w3.org/Graphics/SVG/1.1/DTD/svg11.dtd">
<svg version="1.1" id="Layer_1" xmlns="http://www.w3.org/2000/svg" xmlns:xlink="http://www.w3.org/1999/xlink" x="0px" y="0px"
	 viewBox="0 0 14.013 14" enable-background="new 0 0 14.013 14" xml:space="preserve">
<path fill="#BACADC" d="M13.6,2.762L11.237,0.4c-0.533-0.533-1.462-0.532-1.994,0L0.955,8.688c-0.142,0.141-0.235,0.32-0.272,0.517
	l-0.666,3.609c-0.054,0.294,0.024,0.594,0.214,0.823C0.423,13.868,0.704,14,1.002,14l3.79-0.683
	c0.196-0.035,0.375-0.129,0.519-0.272L13.6,4.756c0.266-0.266,0.413-0.621,0.413-0.997C14.013,3.383,13.867,3.028,13.6,2.762z
	 M4.609,12.312l-3.582,0.662L1.677,9.41l6.083-6.083l2.913,2.913L4.609,12.312z M12.878,4.034l-1.482,1.484L8.483,2.605l1.482-1.482
	c0.073-0.073,0.171-0.114,0.275-0.114c0.103,0,0.201,0.04,0.274,0.114l2.363,2.362C13.029,3.636,13.029,3.882,12.878,4.034z"/>
</svg>
