<?xml version="1.0" encoding="utf-8"?>
<!-- Generator: Adobe Illustrator 18.0.0, SVG Export Plug-In . SVG Version: 6.00 Build 0)  -->
<!DOCTYPE svg PUBLIC "-//W3C//DTD SVG 1.1//EN" "http://www.w3.org/Graphics/SVG/1.1/DTD/svg11.dtd">
<svg version="1.1" id="Layer_1" xmlns="http://www.w3.org/2000/svg" xmlns:xlink="http://www.w3.org/1999/xlink" x="0px" y="0px"
	 viewBox="0 0 25 25" enable-background="new 0 0 25 25" xml:space="preserve">
<path fill="#92CDD2" d="M12.5,0C5.607,0,0,5.607,0,12.5S5.607,25,12.5,25S25,19.393,25,12.5S19.393,0,12.5,0z M12.5,24
	C6.159,24,1,18.841,1,12.5S6.159,1,12.5,1S24,6.159,24,12.5S18.841,24,12.5,24z"/>
</svg>
