<?xml version="1.0" encoding="utf-8"?>
<!-- Generator: Adobe Illustrator 18.0.0, SVG Export Plug-In . SVG Version: 6.00 Build 0)  -->
<!DOCTYPE svg PUBLIC "-//W3C//DTD SVG 1.1//EN" "http://www.w3.org/Graphics/SVG/1.1/DTD/svg11.dtd">
<svg version="1.1" id="Layer_1" xmlns="http://www.w3.org/2000/svg" xmlns:xlink="http://www.w3.org/1999/xlink" x="0px" y="0px"
	 viewBox="0 0 32 32" enable-background="new 0 0 32 32" xml:space="preserve">
<g>
	<path fill="#F3C358" d="M27.695,3.598L14.964,16.329c-0.195,0.195-0.195,0.512,0,0.707c0.098,0.098,0.226,0.146,0.354,0.146
		s0.256-0.049,0.354-0.146L28.402,4.305c0.195-0.195,0.195-0.512,0-0.707S27.89,3.402,27.695,3.598z"/>
	<path fill="#F3C358" d="M31.151,27.048c-0.975-0.975-2.593-1.077-3.71-0.316l-2.379-2.379l4.392-4.392
		c0.195-0.195,0.195-0.512,0-0.707s-0.512-0.195-0.707,0l-1.848,1.848l-5.101-5.102l9.019-9.019c0.073-0.073,0.122-0.168,0.14-0.27
		l1.037-6.128c0.027-0.16-0.025-0.323-0.14-0.437c-0.115-0.115-0.276-0.164-0.437-0.14l-6.128,1.037
		c-0.102,0.018-0.197,0.066-0.27,0.14l-9.019,9.019L6.988,1.181C6.914,1.108,6.82,1.059,6.717,1.041L0.583,0.008
		c-0.161-0.024-0.322,0.025-0.437,0.14C0.032,0.262-0.02,0.425,0.007,0.585L1.05,6.71c0.017,0.102,0.066,0.196,0.139,0.27
		l9.012,9.021l-5.1,5.1l-1.846-1.846c-0.195-0.195-0.512-0.195-0.707,0s-0.195,0.512,0,0.707l2.2,2.2l2.192,2.192L4.56,26.733
		c-1.117-0.762-2.736-0.66-3.71,0.316c-1.131,1.131-1.131,2.971,0,4.102C1.398,31.698,2.126,32,2.901,32
		c0.774,0,1.503-0.302,2.05-0.85c0.548-0.548,0.85-1.276,0.85-2.051c0-0.605-0.189-1.178-0.531-1.663l2.376-2.376l2.192,2.193
		c0,0,0.001,0.001,0.001,0.001l2.136,2.136c0.098,0.098,0.226,0.146,0.354,0.146s0.256-0.049,0.354-0.146
		c0.195-0.195,0.195-0.512,0-0.707L10.9,26.899l5.1-5.1l5.101,5.101l-1.782,1.782c-0.195,0.195-0.195,0.512,0,0.707
		c0.098,0.098,0.226,0.146,0.354,0.146s0.256-0.049,0.354-0.146l4.329-4.329l2.377,2.377c-0.793,1.131-0.692,2.702,0.318,3.712
		C27.597,31.698,28.326,32,29.1,32s1.503-0.302,2.051-0.85C32.281,30.019,32.281,28.179,31.151,27.048z M4.244,30.443
		c-0.718,0.718-1.97,0.717-2.687,0c-0.741-0.741-0.741-1.946,0-2.688c0.359-0.359,0.836-0.556,1.344-0.556
		c0.507,0,0.984,0.197,1.343,0.556s0.557,0.836,0.557,1.344S4.603,30.084,4.244,30.443z M2.009,6.385L1.111,1.111l5.283,0.89
		l8.899,8.909l-4.384,4.384L2.009,6.385z M10.192,26.192l-4.385-4.385l5.452-5.452c0.001-0.001,0.001-0.001,0.002-0.001
		s0.001-0.001,0.001-0.002l5.088-5.088c0.001-0.001,0.002-0.001,0.002-0.001s0.001-0.002,0.001-0.002l9.258-9.258L30.89,1.11
		l-0.893,5.277L10.192,26.192z M21.805,26.191l-5.098-5.099l4.384-4.384l5.098,5.099L21.805,26.191z M30.444,30.443
		c-0.718,0.718-1.97,0.718-2.688,0c-0.74-0.741-0.74-1.947,0-2.688c0.359-0.359,0.836-0.556,1.344-0.556s0.985,0.197,1.344,0.556
		C31.184,28.496,31.184,29.702,30.444,30.443z"/>
	<path fill="#F3C358" d="M12.123,12.624c0.128,0,0.256-0.049,0.354-0.146c0.195-0.195,0.195-0.512,0-0.707L4.31,3.595
		C4.115,3.4,3.799,3.4,3.603,3.595c-0.195,0.195-0.195,0.512,0,0.707l8.167,8.175C11.868,12.575,11.995,12.624,12.123,12.624z"/>
</g>
</svg>
