<?xml version="1.0" encoding="utf-8"?>
<!-- Generator: Adobe Illustrator 18.0.0, SVG Export Plug-In . SVG Version: 6.00 Build 0)  -->
<!DOCTYPE svg PUBLIC "-//W3C//DTD SVG 1.1//EN" "http://www.w3.org/Graphics/SVG/1.1/DTD/svg11.dtd">
<svg version="1.1" id="Layer_1" xmlns="http://www.w3.org/2000/svg" xmlns:xlink="http://www.w3.org/1999/xlink" x="0px" y="0px"
	 viewBox="0 0 13 13" enable-background="new 0 0 13 13" xml:space="preserve">
<g>
	<path fill="#F1D273" d="M6.5,0C2.916,0,0,2.916,0,6.5S2.916,13,6.5,13S13,10.084,13,6.5S10.084,0,6.5,0z M6.5,12
		C3.467,12,1,9.533,1,6.5S3.467,1,6.5,1S12,3.467,12,6.5S9.533,12,6.5,12z"/>
	<path fill="#F1D273" d="M8.2,3.887H6.286C5.191,3.887,4.3,4.779,4.3,5.874v1.252c0,1.095,0.891,1.987,1.986,1.987H8.2
		c0.276,0,0.5-0.224,0.5-0.5s-0.224-0.5-0.5-0.5H6.286C5.743,8.113,5.3,7.67,5.3,7.126V5.874c0-0.544,0.443-0.987,0.986-0.987H8.2
		c0.276,0,0.5-0.224,0.5-0.5S8.476,3.887,8.2,3.887z"/>
	<path fill="#F1D273" d="M8.2,5.996H6.367c-0.276,0-0.5,0.224-0.5,0.5s0.224,0.5,0.5,0.5H8.2c0.276,0,0.5-0.224,0.5-0.5
		S8.476,5.996,8.2,5.996z"/>
</g>
</svg>
