<?xml version="1.0" encoding="utf-8"?>
<!-- Generator: Adobe Illustrator 18.0.0, SVG Export Plug-In . SVG Version: 6.00 Build 0)  -->
<!DOCTYPE svg PUBLIC "-//W3C//DTD SVG 1.1//EN" "http://www.w3.org/Graphics/SVG/1.1/DTD/svg11.dtd">
<svg version="1.1" id="Layer_1" xmlns="http://www.w3.org/2000/svg" xmlns:xlink="http://www.w3.org/1999/xlink" x="0px" y="0px"
	 viewBox="0 0 42 42" enable-background="new 0 0 42 42" xml:space="preserve">
<g>
	<linearGradient id="SVGID_1_" gradientUnits="userSpaceOnUse" x1="14.928" y1="35.3712" x2="29.6409" y2="-5.052">
		<stop  offset="0" style="stop-color:#F46276"/>
		<stop  offset="1" style="stop-color:#FFBA00"/>
	</linearGradient>
	<path fill="url(#SVGID_1_)" d="M37.595,0H4.405C1.976,0,0,1.976,0,4.405v28.568c0,2.429,1.976,4.405,4.405,4.405h0.476v1.446
		c0,1.752,1.426,3.177,3.18,3.177h3.793c1.753,0,3.18-1.425,3.18-3.177v-1.446h11.934v1.446c0,1.752,1.427,3.177,3.18,3.177h3.792
		c1.753,0,3.18-1.425,3.18-3.177v-1.446h0.477c2.429,0,4.405-1.976,4.405-4.405V4.405C42,1.976,40.024,0,37.595,0z M14.033,38.823
		c0,1.2-0.978,2.177-2.18,2.177H8.061c-1.202,0-2.18-0.977-2.18-2.177v-1.446h8.152V38.823z M36.119,38.823
		c0,1.2-0.978,2.177-2.18,2.177h-3.792c-1.202,0-2.18-0.977-2.18-2.177v-1.446h8.152V38.823z M41,32.973
		c0,1.877-1.527,3.405-3.405,3.405h-0.957c-0.007,0-0.013-0.002-0.019-0.002s-0.013,0.002-0.019,0.002h-9.113
		c-0.007,0-0.013-0.002-0.019-0.002s-0.013,0.002-0.019,0.002H14.552c-0.007,0-0.013-0.002-0.019-0.002s-0.013,0.002-0.019,0.002
		H5.401c-0.007,0-0.013-0.002-0.019-0.002s-0.013,0.002-0.019,0.002H4.405C2.527,36.377,1,34.85,1,32.973V4.405
		C1,2.527,2.527,1,4.405,1h33.19C39.473,1,41,2.527,41,4.405V32.973z"/>
	<linearGradient id="SVGID_2_" gradientUnits="userSpaceOnUse" x1="8.5355" y1="32.2146" x2="23.7891" y2="-9.6943">
		<stop  offset="0" style="stop-color:#F46276"/>
		<stop  offset="1" style="stop-color:#FFBA00"/>
	</linearGradient>
	<path fill="url(#SVGID_2_)" d="M19.654,12.545c-0.008-0.009-0.015-0.02-0.023-0.029c-0.009-0.009-0.02-0.016-0.029-0.024
		c-1.579-1.565-3.749-2.533-6.143-2.533c-2.386,0-4.551,0.963-6.129,2.52c-0.015,0.012-0.031,0.023-0.046,0.037
		c-0.014,0.014-0.025,0.03-0.037,0.046c-1.556,1.577-2.519,3.741-2.519,6.127c0,2.384,0.962,4.547,2.516,6.124
		c0.013,0.016,0.025,0.034,0.04,0.049c0.015,0.015,0.032,0.027,0.049,0.04c1.577,1.555,3.741,2.517,6.125,2.517
		c2.392,0,4.561-0.967,6.14-2.531c0.011-0.009,0.022-0.016,0.032-0.026c0.01-0.01,0.017-0.021,0.026-0.032
		c1.564-1.578,2.532-3.749,2.532-6.141C22.188,16.295,21.219,14.124,19.654,12.545z M19.614,19.189h1.556
		c-0.113,1.756-0.814,3.353-1.909,4.598l-1.098-1.099c-0.195-0.195-0.512-0.195-0.707,0s-0.195,0.512,0,0.707l1.098,1.098
		c-1.244,1.094-2.841,1.795-4.596,1.907v-1.556c0-0.276-0.224-0.5-0.5-0.5s-0.5,0.224-0.5,0.5v1.556
		c-1.755-0.113-3.353-0.814-4.597-1.908l1.099-1.097c0.094-0.094,0.147-0.221,0.147-0.354v-0.002c0-0.276-0.224-0.499-0.5-0.499
		c-0.145,0-0.276,0.062-0.367,0.161l-1.086,1.084c-1.094-1.244-1.795-2.842-1.908-4.597h1.556c0.276,0,0.5-0.224,0.5-0.5
		s-0.224-0.5-0.5-0.5H5.746c0.113-1.755,0.814-3.352,1.908-4.596l1.1,1.098c0.098,0.097,0.225,0.146,0.353,0.146
		c0.128,0,0.256-0.049,0.354-0.147c0.195-0.195,0.195-0.512-0.001-0.707l-1.099-1.098c1.245-1.094,2.842-1.795,4.597-1.908v1.556
		c0,0.276,0.224,0.5,0.5,0.5s0.5-0.224,0.5-0.5v-1.556c1.755,0.113,3.352,0.813,4.597,1.907l-1.099,1.099
		c-0.195,0.195-0.195,0.512,0,0.707c0.098,0.098,0.226,0.146,0.354,0.146s0.256-0.049,0.354-0.146l1.099-1.099
		c1.095,1.245,1.796,2.842,1.908,4.597h-1.556c-0.276,0-0.5,0.224-0.5,0.5S19.338,19.189,19.614,19.189z"/>
	<linearGradient id="SVGID_3_" gradientUnits="userSpaceOnUse" x1="8.5356" y1="32.2141" x2="23.7887" y2="-9.6935">
		<stop  offset="0" style="stop-color:#F46276"/>
		<stop  offset="1" style="stop-color:#FFBA00"/>
	</linearGradient>
	<path fill="url(#SVGID_3_)" d="M13.458,15.67c-1.664,0-3.019,1.354-3.019,3.019c0,1.665,1.354,3.019,3.019,3.019
		c1.665,0,3.019-1.354,3.019-3.019C16.477,17.024,15.123,15.67,13.458,15.67z M13.458,20.707c-1.113,0-2.019-0.906-2.019-2.019
		c0-1.113,0.906-2.019,2.019-2.019c1.113,0,2.019,0.906,2.019,2.019C15.477,19.802,14.572,20.707,13.458,20.707z"/>
	<linearGradient id="SVGID_4_" gradientUnits="userSpaceOnUse" x1="27.2309" y1="43.4234" x2="43.1623" y2="-0.3477">
		<stop  offset="0" style="stop-color:#F46276"/>
		<stop  offset="1" style="stop-color:#FFBA00"/>
	</linearGradient>
	<path fill="url(#SVGID_4_)" d="M38.407,8.187c0-0.276-0.224-0.5-0.5-0.5h-0.613c-2.429,0-4.405,1.976-4.405,4.405v13.191
		c0,2.429,1.976,4.405,4.405,4.405h0.613c0.276,0,0.5-0.224,0.5-0.5s-0.224-0.5-0.5-0.5h-0.613c-1.877,0-3.405-1.527-3.405-3.405
		V12.092c0-1.877,1.527-3.405,3.405-3.405h0.613C38.184,8.687,38.407,8.464,38.407,8.187z"/>
	<linearGradient id="SVGID_5_" gradientUnits="userSpaceOnUse" x1="28.0098" y1="44.1988" x2="44.1709" y2="-0.2035">
		<stop  offset="0" style="stop-color:#F46276"/>
		<stop  offset="1" style="stop-color:#FFBA00"/>
	</linearGradient>
	<path fill="url(#SVGID_5_)" d="M36.795,12.533v12.309c0,0.276,0.224,0.5,0.5,0.5s0.5-0.224,0.5-0.5V12.533
		c0-0.276-0.224-0.5-0.5-0.5S36.795,12.257,36.795,12.533z"/>
</g>
</svg>
