<?xml version="1.0" encoding="utf-8"?>
<!-- Generator: Adobe Illustrator 18.0.0, SVG Export Plug-In . SVG Version: 6.00 Build 0)  -->
<!DOCTYPE svg PUBLIC "-//W3C//DTD SVG 1.1//EN" "http://www.w3.org/Graphics/SVG/1.1/DTD/svg11.dtd">
<svg version="1.1" id="Layer_1" xmlns="http://www.w3.org/2000/svg" xmlns:xlink="http://www.w3.org/1999/xlink" x="0px" y="0px"
	 viewBox="0 0 16 16" enable-background="new 0 0 16 16" xml:space="preserve">
<g>
	<path fill="#F1D273" d="M8,0C3.589,0,0,3.589,0,8s3.589,8,8,8s8-3.589,8-8S12.411,0,8,0z M8,15c-3.86,0-7-3.141-7-7s3.14-7,7-7
		s7,3.141,7,7S11.86,15,8,15z"/>
	<path fill="#F1D273" d="M10.125,4.859H7.733c-1.3,0-2.358,1.058-2.358,2.358v1.564c0,1.301,1.058,2.358,2.358,2.358h2.392
		c0.276,0,0.5-0.224,0.5-0.5s-0.224-0.5-0.5-0.5H7.733c-0.749,0-1.358-0.609-1.358-1.358V7.218c0-0.749,0.609-1.358,1.358-1.358
		h2.392c0.276,0,0.5-0.224,0.5-0.5S10.401,4.859,10.125,4.859z"/>
	<path fill="#F1D273" d="M10.125,7.495H7.833c-0.276,0-0.5,0.224-0.5,0.5s0.224,0.5,0.5,0.5h2.292c0.276,0,0.5-0.224,0.5-0.5
		S10.401,7.495,10.125,7.495z"/>
</g>
</svg>
