<?xml version="1.0" encoding="utf-8"?>
<!-- Generator: Adobe Illustrator 18.0.0, SVG Export Plug-In . SVG Version: 6.00 Build 0)  -->
<!DOCTYPE svg PUBLIC "-//W3C//DTD SVG 1.1//EN" "http://www.w3.org/Graphics/SVG/1.1/DTD/svg11.dtd">
<svg version="1.1" id="Layer_1" xmlns="http://www.w3.org/2000/svg" xmlns:xlink="http://www.w3.org/1999/xlink" x="0px" y="0px"
	 viewBox="0 0 74 55" enable-background="new 0 0 74 55" xml:space="preserve">
<g>
	<path fill="#FFFFFF" d="M42.036,43.787H12.327C6.633,43.787,2,39.154,2,33.46V12.379C2,6.685,6.633,2.052,12.327,2.052h39.645
		c5.694,0,10.327,4.633,10.327,10.327v11.17c0,0.553,0.448,1,1,1s1-0.447,1-1v-11.17c0-6.797-5.53-12.327-12.327-12.327H12.327
		C5.53,0.052,0,5.582,0,12.379V33.46c0,6.797,5.53,12.327,12.327,12.327h29.709c0.552,0,1-0.447,1-1S42.588,43.787,42.036,43.787z"
		/>
	<path fill="#FFFFFF" d="M42.096,19.873l-13.771-7.95c-0.538-0.311-1.145-0.475-1.755-0.475c-1.941,0-3.521,1.579-3.521,3.521V30.87
		c0,1.941,1.58,3.521,3.521,3.521c0.61,0,1.217-0.164,1.755-0.475l13.771-7.95c1.101-0.636,1.758-1.774,1.758-3.046
		C43.854,21.647,43.197,20.509,42.096,19.873z M41.096,24.233l-13.771,7.95c-0.238,0.138-0.492,0.207-0.755,0.207
		c-0.731,0-1.521-0.581-1.521-1.521V14.969c0-0.939,0.79-1.521,1.521-1.521c0.263,0,0.517,0.069,0.755,0.207l13.771,7.95
		c0.475,0.274,0.758,0.766,0.758,1.314C41.854,23.468,41.57,23.959,41.096,24.233z"/>
	<path fill="#FFFFFF" d="M61.042,29.033c-7.145,0-12.958,5.812-12.958,12.957c0,7.146,5.812,12.958,12.958,12.958
		S74,49.136,74,41.99C74,34.846,68.188,29.033,61.042,29.033z M61.042,52.948c-6.042,0-10.958-4.916-10.958-10.958
		S55,31.033,61.042,31.033S72,35.948,72,41.99S67.084,52.948,61.042,52.948z"/>
	<path fill="#FFFFFF" d="M64.431,36.78h-3.813c-2.185,0-3.962,1.777-3.962,3.963v2.495c0,2.185,1.777,3.962,3.962,3.962h3.813
		c0.552,0,1-0.447,1-1s-0.448-1-1-1h-3.813c-1.082,0-1.962-0.88-1.962-1.962v-2.495c0-1.082,0.88-1.963,1.962-1.963h3.813
		c0.552,0,1-0.447,1-1S64.983,36.78,64.431,36.78z"/>
	<path fill="#FFFFFF" d="M64.431,40.982h-2.71c-0.552,0-1,0.447-1,1s0.448,1,1,1h2.71c0.552,0,1-0.447,1-1
		S64.983,40.982,64.431,40.982z"/>
</g>
</svg>
